país,ciudad,temperatura°[C]
Chile,Santiago,25
Chile,Valdivia,13
chile,Arica,12
Argentina,Buenos Aires,33
Perú,Lima,15
perú,Tacna,22
Ecuador,Quito,27
Estados Unidos,Virginia,29
Estados Unidos,California,37
México,Ciudad de México,15
