<?xml version="1.0" encoding="UTF-8" standalone="no"?>
<!-- Created with Inkscape (http://www.inkscape.org/) -->

<svg
   xmlns:dc="http://purl.org/dc/elements/1.1/"
   xmlns:cc="http://creativecommons.org/ns#"
   xmlns:rdf="http://www.w3.org/1999/02/22-rdf-syntax-ns#"
   xmlns:svg="http://www.w3.org/2000/svg"
   xmlns="http://www.w3.org/2000/svg"
   xmlns:sodipodi="http://sodipodi.sourceforge.net/DTD/sodipodi-0.dtd"
   xmlns:inkscape="http://www.inkscape.org/namespaces/inkscape"
   width="59.778481mm"
   height="43.089046mm"
   viewBox="0 0 59.778481 43.089046"
   version="1.1"
   id="svg4569"
   inkscape:version="0.92.1 r15371"
   sodipodi:docname="logo_tecnocomunes.svg"
   inkscape:export-filename="/home/david/Documents/CursoProgramacion/difusion/logo_tecnocomunes.png"
   inkscape:export-xdpi="199.8327"
   inkscape:export-ydpi="199.8327">
  <defs
     id="defs4563" />
  <sodipodi:namedview
     id="base"
     pagecolor="#ffffff"
     bordercolor="#666666"
     borderopacity="1.0"
     inkscape:pageopacity="0.0"
     inkscape:pageshadow="2"
     inkscape:zoom="0.7"
     inkscape:cx="209.38996"
     inkscape:cy="-12.474947"
     inkscape:document-units="mm"
     inkscape:current-layer="layer1"
     showgrid="false"
     showguides="true"
     inkscape:guide-bbox="true"
     inkscape:window-width="1366"
     inkscape:window-height="709"
     inkscape:window-x="0"
     inkscape:window-y="0"
     inkscape:window-maximized="1"
     fit-margin-top="0"
     fit-margin-left="0"
     fit-margin-right="0.6"
     fit-margin-bottom="0" />
  <metadata
     id="metadata4566">
    <rdf:RDF>
      <cc:Work
         rdf:about="">
        <dc:format>image/svg+xml</dc:format>
        <dc:type
           rdf:resource="http://purl.org/dc/dcmitype/StillImage" />
        <dc:title></dc:title>
      </cc:Work>
    </rdf:RDF>
  </metadata>
  <g
     inkscape:label="Capa 1"
     inkscape:groupmode="layer"
     id="layer1"
     transform="translate(-34.183918,-73.899554)">
    <path
       sodipodi:nodetypes="csssc"
       inkscape:connector-curvature="0"
       id="path5148"
       d="m 62.936601,87.455316 c 0,0 1.392061,4.546067 3.34087,4.944488 4.103759,0.838985 6.447982,-7.627478 10.557145,-6.815373 3.139693,0.620506 3.885749,3.491084 7.082643,3.340869 4.801634,-0.225618 5.479024,-8.018085 5.479024,-8.018085"
       style="fill:none;stroke:#160e0d;stroke-width:0.79374999;stroke-linecap:butt;stroke-linejoin:miter;stroke-miterlimit:4;stroke-dasharray:none;stroke-opacity:1" />
    <path
       inkscape:connector-curvature="0"
       id="path5132"
       d="M 47.375287,115.27307 35.847013,114.8951 V 80.12129 l -1.133928,36.28571 13.657326,0.5816 z"
       style="fill:#000000;fill-opacity:1;stroke:none;stroke-width:0.26458332px;stroke-linecap:butt;stroke-linejoin:miter;stroke-opacity:1" />
    <path
       style="fill:#000000;fill-opacity:1;stroke:none;stroke-width:0.26458332px;stroke-linecap:butt;stroke-linejoin:miter;stroke-opacity:1"
       d="m 81.300202,76.144251 11.52827,0.37797 V 111.29603 L 93.9624,75.010321 80.305072,74.428721 Z"
       id="path5134"
       inkscape:connector-curvature="0" />
    <text
       xml:space="preserve"
       style="font-style:normal;font-variant:normal;font-weight:normal;font-stretch:normal;font-size:16.16427803px;line-height:1.25;font-family:'Accanthis ADF Std';-inkscape-font-specification:'Accanthis ADF Std, Normal';font-variant-ligatures:normal;font-variant-caps:normal;font-variant-numeric:normal;font-feature-settings:normal;text-align:start;letter-spacing:0px;word-spacing:0px;writing-mode:lr-tb;text-anchor:start;fill:#000000;fill-opacity:1;stroke:none;stroke-width:0.40410429"
       x="60.168262"
       y="103.01917"
       id="text5116"><tspan
         sodipodi:role="line"
         id="tspan5114"
         x="60.168262"
         y="103.01917"
         style="font-style:normal;font-variant:normal;font-weight:normal;font-stretch:normal;font-size:16.16427803px;font-family:'Accanthis ADF Std';-inkscape-font-specification:'Accanthis ADF Std, Normal';font-variant-ligatures:normal;font-variant-caps:normal;font-variant-numeric:normal;font-feature-settings:normal;text-align:start;writing-mode:lr-tb;text-anchor:start;stroke-width:0.40410429">ecno</tspan></text>
    <text
       xml:space="preserve"
       style="font-style:normal;font-variant:normal;font-weight:normal;font-stretch:normal;font-size:14.95864487px;line-height:1.25;font-family:'Accanthis ADF Std';-inkscape-font-specification:'Accanthis ADF Std, Normal';font-variant-ligatures:normal;font-variant-caps:normal;font-variant-numeric:normal;font-feature-settings:normal;text-align:start;letter-spacing:0px;word-spacing:0px;writing-mode:lr-tb;text-anchor:start;fill:#000000;fill-opacity:1;stroke:none;stroke-width:0.37396997"
       x="36.231445"
       y="113.07341"
       id="text5120"><tspan
         sodipodi:role="line"
         id="tspan5118"
         x="36.231445"
         y="113.07341"
         style="font-style:normal;font-variant:normal;font-weight:normal;font-stretch:normal;font-size:14.95864487px;font-family:'Accanthis ADF Std';-inkscape-font-specification:'Accanthis ADF Std, Normal';font-variant-ligatures:normal;font-variant-caps:normal;font-variant-numeric:normal;font-feature-settings:normal;text-align:start;writing-mode:lr-tb;text-anchor:start;stroke-width:0.37396997">comunes</tspan></text>
    <text
       xml:space="preserve"
       style="font-style:normal;font-variant:normal;font-weight:normal;font-stretch:normal;font-size:39.39116669px;line-height:1.25;font-family:'Accanthis ADF Std';-inkscape-font-specification:'Accanthis ADF Std, Normal';font-variant-ligatures:normal;font-variant-caps:normal;font-variant-numeric:normal;font-feature-settings:normal;text-align:start;letter-spacing:0px;word-spacing:0px;writing-mode:lr-tb;text-anchor:start;fill:#000000;fill-opacity:1;stroke:none;stroke-width:0.98474318"
       x="36.514874"
       y="103.47619"
       id="text5124"><tspan
         sodipodi:role="line"
         id="tspan5122"
         x="36.514874"
         y="103.47619"
         style="font-style:normal;font-variant:normal;font-weight:normal;font-stretch:normal;font-size:39.39116669px;font-family:'Accanthis ADF Std';-inkscape-font-specification:'Accanthis ADF Std, Normal';font-variant-ligatures:normal;font-variant-caps:normal;font-variant-numeric:normal;font-feature-settings:normal;text-align:start;writing-mode:lr-tb;text-anchor:start;stroke-width:0.98474318">T</tspan></text>
    <path
       style="fill:#ff0e00;fill-opacity:1;stroke:none;stroke-width:0.26458332px;stroke-linecap:butt;stroke-linejoin:miter;stroke-opacity:1"
       d="M 46.84612,114.7439 35.317846,114.36593 V 79.592123 l -1.133928,36.285707 13.657326,0.5816 z"
       id="path5128"
       inkscape:connector-curvature="0" />
    <path
       inkscape:connector-curvature="0"
       id="path5130"
       d="m 80.771035,75.615084 11.52827,0.37797 v 34.773806 l 1.133928,-36.285706 -13.657328,-0.5816 z"
       style="fill:#ff0e00;fill-opacity:1;stroke:none;stroke-width:0.26458332px;stroke-linecap:butt;stroke-linejoin:miter;stroke-opacity:1" />
    <path
       style="fill:none;stroke:#ff0e00;stroke-width:0.79374999;stroke-linecap:butt;stroke-linejoin:miter;stroke-miterlimit:4;stroke-dasharray:none;stroke-opacity:1"
       d="m 62.407434,86.926149 c 0,0 1.392061,4.546067 3.34087,4.944488 4.103759,0.838985 6.447982,-7.627478 10.557145,-6.815373 3.139693,0.620506 3.885749,3.491084 7.082643,3.340869 4.801634,-0.225618 5.479024,-8.018085 5.479024,-8.018085"
       id="path5144"
       inkscape:connector-curvature="0"
       sodipodi:nodetypes="csssc" />
  </g>
</svg>
