<?xml version="1.0" encoding="UTF-8" standalone="no"?>
<!-- Created with Inkscape (http://www.inkscape.org/) -->

<svg
   xmlns:dc="http://purl.org/dc/elements/1.1/"
   xmlns:cc="http://creativecommons.org/ns#"
   xmlns:rdf="http://www.w3.org/1999/02/22-rdf-syntax-ns#"
   xmlns:svg="http://www.w3.org/2000/svg"
   xmlns="http://www.w3.org/2000/svg"
   xmlns:sodipodi="http://sodipodi.sourceforge.net/DTD/sodipodi-0.dtd"
   xmlns:inkscape="http://www.inkscape.org/namespaces/inkscape"
   width="180.88303mm"
   height="165.76212mm"
   viewBox="0 0 180.88303 165.76212"
   version="1.1"
   id="svg8"
   inkscape:version="0.92.1 r15371"
   sodipodi:docname="vista_pagina.svg"
   inkscape:export-filename="/home/david/Documents/CursoProgramacion/nivel3/sesion3/pagina/vista_pagina.png"
   inkscape:export-xdpi="95"
   inkscape:export-ydpi="95">
  <defs
     id="defs2" />
  <sodipodi:namedview
     id="base"
     pagecolor="#ffffff"
     bordercolor="#666666"
     borderopacity="1.0"
     inkscape:pageopacity="0.0"
     inkscape:pageshadow="2"
     inkscape:zoom="0.24748737"
     inkscape:cx="471.11399"
     inkscape:cy="-87.496647"
     inkscape:document-units="mm"
     inkscape:current-layer="layer1"
     showgrid="false"
     fit-margin-top="5"
     fit-margin-left="5"
     fit-margin-right="5"
     fit-margin-bottom="5"
     inkscape:window-width="1366"
     inkscape:window-height="709"
     inkscape:window-x="0"
     inkscape:window-y="0"
     inkscape:window-maximized="1" />
  <metadata
     id="metadata5">
    <rdf:RDF>
      <cc:Work
         rdf:about="">
        <dc:format>image/svg+xml</dc:format>
        <dc:type
           rdf:resource="http://purl.org/dc/dcmitype/StillImage" />
        <dc:title></dc:title>
      </cc:Work>
    </rdf:RDF>
  </metadata>
  <g
     inkscape:label="Capa 1"
     inkscape:groupmode="layer"
     id="layer1"
     transform="translate(-15.01384,-5.0971722)">
    <text
       xml:space="preserve"
       style="font-style:normal;font-weight:normal;font-size:17.0844326px;line-height:1.25;font-family:sans-serif;letter-spacing:0px;word-spacing:0px;fill:#000000;fill-opacity:1;stroke:none;stroke-width:0.42711082"
       x="29.50119"
       y="93.702179"
       id="text4487"><tspan
         sodipodi:role="line"
         id="tspan4485"
         x="29.50119"
         y="93.702179"
         style="stroke-width:0.42711082">Título de Página</tspan></text>
    <rect
       style="opacity:1;fill:none;fill-opacity:1;stroke:#000000;stroke-width:0.79374999;stroke-miterlimit:4;stroke-dasharray:none;stroke-dashoffset:0;stroke-opacity:1"
       id="rect4489"
       width="170.08928"
       height="56.69643"
       x="20.410715"
       y="10.494047" />
    <text
       id="text4493"
       y="119.59451"
       x="29.50119"
       style="font-style:normal;font-weight:normal;font-size:17.0844326px;line-height:1.25;font-family:sans-serif;letter-spacing:0px;word-spacing:0px;fill:#000000;fill-opacity:1;stroke:none;stroke-width:0.42711082"
       xml:space="preserve"><tspan
         style="stroke-width:0.42711082"
         y="119.59451"
         x="29.50119"
         id="tspan4491"
         sodipodi:role="line">Contenido:</tspan><tspan
         style="stroke-width:0.42711082"
         y="140.95006"
         x="29.50119"
         sodipodi:role="line"
         id="tspan4503">[blablablabla]</tspan><tspan
         style="stroke-width:0.42711082"
         y="162.30559"
         x="29.50119"
         sodipodi:role="line"
         id="tspan4509">(12px, negro, etc)</tspan></text>
  </g>
</svg>
