<?xml version="1.0" encoding="UTF-8" standalone="no"?>
<!-- Created with Inkscape (http://www.inkscape.org/) -->

<svg
   xmlns:dc="http://purl.org/dc/elements/1.1/"
   xmlns:cc="http://creativecommons.org/ns#"
   xmlns:rdf="http://www.w3.org/1999/02/22-rdf-syntax-ns#"
   xmlns:svg="http://www.w3.org/2000/svg"
   xmlns="http://www.w3.org/2000/svg"
   xmlns:sodipodi="http://sodipodi.sourceforge.net/DTD/sodipodi-0.dtd"
   xmlns:inkscape="http://www.inkscape.org/namespaces/inkscape"
   width="217.5574mm"
   height="220.09647mm"
   viewBox="0 0 217.5574 220.09647"
   version="1.1"
   id="svg8"
   inkscape:version="0.92.1 r15371"
   sodipodi:docname="figuraencuadro.svg">
  <defs
     id="defs2" />
  <sodipodi:namedview
     id="base"
     pagecolor="#ffffff"
     bordercolor="#666666"
     borderopacity="1.0"
     inkscape:pageopacity="0.0"
     inkscape:pageshadow="2"
     inkscape:zoom="0.49497475"
     inkscape:cx="890.2635"
     inkscape:cy="364.94738"
     inkscape:document-units="mm"
     inkscape:current-layer="layer1"
     showgrid="false"
     fit-margin-top="0"
     fit-margin-left="0"
     fit-margin-right="0"
     fit-margin-bottom="0"
     inkscape:window-width="1366"
     inkscape:window-height="709"
     inkscape:window-x="0"
     inkscape:window-y="0"
     inkscape:window-maximized="1" />
  <metadata
     id="metadata5">
    <rdf:RDF>
      <cc:Work
         rdf:about="">
        <dc:format>image/svg+xml</dc:format>
        <dc:type
           rdf:resource="http://purl.org/dc/dcmitype/StillImage" />
        <dc:title></dc:title>
      </cc:Work>
    </rdf:RDF>
  </metadata>
  <g
     inkscape:label="Capa 1"
     inkscape:groupmode="layer"
     id="layer1"
     transform="translate(1.6036172,-9.6583911)">
    <rect
       style="fill:#ffffff;fill-opacity:1;stroke:#000000;stroke-width:0.26499999;stroke-miterlimit:4;stroke-dasharray:none;stroke-opacity:1"
       id="rect4485"
       width="185.96428"
       height="187.47618"
       x="16.630953"
       y="27.124998" />
    <rect
       style="opacity:0.07262567;fill:#ff0000;fill-opacity:1;stroke:#000000;stroke-width:0.26499999;stroke-miterlimit:4;stroke-dasharray:none;stroke-opacity:1"
       id="rect4507"
       width="4.9444861"
       height="25.123335"
       x="70.158249"
       y="134.36649" />
    <path
       style="fill:#000000;fill-opacity:1;stroke:#000000;stroke-width:1.00157475;stroke-miterlimit:4;stroke-dasharray:none;stroke-opacity:1"
       d="m 338.58984,195.67383 a 87.883272,94.954337 0 0 0 -56.4707,22.32226 87.883272,94.954337 0 0 0 -18.2793,-2.11914 87.883272,94.954337 0 0 0 -87.88476,94.95508 87.883272,94.954337 0 0 0 29.51172,70.85742 87.883272,94.954337 0 0 0 -9.3086,42.2793 87.883272,94.954337 0 0 0 87.88477,94.95508 87.883272,94.954337 0 0 0 54.57422,-20.53125 87.883272,94.954337 0 0 0 -9.3086,42.2793 87.883272,94.954337 0 0 0 87.88477,94.95507 87.883272,94.954337 0 0 0 54.57422,-20.53125 87.883272,94.954337 0 0 0 70.68359,38.71289 87.883272,94.954337 0 0 0 87.88281,-94.95312 87.883272,94.954337 0 0 0 -9.53515,-43.00977 87.883272,94.954337 0 0 0 15.59765,-53.96484 87.883272,94.954337 0 0 0 -85.16992,-94.80859 87.883272,94.954337 0 0 0 -51.89844,-49.80469 87.883272,94.954337 0 0 0 -81.25195,-66.89844 87.883272,94.954337 0 0 0 -79.48633,-54.69531 z"
       transform="scale(0.26458333)"
       id="path4487"
       inkscape:connector-curvature="0" />
    <circle
       style="fill:#ff0000;fill-opacity:1;stroke:#000000;stroke-width:0.26499999;stroke-miterlimit:4;stroke-dasharray:none;stroke-opacity:1"
       id="path4501"
       cx="72.29641"
       cy="146.92816"
       r="1.2027128" />
    <path
       style="fill:none;stroke:#000000;stroke-width:0.26458332px;stroke-linecap:butt;stroke-linejoin:miter;stroke-opacity:1"
       d="M -1.6036172,146.76766 H 215.95378"
       id="path4503"
       inkscape:connector-curvature="0" />
    <path
       inkscape:connector-curvature="0"
       id="path4505"
       d="M 72.40127,9.6583911 V 227.21579"
       style="fill:none;stroke:#000000;stroke-width:0.26458332px;stroke-linecap:butt;stroke-linejoin:miter;stroke-opacity:1" />
    <rect
       y="-85.192162"
       x="144.45592"
       height="25.123335"
       width="4.9444861"
       id="rect4509"
       style="opacity:0.07262567;fill:#ff0000;fill-opacity:1;stroke:#000000;stroke-width:0.26499999;stroke-miterlimit:4;stroke-dasharray:none;stroke-opacity:1"
       transform="rotate(90)" />
    <path
       style="opacity:0.422;fill:#05ff00;fill-opacity:1;stroke:#00d100;stroke-width:1.00157475;stroke-miterlimit:4;stroke-dasharray:none;stroke-opacity:1"
       d="m 265.16406,545.97461 v 18.6875 h 18.68946 v -18.6875 z"
       transform="scale(0.26458333)"
       id="rect4511"
       inkscape:connector-curvature="0" />
    <path
       inkscape:connector-curvature="0"
       id="path4526"
       d="M -1.6036172,143.96133 H 215.95378"
       style="fill:none;stroke:#000000;stroke-width:0.26458332;stroke-linecap:butt;stroke-linejoin:miter;stroke-miterlimit:4;stroke-dasharray:0.26458332, 0.26458332;stroke-dashoffset:0;stroke-opacity:1" />
    <path
       style="fill:none;stroke:#000000;stroke-width:0.26458332;stroke-linecap:butt;stroke-linejoin:miter;stroke-miterlimit:4;stroke-dasharray:0.26458332, 0.26458332;stroke-dashoffset:0;stroke-opacity:1"
       d="M -1.6036172,149.30672 H 215.95378"
       id="path4528"
       inkscape:connector-curvature="0" />
    <path
       inkscape:connector-curvature="0"
       id="path4530"
       d="M 75.503641,12.197451 V 229.75485"
       style="fill:none;stroke:#000000;stroke-width:0.26458332;stroke-linecap:butt;stroke-linejoin:miter;stroke-miterlimit:4;stroke-dasharray:0.26458332, 0.26458332;stroke-dashoffset:0;stroke-opacity:1" />
    <path
       style="fill:none;stroke:#000000;stroke-width:0.26458332;stroke-linecap:butt;stroke-linejoin:miter;stroke-miterlimit:4;stroke-dasharray:0.26458332, 0.26458332;stroke-dashoffset:0;stroke-opacity:1"
       d="M 69.890981,12.197451 V 229.75485"
       id="path4532"
       inkscape:connector-curvature="0" />
  </g>
</svg>
