<?xml version="1.0" encoding="UTF-8" standalone="no"?>
<!-- Created with Inkscape (http://www.inkscape.org/) -->

<svg
   xmlns:dc="http://purl.org/dc/elements/1.1/"
   xmlns:cc="http://creativecommons.org/ns#"
   xmlns:rdf="http://www.w3.org/1999/02/22-rdf-syntax-ns#"
   xmlns:svg="http://www.w3.org/2000/svg"
   xmlns="http://www.w3.org/2000/svg"
   xmlns:sodipodi="http://sodipodi.sourceforge.net/DTD/sodipodi-0.dtd"
   xmlns:inkscape="http://www.inkscape.org/namespaces/inkscape"
   width="173.80087mm"
   height="191.44005mm"
   viewBox="0 0 615.82986 678.33088"
   id="svg2"
   version="1.1"
   inkscape:version="0.91 r"
   sodipodi:docname="icono.svg"
   inkscape:export-filename="/home/david/Documents/CursoProgramacion/imagenes/icono_cursopoocc.png"
   inkscape:export-xdpi="200"
   inkscape:export-ydpi="200">
  <defs
     id="defs4" />
  <sodipodi:namedview
     id="base"
     pagecolor="#ffffff"
     bordercolor="#666666"
     borderopacity="1.0"
     inkscape:pageopacity="0.0"
     inkscape:pageshadow="2"
     inkscape:zoom="0.24748738"
     inkscape:cx="284.18156"
     inkscape:cy="88.296384"
     inkscape:document-units="px"
     inkscape:current-layer="layer1"
     showgrid="false"
     fit-margin-top="5"
     fit-margin-right="5"
     fit-margin-bottom="5"
     fit-margin-left="5"
     inkscape:window-width="1024"
     inkscape:window-height="716"
     inkscape:window-x="0"
     inkscape:window-y="0"
     inkscape:window-maximized="1" />
  <metadata
     id="metadata7">
    <rdf:RDF>
      <cc:Work
         rdf:about="">
        <dc:format>image/svg+xml</dc:format>
        <dc:type
           rdf:resource="http://purl.org/dc/dcmitype/StillImage" />
        <dc:title></dc:title>
      </cc:Work>
    </rdf:RDF>
  </metadata>
  <g
     inkscape:label="Layer 1"
     inkscape:groupmode="layer"
     id="layer1"
     transform="translate(-110.32082,-113.22204)">
    <path
       inkscape:connector-curvature="0"
       id="path3760"
       d="m 422.28208,549.54777 c 4.77013,-0.26167 16.88002,-1.40649 19.28484,-1.82312 1.87951,-0.32562 2.23389,-0.76709 4.42802,-5.51628 5.56986,-12.05594 12.21831,-35.23309 15.21884,-53.05434 2.55892,-15.19841 4.59434,-38.22053 4.62662,-52.33041 0.0142,-6.20097 1.22047,-9.19969 6.78053,-16.85577 l 3.67381,-5.05873 -3.10979,-10.80476 c -1.71037,-5.94261 -3.10978,-11.11092 -3.10978,-11.48512 0,-0.37421 1.46776,-2.35564 3.26169,-4.4032 13.33286,-15.21787 31.79169,-39.26601 41.96809,-54.676 7.35669,-11.14015 14.44663,-24.38023 15.05156,-28.108 0.3763,-2.31882 -0.29296,-3.8653 -6.55611,-15.14924 -1.98091,-3.56892 -3.43589,-6.75714 -3.23329,-7.08495 0.2026,-0.32783 2.53543,-3.12483 5.18405,-6.21558 2.64863,-3.09075 4.81701,-5.85839 4.81864,-6.15033 0.002,-0.29192 -3.96627,-6.86163 -8.81753,-14.59935 -8.52363,-13.59507 -8.89522,-14.08093 -11.04082,-14.43572 -1.22117,-0.20192 -2.96897,-0.37013 -3.884,-0.37379 -2.10511,-0.008 -2.12676,-0.85313 -0.16934,-6.6082 l 1.49434,-4.39355 -7.25454,-9.26202 c -4.48047,-5.7203 -7.77013,-9.38042 -8.60282,-9.57165 -0.74154,-0.17029 -3.97207,-0.76947 -7.17896,-1.33152 l -5.8307,-1.02189 -12.55337,-12.64527 -12.55337,-12.64526 -8.94992,0 -8.94991,0 -11.61962,-4.23484 c -6.39078,-2.32915 -12.05827,-4.22592 -12.59441,-4.21503 -0.59887,0.0121 -2.84133,3.15884 -5.81462,8.15918 -2.66188,4.47666 -5.03364,8.14298 -5.27055,8.14738 -0.23691,0.004 -2.74088,-1.60825 -5.56438,-3.58364 -2.82351,-1.9754 -5.67446,-3.88108 -6.33547,-4.23484 -4.09348,-2.19076 -27.53303,1.87993 -37.90525,6.58292 l -3.80367,1.72466 1.0997,4.18868 c 2.23539,8.51443 2.72683,15.41399 2.72683,38.2835 l 0,22.08161 -4.0836,8.0073 c -2.29428,4.49874 -4.08358,8.78508 -4.08358,9.78237 0,0.97629 0.5732,5.6763 1.27377,10.44446 1.35288,9.20776 1.21024,13.67478 -0.88832,27.82069 -0.69445,4.6811 -0.65696,5.83051 0.35326,10.83096 2.46364,12.19469 9.38567,26.08325 19.67103,39.4685 l 2.69587,3.50837 -0.7153,5.26378 c -5.39027,39.66606 -30.74376,91.7842 -69.16217,142.17389 -3.62944,4.7604 -6.501,8.74318 -6.38126,8.85062 1.98201,1.77842 22.09481,9.80508 33.20245,13.2505 33.45606,10.37756 68.02504,15.01325 99.20251,13.30303 z m -33.87865,-11.43434 c -8.85821,-1.45922 -21.73824,-4.33878 -22.48827,-5.02765 -0.22365,-0.20542 0.47706,-1.41838 1.55713,-2.69546 l 1.96376,-2.32197 7.51752,0.93513 c 4.13463,0.51432 10.23991,1.09365 13.56728,1.28739 3.32736,0.19374 7.81931,0.46679 9.98209,0.60678 2.1628,0.13998 4.65516,0.26524 5.5386,0.27836 l 1.60626,0.0238 -0.90716,3.47387 c -1.4985,5.73836 -1.53412,5.7707 -5.83393,5.29636 -2.05212,-0.22639 -7.6786,-1.06188 -12.50328,-1.85666 z m 14.51942,-19.63099 c -7.33349,-1.08647 -20.83384,-3.7254 -21.32062,-4.16755 -0.24692,-0.22429 1.00318,-2.16588 2.77801,-4.31466 8.22223,-9.95466 19.03436,-24.4115 30.89168,-41.30514 1.59224,-2.26852 2.99267,-4.02689 3.11207,-3.90749 0.51371,0.51371 -6.48388,47.36606 -7.99819,53.55187 -0.24612,1.00546 -0.6677,1.2865 -1.62885,1.08587 -0.71323,-0.14887 -3.33857,-0.57318 -5.8341,-0.9429 z m 24.5492,-21.46372 c 6.82679,-30.16803 12.57825,-65.92358 14.86464,-92.41007 0.87298,-10.11304 0.48041,-9.64171 6.26184,-7.51827 l 3.62985,1.33319 -0.0685,10.88161 c -0.15521,24.6375 -5.12865,47.54498 -16.52354,76.10682 -3.02984,7.59445 -9.60076,21.31418 -10.0081,20.89639 -0.11531,-0.11827 0.71443,-4.29863 1.84386,-9.28967 z m -59.43895,-3.72517 c 14.44938,-20.66279 28.00467,-43.34562 36.45801,-61.00725 3.67124,-7.67036 10.53125,-24.39531 10.53125,-25.67558 0,-0.94253 1.08067,-0.80475 5.29354,0.67484 l 3.7811,1.32795 0,2.53229 c 0,5.85077 -1.91092,20.57726 -2.86096,22.04797 -2.16729,3.35505 -19.52954,26.21258 -25.50397,33.57615 -3.50955,4.32558 -9.5188,11.4038 -13.35387,15.72938 -7.03192,7.93128 -21.24136,22.2406 -21.66484,21.81712 -0.12574,-0.12574 3.16814,-5.08604 7.31974,-11.02287 z m -22.59726,-7.61813 c 13.98037,-29.16075 23.39579,-54.08281 29.40641,-77.83709 1.46594,-5.79344 2.76091,-10.62909 2.87771,-10.7459 0.20937,-0.20937 16.2043,4.59901 16.67108,5.01165 0.1322,0.11685 -1.0324,4.09714 -2.58798,8.8451 -7.74579,23.64179 -21.79977,50.31076 -35.31433,67.01279 -4.23541,5.23437 -14.25424,16.33436 -14.74335,16.33436 -0.24344,0 1.41727,-3.87941 3.69046,-8.62091 z m 42.36261,-96.26748 -8.16717,-3.18109 0.20483,-3.58922 c 0.11265,-1.97406 0.38489,-3.77889 0.60497,-4.01072 0.63887,-0.673 17.34637,9.6718 17.28906,10.70488 -0.15412,2.77798 -0.32172,3.32531 -1.0083,3.29292 -0.41592,-0.0196 -4.43144,-1.46716 -8.92339,-3.21677 z m 54.32781,-18.90324 c -10.80843,-3.4143 -44.04322,-18.69615 -44.04322,-20.25172 0,-1.12634 6.43748,-8.70111 10.92812,-12.85874 2.24923,-2.08245 5.94159,-4.72397 8.20524,-5.87005 3.92669,-1.98809 4.39453,-2.08025 10.18672,-2.00689 4.55983,0.0578 9.52022,0.76753 19.92788,2.85145 7.62127,1.52601 14.15501,2.59736 14.51942,2.3808 0.3644,-0.21657 5.15449,-3.50643 10.64465,-7.3108 5.49016,-3.80437 10.2863,-7.03545 10.65811,-7.18019 0.3718,-0.14474 2.8785,1.56386 5.57046,3.79688 l 4.89444,4.06005 -1.29804,1.87241 c -3.74143,5.39701 -18.02625,22.68757 -23.35238,28.26608 -9.26027,9.69909 -15.10936,13.83722 -19.55835,13.83722 -1.24342,0 -4.5208,-0.71392 -7.28305,-1.5865 z m -58.54044,-28.34351 c -3.801,-2.79018 -10.78137,-10.19116 -13.77981,-14.61011 -3.42753,-5.05133 -6.41629,-11.22529 -8.2525,-17.0474 -1.93802,-6.14493 -1.9413,-6.38527 -0.12032,-8.78128 0.80501,-1.05919 2.39942,-3.69536 3.54315,-5.85815 l 2.07953,-3.93235 15.96731,-3.68216 c 10.62244,-2.44961 16.21889,-3.48929 16.71886,-3.10594 1.29211,0.99072 8.63483,13.07665 11.41496,18.78875 1.46048,3.00071 2.65542,6.31817 2.65542,7.37212 0,2.1852 -2.87747,6.91627 -7.96208,13.09107 -4.60878,5.59695 -18.13356,19.86658 -18.82958,19.86658 -0.31495,0 -1.86067,-0.94551 -3.43494,-2.10113 z M 449.862,321.76934 c -2.69133,-2.0563 -4.99641,-3.81551 -5.1224,-3.90935 -0.12599,-0.0938 0.60768,-1.47457 1.63037,-3.0683 1.499,-2.33599 2.56952,-5.91884 5.52262,-18.48322 3.80935,-16.20756 4.00944,-17.73467 3.10995,-23.73579 -1.25129,-8.34813 -1.28034,-8.77215 -0.60099,-8.77215 0.81469,0 40.40552,16.99148 47.91387,20.56355 2.92535,1.39173 5.87232,3.11934 6.54881,3.83917 1.42917,1.52068 9.609,17.60202 9.609,18.89104 0,0.47821 -0.40464,0.86948 -0.89919,0.86948 -1.32302,0 -15.66572,-6.25468 -30.93926,-13.49224 -7.36269,-3.48889 -13.984,-6.53303 -14.71402,-6.76472 -1.55166,-0.49248 -2.97932,0.61088 -5.46694,4.22509 -1.86882,2.71517 -8.5204,15.12533 -9.96341,18.58919 l -0.93935,2.25483 3.94063,4.17728 3.94062,4.17727 -3.48454,2.13717 c -1.91651,1.17543 -3.86882,2.1604 -4.3385,2.18879 -0.46965,0.0283 -3.05593,-1.63079 -5.74727,-3.68709 z m 40.17737,-6.05191 c 0,-0.24826 0.52476,-0.73222 1.16613,-1.07548 0.89305,-0.47794 2.16813,-0.23557 5.44479,1.03493 2.35326,0.91247 4.27864,1.82349 4.27864,2.02449 0,0.20099 -0.84283,1.52894 -1.87295,2.95099 l -1.87297,2.58556 -3.57182,-3.53456 c -1.9645,-1.94399 -3.57182,-3.73767 -3.57182,-3.98593 z m -64.7315,-25.90294 -0.71961,-3.93235 5.10856,-13.61195 c 2.8097,-7.48657 6.70128,-18.04049 8.64794,-23.45314 1.94666,-5.41266 3.72162,-9.49624 3.94435,-9.07464 0.22274,0.4216 1.1585,5.55514 2.07948,11.40786 l 1.6745,10.64133 -5.00202,9.02039 c -13.51792,24.37761 -14.102,25.34461 -14.56661,24.11644 -0.24584,-0.64988 -0.77081,-2.95115 -1.16659,-5.11394 z m -56.62958,-5.19518 c 0.2027,-0.5282 0.53981,-2.03154 0.74917,-3.34077 0.20936,-1.30924 0.68519,-2.57857 1.0574,-2.82075 1.61148,-1.04849 24.5733,-7.16094 24.5733,-6.54143 0,0.59249 -24.9225,13.54202 -26.22993,13.62886 -0.28515,0.0189 -0.35262,-0.39772 -0.14994,-0.92591 z m 3.65767,-17.34017 c 1.73567,-13.04009 1.94604,-19.28389 0.9025,-26.78667 -0.35506,-2.55273 -0.50152,-4.78536 -0.32549,-4.9614 0.51519,-0.51519 6.30504,3.42459 11.85923,8.06978 7.16687,5.99392 7.67489,6.65071 8.13737,10.52006 0.21873,1.83006 0.54218,4.08126 0.71879,5.00268 0.2925,1.52614 0.0607,1.78962 -2.60316,2.95908 -1.60834,0.70607 -6.32725,2.86821 -10.48646,4.80475 -4.15921,1.93653 -7.80144,3.53152 -8.09387,3.5444 -0.29242,0.0129 -0.34143,-1.40581 -0.10891,-3.15268 z m 126.47556,-3.16858 c -26.37793,-5.24024 -39.62746,-9.50782 -42.91966,-13.82413 -3.23623,-4.24292 -5.98683,-17.43929 -3.80915,-18.27494 0.51418,-0.19732 8.38,2.4934 17.4796,5.97937 9.0996,3.48597 20.89733,7.99209 26.21719,10.01361 5.31987,2.02151 10.35629,4.18476 11.19205,4.80722 1.45602,1.08441 6.06088,9.10401 6.97174,12.14162 0.43628,1.45498 0.43557,1.4552 -3.41536,1.08746 -2.11845,-0.2023 -7.39083,-1.07089 -11.71641,-1.93021 z M 424.3258,243.19082 c 11.59707,-31.32364 11.07558,-30.04772 11.47217,-28.06867 0.19757,0.98601 0.9368,5.13411 1.64272,9.21798 l 1.28348,7.42525 -2.86584,5.58174 c -2.97143,5.7874 -9.70332,18.40332 -13.46999,25.24345 l -2.16543,3.93235 -0.79683,-3.97287 -0.79682,-3.97287 5.69654,-15.38636 z m 59.06584,-13.42446 c -11.51369,-4.59516 -34.61731,-15.44525 -36.16798,-16.98549 -2.93564,-2.91584 -3.21222,-16.34844 -0.40494,-19.66528 0.0956,-0.11289 2.98524,1.95195 6.42155,4.58854 11.02345,8.45802 20.55864,15.02226 28.93442,19.91911 l 8.16717,4.77489 2.26866,4.40886 c 1.24776,2.42487 2.26865,4.95606 2.26865,5.62487 0,1.05629 -0.25733,1.15949 -1.95916,0.7857 -1.07755,-0.23666 -5.36531,-1.7897 -9.52837,-3.4512 z m -84.41221,0.97252 c -11.38095,-4.76416 -23.12772,-14.49579 -29.831,-24.71355 -4.01565,-6.12103 -4.36367,-7.374 -2.4594,-8.85452 2.04868,-1.59279 8.34146,-3.4655 15.05967,-4.48172 l 5.74727,-0.86934 3.02488,1.87408 c 3.95334,2.44932 14.21693,9.6005 14.21693,9.90569 0,0.1306 -1.6403,1.11171 -3.64511,2.18026 -5.20888,2.77631 -9.05939,6.5106 -9.05939,8.78596 0,2.28295 3.23191,5.53117 7.86469,7.90438 4.51652,2.31365 8.66485,2.22179 16.33435,-0.36172 3.16099,-1.0648 6.30752,-2.30065 6.99229,-2.74635 1.38025,-0.89838 3.29229,-0.24143 3.29229,1.13118 0,1.38492 -2.51072,4.057 -5.77265,6.14363 -3.97788,2.54462 -12.77524,6.26082 -14.88729,6.28872 -0.88177,0.0116 -3.97665,-0.97237 -6.87753,-2.1867 z m 2.43098,-11.32993 c -3.97,-1.87215 -6.2449,-4.28609 -5.36922,-5.69737 1.05242,-1.69611 6.80121,-5.44487 9.95747,-6.49322 l 2.94722,-0.9789 5.14511,3.82528 c 2.87032,2.13402 5.08203,4.21201 5.00244,4.69999 -0.19008,1.16534 -3.19485,2.86518 -8.1664,4.61986 -5.06683,1.78831 -5.77228,1.79012 -9.51662,0.0244 z m 19.34717,-16.74526 c -3.80388,-2.68075 -7.04711,-5.08602 -7.2072,-5.34505 -0.24104,-0.39002 2.43624,-9.0336 2.98184,-9.62686 0.0932,-0.10135 2.58208,0.74453 5.53081,1.87972 l 5.36134,2.064 0.39643,3.26258 c 0.66937,5.50904 0.86399,12.63969 0.34497,12.63969 -0.27063,0 -3.60432,-2.19334 -7.40819,-4.87408 z"
       style="fill:#000000" />
    <path
       style="fill:#000000"
       d="m 128.07626,749.95081 0.0406,-23.88556 41.03114,-29.4663 41.03113,-29.4663 0.003,-21.65327 0.003,-21.65327 47.77112,0 47.77113,0 0,-12.50084 0,-12.50086 -84.26036,0 -84.26034,0 -2.46092,-1.93576 c -5.2592,-4.13691 -4.92328,11.6957 -4.92328,-232.0088 0,-246.73797 -0.43419,-228.50139 5.52702,-232.13584 2.9479,-1.79728 3.69397,-1.80206 281.81376,-1.80539 247.51471,-0.003 279.15244,0.1489 281.47733,1.35115 5.76091,2.97908 5.32829,-15.98194 5.32829,233.52794 l 0,226.93485 -3.03593,3.03593 -3.03592,3.03592 -83.57714,0 -83.57713,0 0,12.50086 0,12.50084 47.77111,0 47.77113,0 0.003,21.65327 0.003,21.65327 41.03113,29.4663 41.03112,29.4663 0.0405,23.88556 0.0404,23.88557 -290.1984,0 -290.19839,0 0.0406,-23.88557 z m 550.8648,-26.11785 c -0.0139,-0.24556 -16.45339,-12.1995 -36.53224,-26.56432 l -36.50697,-26.11786 -187.65968,0 -187.65968,0 -36.52855,26.11786 c -20.0907,14.36482 -36.53379,26.31876 -36.54019,26.56432 -0.007,0.24555 117.31781,0.44645 260.72047,0.44645 143.40266,0 260.72074,-0.2009 260.70684,-0.44645 z m -18.22339,-160.78387 2.62258,-2.73734 0.22514,-195.71373 c 0.21275,-184.96439 0.1392,-195.88468 -1.33938,-198.82651 -0.86048,-1.71203 -2.56904,-3.61472 -3.7968,-4.2282 -1.76823,-0.88352 -52.12851,-1.11814 -242.24839,-1.12856 -261.21623,-0.0143 -243.6184,-0.36292 -246.00401,4.87293 -0.81673,1.79254 -1.06675,48.38832 -1.06675,198.80995 l 0,196.46867 2.61006,2.61006 2.61007,2.61007 241.88246,0 241.88244,0 2.62258,-2.73734 z"
       id="path3653"
       inkscape:connector-curvature="0" />
    <path
       style="fill:#ff0000"
       d="m 426.96118,549.54777 c 4.77013,-0.26167 16.88003,-1.40649 19.28485,-1.82312 1.87951,-0.32562 2.23389,-0.76709 4.42802,-5.51628 5.56986,-12.05594 12.21831,-35.23309 15.21884,-53.05434 2.55891,-15.19841 4.59433,-38.22053 4.62661,-52.33041 0.0142,-6.20097 1.22047,-9.19969 6.78054,-16.85577 l 3.6738,-5.05873 -3.10978,-10.80476 c -1.71038,-5.94261 -3.10979,-11.11092 -3.10979,-11.48512 0,-0.37421 1.46776,-2.35564 3.26169,-4.4032 13.33287,-15.21787 31.7917,-39.26601 41.9681,-54.676 7.35669,-11.14015 14.44663,-24.38023 15.05156,-28.108 0.3763,-2.31882 -0.29297,-3.8653 -6.55611,-15.14924 -1.98091,-3.56892 -3.43589,-6.75714 -3.23329,-7.08495 0.2026,-0.32783 2.53542,-3.12483 5.18404,-6.21558 2.64863,-3.09075 4.81702,-5.85839 4.81865,-6.15033 0.002,-0.29192 -3.96627,-6.86163 -8.81754,-14.59935 -8.52362,-13.59507 -8.89521,-14.08093 -11.04081,-14.43572 -1.22117,-0.20192 -2.96898,-0.37013 -3.884,-0.37379 -2.10512,-0.008 -2.12677,-0.85313 -0.16934,-6.6082 l 1.49434,-4.39355 -7.25455,-9.26202 c -4.48047,-5.7203 -7.77012,-9.38042 -8.60281,-9.57165 -0.74154,-0.17029 -3.97208,-0.76947 -7.17896,-1.33152 l -5.8307,-1.02189 -12.55337,-12.64527 -12.55337,-12.64526 -8.94993,0 -8.94991,0 -11.61961,-4.23484 c -6.39078,-2.32915 -12.05827,-4.22592 -12.59441,-4.21503 -0.59887,0.0121 -2.84134,3.15884 -5.81462,8.15918 -2.66189,4.47666 -5.03364,8.14298 -5.27055,8.14738 -0.23691,0.004 -2.74088,-1.60825 -5.56438,-3.58364 -2.82351,-1.9754 -5.67447,-3.88108 -6.33547,-4.23484 -4.09348,-2.19076 -27.53303,1.87993 -37.90526,6.58292 l -3.80366,1.72466 1.0997,4.18868 c 2.23539,8.51443 2.72682,15.41399 2.72682,38.2835 l 0,22.08161 -4.08359,8.0073 c -2.29428,4.49874 -4.08359,8.78508 -4.08359,9.78237 0,0.97629 0.5732,5.6763 1.27378,10.44446 1.35288,9.20776 1.21024,13.67478 -0.88832,27.82069 -0.69446,4.6811 -0.65697,5.83051 0.35325,10.83096 2.46365,12.19469 9.38568,26.08325 19.67104,39.4685 l 2.69587,3.50837 -0.71531,5.26378 c -5.39027,39.66606 -30.74375,91.7842 -69.16216,142.17389 -3.62945,4.7604 -6.50101,8.74318 -6.38126,8.85062 1.98201,1.77842 22.09481,9.80508 33.20245,13.2505 33.45605,10.37756 68.02503,15.01325 99.2025,13.30303 z m -33.87864,-11.43434 c -8.85821,-1.45922 -21.73824,-4.33878 -22.48827,-5.02765 -0.22365,-0.20542 0.47706,-1.41838 1.55713,-2.69546 l 1.96375,-2.32197 7.51752,0.93513 c 4.13464,0.51432 10.23991,1.09365 13.56728,1.28739 3.32737,0.19374 7.81931,0.46679 9.9821,0.60678 2.16279,0.13998 4.65515,0.26524 5.5386,0.27836 l 1.60625,0.0238 -0.90715,3.47387 c -1.4985,5.73836 -1.53413,5.7707 -5.83394,5.29636 -2.05212,-0.22639 -7.67859,-1.06188 -12.50327,-1.85666 z m 14.51942,-19.63099 c -7.33349,-1.08647 -20.83384,-3.7254 -21.32063,-4.16755 -0.24692,-0.22429 1.00319,-2.16588 2.77801,-4.31466 8.22223,-9.95466 19.03437,-24.4115 30.89169,-41.30514 1.59224,-2.26852 2.99266,-4.02689 3.11207,-3.90749 0.51371,0.51371 -6.48388,47.36606 -7.99819,53.55187 -0.24613,1.00546 -0.6677,1.2865 -1.62886,1.08587 -0.71323,-0.14887 -3.33857,-0.57318 -5.83409,-0.9429 z m 24.5492,-21.46372 c 6.82678,-30.16803 12.57825,-65.92358 14.86463,-92.41007 0.87299,-10.11304 0.48042,-9.64171 6.26184,-7.51827 l 3.62985,1.33319 -0.0685,10.88161 c -0.15522,24.6375 -5.12865,47.54498 -16.52354,76.10682 -3.02984,7.59445 -9.60076,21.31418 -10.00811,20.89639 -0.11531,-0.11827 0.71444,-4.29863 1.84387,-9.28967 z m -59.43895,-3.72517 c 14.44938,-20.66279 28.00466,-43.34562 36.45801,-61.00725 3.67124,-7.67036 10.53125,-24.39531 10.53125,-25.67558 0,-0.94253 1.08067,-0.80475 5.29354,0.67484 l 3.7811,1.32795 0,2.53229 c 0,5.85077 -1.91093,20.57726 -2.86097,22.04797 -2.16728,3.35505 -19.52953,26.21258 -25.50397,33.57615 -3.50955,4.32558 -9.51879,11.4038 -13.35387,15.72938 -7.03191,7.93128 -21.24136,22.2406 -21.66483,21.81712 -0.12574,-0.12574 3.16814,-5.08604 7.31974,-11.02287 z m -22.59726,-7.61813 c 13.98037,-29.16075 23.39578,-54.08281 29.40641,-77.83709 1.46593,-5.79344 2.7609,-10.62909 2.87771,-10.7459 0.20937,-0.20937 16.2043,4.59901 16.67108,5.01165 0.13219,0.11685 -1.0324,4.09714 -2.58798,8.8451 -7.7458,23.64179 -21.79978,50.31076 -35.31433,67.01279 -4.23541,5.23437 -14.25424,16.33436 -14.74335,16.33436 -0.24344,0 1.41727,-3.87941 3.69046,-8.62091 z m 42.36261,-96.26748 -8.16717,-3.18109 0.20482,-3.58922 c 0.11266,-1.97406 0.3849,-3.77889 0.60498,-4.01072 0.63887,-0.673 17.34637,9.6718 17.28906,10.70488 -0.15412,2.77798 -0.32172,3.32531 -1.0083,3.29292 -0.41592,-0.0196 -4.43145,-1.46716 -8.92339,-3.21677 z m 54.32781,-18.90324 c -10.80843,-3.4143 -44.04322,-18.69615 -44.04322,-20.25172 0,-1.12634 6.43748,-8.70111 10.92811,-12.85874 2.24924,-2.08245 5.9416,-4.72397 8.20524,-5.87005 3.9267,-1.98809 4.39454,-2.08025 10.18673,-2.00689 4.55982,0.0578 9.52022,0.76753 19.92788,2.85145 7.62127,1.52601 14.15501,2.59736 14.51942,2.3808 0.3644,-0.21657 5.15449,-3.50643 10.64464,-7.3108 5.49017,-3.80437 10.28631,-7.03545 10.65811,-7.18019 0.37181,-0.14474 2.87851,1.56386 5.57046,3.79688 l 4.89445,4.06005 -1.29804,1.87241 c -3.74143,5.39701 -18.02626,22.68757 -23.35239,28.26608 -9.26027,9.69909 -15.10935,13.83722 -19.55835,13.83722 -1.24341,0 -4.52079,-0.71392 -7.28304,-1.5865 z m -58.54045,-28.34351 c -3.80099,-2.79018 -10.78137,-10.19116 -13.7798,-14.61011 -3.42753,-5.05133 -6.41629,-11.22529 -8.2525,-17.0474 -1.93802,-6.14493 -1.94131,-6.38527 -0.12032,-8.78128 0.805,-1.05919 2.39941,-3.69536 3.54315,-5.85815 l 2.07952,-3.93235 15.96732,-3.68216 c 10.62243,-2.44961 16.21889,-3.48929 16.71886,-3.10594 1.29211,0.99072 8.63483,13.07665 11.41495,18.78875 1.46048,3.00071 2.65542,6.31817 2.65542,7.37212 0,2.1852 -2.87746,6.91627 -7.96207,13.09107 -4.60878,5.59695 -18.13356,19.86658 -18.82959,19.86658 -0.31495,0 -1.86067,-0.94551 -3.43494,-2.10113 z m 66.27619,-20.39185 c -2.69133,-2.0563 -4.99642,-3.81551 -5.1224,-3.90935 -0.12599,-0.0938 0.60768,-1.47457 1.63037,-3.0683 1.499,-2.33599 2.56952,-5.91884 5.52261,-18.48322 3.80936,-16.20756 4.00944,-17.73467 3.10995,-23.73579 -1.25128,-8.34813 -1.28033,-8.77215 -0.60099,-8.77215 0.81469,0 40.40552,16.99148 47.91388,20.56355 2.92535,1.39173 5.87231,3.11934 6.54881,3.83917 1.42917,1.52068 9.609,17.60202 9.609,18.89104 0,0.47821 -0.40464,0.86948 -0.8992,0.86948 -1.32301,0 -15.66572,-6.25468 -30.93926,-13.49224 -7.36268,-3.48889 -13.98399,-6.53303 -14.71402,-6.76472 -1.55166,-0.49248 -2.97932,0.61088 -5.46694,4.22509 -1.86882,2.71517 -8.52039,15.12533 -9.96341,18.58919 l -0.93934,2.25483 3.94062,4.17728 3.94063,4.17727 -3.48455,2.13717 c -1.9165,1.17543 -3.86882,2.1604 -4.33849,2.18879 -0.46966,0.0283 -3.05593,-1.63079 -5.74727,-3.68709 z m 40.17737,-6.05191 c 0,-0.24826 0.52476,-0.73222 1.16613,-1.07548 0.89304,-0.47794 2.16813,-0.23557 5.44479,1.03493 2.35325,0.91247 4.27864,1.82349 4.27864,2.02449 0,0.20099 -0.84284,1.52894 -1.87296,2.95099 l -1.87296,2.58556 -3.57183,-3.53456 c -1.96449,-1.94399 -3.57181,-3.73767 -3.57181,-3.98593 z m -64.73151,-25.90294 -0.7196,-3.93235 5.10855,-13.61195 c 2.80971,-7.48657 6.70128,-18.04049 8.64794,-23.45314 1.94666,-5.41266 3.72163,-9.49624 3.94436,-9.07464 0.22273,0.4216 1.1585,5.55514 2.07948,11.40786 l 1.6745,10.64133 -5.00202,9.02039 c -13.51793,24.37761 -14.10201,25.34461 -14.56661,24.11644 -0.24584,-0.64988 -0.77081,-2.95115 -1.1666,-5.11394 z m -56.62957,-5.19518 c 0.20269,-0.5282 0.53981,-2.03154 0.74916,-3.34077 0.20937,-1.30924 0.6852,-2.57857 1.05741,-2.82075 1.61147,-1.04849 24.5733,-7.16094 24.5733,-6.54143 0,0.59249 -24.9225,13.54202 -26.22993,13.62886 -0.28515,0.0189 -0.35262,-0.39772 -0.14994,-0.92591 z m 3.65766,-17.34017 c 1.73568,-13.04009 1.94605,-19.28389 0.90251,-26.78667 -0.35506,-2.55273 -0.50153,-4.78536 -0.32549,-4.9614 0.51519,-0.51519 6.30504,3.42459 11.85923,8.06978 7.16686,5.99392 7.67489,6.65071 8.13736,10.52006 0.21874,1.83006 0.54219,4.08126 0.7188,5.00268 0.2925,1.52614 0.0607,1.78962 -2.60316,2.95908 -1.60835,0.70607 -6.32725,2.86821 -10.48646,4.80475 -4.15921,1.93653 -7.80145,3.53152 -8.09387,3.5444 -0.29242,0.0129 -0.34144,-1.40581 -0.10892,-3.15268 z m 126.47557,-3.16858 c -26.37793,-5.24024 -39.62746,-9.50782 -42.91966,-13.82413 -3.23624,-4.24292 -5.98684,-17.43929 -3.80916,-18.27494 0.51419,-0.19732 8.38001,2.4934 17.47961,5.97937 9.09959,3.48597 20.89733,7.99209 26.21719,10.01361 5.31986,2.02151 10.35629,4.18476 11.19205,4.80722 1.45602,1.08441 6.06088,9.10401 6.97173,12.14162 0.43628,1.45498 0.43558,1.4552 -3.41535,1.08746 -2.11845,-0.2023 -7.39084,-1.07089 -11.71641,-1.93021 z m -74.48572,-20.91974 c 11.59707,-31.32364 11.07558,-30.04772 11.47216,-28.06867 0.19758,0.98601 0.93681,5.13411 1.64272,9.21798 l 1.28348,7.42525 -2.86583,5.58174 c -2.97143,5.7874 -9.70333,18.40332 -13.46999,25.24345 l -2.16544,3.93235 -0.79682,-3.97287 -0.79682,-3.97287 5.69654,-15.38636 z m 59.06584,-13.42446 c -11.5137,-4.59516 -34.61731,-15.44525 -36.16799,-16.98549 -2.93563,-2.91584 -3.21222,-16.34844 -0.40493,-19.66528 0.0956,-0.11289 2.98524,1.95195 6.42155,4.58854 11.02345,8.45802 20.55864,15.02226 28.93441,19.91911 l 8.16717,4.77489 2.26867,4.40886 c 1.24776,2.42487 2.26865,4.95606 2.26865,5.62487 0,1.05629 -0.25734,1.15949 -1.95916,0.7857 -1.07755,-0.23666 -5.36532,-1.7897 -9.52837,-3.4512 z m -84.41222,0.97252 c -11.38095,-4.76416 -23.12772,-14.49579 -29.83099,-24.71355 -4.01565,-6.12103 -4.36368,-7.374 -2.4594,-8.85452 2.04867,-1.59279 8.34146,-3.4655 15.05966,-4.48172 l 5.74727,-0.86934 3.02488,1.87408 c 3.95335,2.44932 14.21693,9.6005 14.21693,9.90569 0,0.1306 -1.64029,1.11171 -3.6451,2.18026 -5.20888,2.77631 -9.05939,6.5106 -9.05939,8.78596 0,2.28295 3.23191,5.53117 7.86469,7.90438 4.51652,2.31365 8.66485,2.22179 16.33434,-0.36172 3.161,-1.0648 6.30753,-2.30065 6.99229,-2.74635 1.38025,-0.89838 3.2923,-0.24143 3.2923,1.13118 0,1.38492 -2.51073,4.057 -5.77265,6.14363 -3.97789,2.54462 -12.77524,6.26082 -14.8873,6.28872 -0.88176,0.0116 -3.97664,-0.97237 -6.87753,-2.1867 z m 2.43099,-11.32993 c -3.97,-1.87215 -6.2449,-4.28609 -5.36922,-5.69737 1.05241,-1.69611 6.80121,-5.44487 9.95747,-6.49322 l 2.94721,-0.9789 5.14511,3.82528 c 2.87033,2.13402 5.08204,4.21201 5.00245,4.69999 -0.19008,1.16534 -3.19485,2.86518 -8.1664,4.61986 -5.06684,1.78831 -5.77229,1.79012 -9.51662,0.0244 z m 19.34717,-16.74526 c -3.80388,-2.68075 -7.04711,-5.08602 -7.20721,-5.34505 -0.24104,-0.39002 2.43624,-9.0336 2.98185,-9.62686 0.0932,-0.10135 2.58208,0.74453 5.53081,1.87972 l 5.36134,2.064 0.39642,3.26258 c 0.66937,5.50904 0.864,12.63969 0.34497,12.63969 -0.27062,0 -3.60431,-2.19334 -7.40818,-4.87408 z"
       id="path3758"
       inkscape:connector-curvature="0" />
  </g>
</svg>
