\relax 
\providecommand\hyper@newdestlabel[2]{}
\providecommand\HyperFirstAtBeginDocument{\AtBeginDocument}
\HyperFirstAtBeginDocument{\ifx\hyper@anchor\@undefined
\global\let\oldcontentsline\contentsline
\gdef\contentsline#1#2#3#4{\oldcontentsline{#1}{#2}{#3}}
\global\let\oldnewlabel\newlabel
\gdef\newlabel#1#2{\newlabelxx{#1}#2}
\gdef\newlabelxx#1#2#3#4#5#6{\oldnewlabel{#1}{{#2}{#3}}}
\AtEndDocument{\ifx\hyper@anchor\@undefined
\let\contentsline\oldcontentsline
\let\newlabel\oldnewlabel
\fi}
\fi}
\global\let\hyper@last\relax 
\gdef\HyperFirstAtBeginDocument#1{#1}
\providecommand\HyField@AuxAddToFields[1]{}
\providecommand\HyField@AuxAddToCoFields[2]{}
\@writefile{toc}{\contentsline {section}{\numberline {1}Introducci\IeC {\'o}n.}{1}{section.1}}
\newlabel{sec:orge876e01}{{1}{1}{Introducción}{section.1}{}}
\@writefile{toc}{\contentsline {section}{\numberline {2}Directorios: Acceder y Gestionar.}{1}{section.2}}
\newlabel{sec:orge962b19}{{2}{1}{Directorios: Acceder y Gestionar}{section.2}{}}
\@writefile{toc}{\contentsline {subsection}{\numberline {2.1}Acceder a directorio}{2}{subsection.2.1}}
\newlabel{sec:orgb95a9e2}{{2.1}{2}{Acceder a directorio}{subsection.2.1}{}}
\@writefile{toc}{\contentsline {subsection}{\numberline {2.2}Revisar directorios}{2}{subsection.2.2}}
\newlabel{sec:org29daf00}{{2.2}{2}{Revisar directorios}{subsection.2.2}{}}
\@writefile{toc}{\contentsline {subsection}{\numberline {2.3}Crear directorios}{2}{subsection.2.3}}
\newlabel{sec:org97d01b0}{{2.3}{2}{Crear directorios}{subsection.2.3}{}}
\@writefile{toc}{\contentsline {subsection}{\numberline {2.4}Borrar directorios}{2}{subsection.2.4}}
\newlabel{sec:org4bda62f}{{2.4}{2}{Borrar directorios}{subsection.2.4}{}}
\@writefile{toc}{\contentsline {subsection}{\numberline {2.5}Ejercicios}{2}{subsection.2.5}}
\newlabel{sec:org9833ec0}{{2.5}{2}{Ejercicios}{subsection.2.5}{}}
\@writefile{toc}{\contentsline {subsection}{\numberline {2.6}{\bfseries  \sffamily  TODO} : crear visualmente un arbol de directorios y aprender a navegar}{2}{subsection.2.6}}
\newlabel{sec:orgf152bee}{{2.6}{2}{{\bfseries \sffamily TODO} : crear visualmente un arbol de directorios y aprender a navegar}{subsection.2.6}{}}
\@writefile{toc}{\contentsline {section}{\numberline {3}Generalidades de la terminal bash}{2}{section.3}}
\newlabel{sec:orgeecf31e}{{3}{2}{Generalidades de la terminal bash}{section.3}{}}
\@writefile{toc}{\contentsline {subsection}{\numberline {3.1}Esquema de escritura de un comando}{2}{subsection.3.1}}
\newlabel{sec:orgf3db675}{{3.1}{2}{Esquema de escritura de un comando}{subsection.3.1}{}}
\@writefile{lof}{\contentsline {figure}{\numberline {1}{\ignorespaces  Estructura general de un comando}}{3}{figure.1}}
\newlabel{fig:orge66b978}{{1}{3}{Estructura general de un comando}{figure.1}{}}
\@writefile{toc}{\contentsline {subsection}{\numberline {3.2}Manual o ayuda de cada comando}{3}{subsection.3.2}}
\newlabel{sec:org890e1f0}{{3.2}{3}{Manual o ayuda de cada comando}{subsection.3.2}{}}
\@writefile{toc}{\contentsline {subsection}{\numberline {3.3}Esquema de salidas frente a un comando}{3}{subsection.3.3}}
\newlabel{sec:orgf4362de}{{3.3}{3}{Esquema de salidas frente a un comando}{subsection.3.3}{}}
\@writefile{toc}{\contentsline {subsection}{\numberline {3.4}Encadenamiento de comandos con la pleca '|'}{3}{subsection.3.4}}
\newlabel{sec:orgc32ad98}{{3.4}{3}{Encadenamiento de comandos con la pleca '|'}{subsection.3.4}{}}
\@writefile{lof}{\contentsline {figure}{\numberline {2}{\ignorespaces  Estructura general de un comando}}{4}{figure.2}}
\newlabel{fig:org66ceb7a}{{2}{4}{Estructura general de un comando}{figure.2}{}}
\@writefile{toc}{\contentsline {subsection}{\numberline {3.5}Salida a archivo, escribir nuevo o a\IeC {\~n}adir nuevas l\IeC {\'\i }neas}{4}{subsection.3.5}}
\newlabel{sec:org868b3a1}{{3.5}{4}{Salida a archivo, escribir nuevo o añadir nuevas líneas}{subsection.3.5}{}}
\@writefile{toc}{\contentsline {section}{\numberline {4}Diagramas de Flujo.}{4}{section.4}}
\newlabel{sec:org3edee5c}{{4}{4}{Diagramas de Flujo}{section.4}{}}
\@writefile{toc}{\contentsline {subsection}{\numberline {4.1}Ejemplos}{5}{subsection.4.1}}
\newlabel{sec:org0758741}{{4.1}{5}{Ejemplos}{subsection.4.1}{}}
\@writefile{toc}{\contentsline {subsection}{\numberline {4.2}Ejercicio}{5}{subsection.4.2}}
\newlabel{sec:org93fee6e}{{4.2}{5}{Ejercicio}{subsection.4.2}{}}
\@writefile{toc}{\contentsline {subsection}{\numberline {4.3}Documentos de Referencia}{5}{subsection.4.3}}
\newlabel{sec:org9e00cd9}{{4.3}{5}{Documentos de Referencia}{subsection.4.3}{}}
\@writefile{lof}{\contentsline {figure}{\numberline {3}{\ignorespaces  Diagrama de Flujo \IeC {\textquestiondown }C\IeC {\'o}mo cruzar la calle?}}{6}{figure.3}}
\newlabel{fig:org08d28f4}{{3}{6}{Diagrama de Flujo ¿Cómo cruzar la calle?}{figure.3}{}}
\@writefile{lof}{\contentsline {figure}{\numberline {4}{\ignorespaces  Diagrama de Flujo \IeC {\textquestiondown }C\IeC {\'o}mo cocinar un huevo?}}{7}{figure.4}}
\newlabel{fig:org29440e7}{{4}{7}{Diagrama de Flujo ¿Cómo cocinar un huevo?}{figure.4}{}}
\@writefile{lof}{\contentsline {figure}{\numberline {5}{\ignorespaces  Diagrama de Flujo \IeC {\textquestiondown }C\IeC {\'o}mo atender incidencias de un cliente que llama?}}{8}{figure.5}}
\newlabel{fig:org5b56e83}{{5}{8}{Diagrama de Flujo ¿Cómo atender incidencias de un cliente que llama?}{figure.5}{}}
\@writefile{toc}{\contentsline {section}{\numberline {5}Archivos de Ejecuci\IeC {\'o}n y de Informaci\IeC {\'o}n.}{8}{section.5}}
\newlabel{sec:org1ec97a6}{{5}{8}{Archivos de Ejecución y de Información}{section.5}{}}
\@writefile{toc}{\contentsline {subsection}{\numberline {5.1}Ejecutables}{8}{subsection.5.1}}
\newlabel{sec:org2a014d7}{{5.1}{8}{Ejecutables}{subsection.5.1}{}}
\@writefile{lof}{\contentsline {figure}{\numberline {6}{\ignorespaces  Archivos de ejecuci\IeC {\'o}n}}{9}{figure.6}}
\newlabel{fig:org6fd9796}{{6}{9}{Archivos de ejecución}{figure.6}{}}
\@writefile{toc}{\contentsline {subsubsection}{\numberline {5.1.1}Ejercicios}{9}{subsubsection.5.1.1}}
\newlabel{sec:org7417819}{{5.1.1}{9}{Ejercicios}{subsubsection.5.1.1}{}}
\@writefile{toc}{\contentsline {subsection}{\numberline {5.2}Documentos de Informaci\IeC {\'o}n}{9}{subsection.5.2}}
\newlabel{sec:org1439284}{{5.2}{9}{Documentos de Información}{subsection.5.2}{}}
\@writefile{lof}{\contentsline {figure}{\numberline {7}{\ignorespaces  Archivos de informaci\IeC {\'o}n}}{10}{figure.7}}
\newlabel{fig:org6a59beb}{{7}{10}{Archivos de información}{figure.7}{}}
\@writefile{toc}{\contentsline {subsubsection}{\numberline {5.2.1}Ejercicios}{10}{subsubsection.5.2.1}}
\newlabel{sec:org8ab02c3}{{5.2.1}{10}{Ejercicios}{subsubsection.5.2.1}{}}
\@writefile{toc}{\contentsline {section}{\numberline {6}Procesos: Ejecutar, Monitorear, Controlar.}{10}{section.6}}
\newlabel{sec:orgdafaec6}{{6}{10}{Procesos: Ejecutar, Monitorear, Controlar}{section.6}{}}
\@writefile{toc}{\contentsline {subsection}{\numberline {6.1}Iniciar un programa}{10}{subsection.6.1}}
\newlabel{sec:org278d6f7}{{6.1}{10}{Iniciar un programa}{subsection.6.1}{}}
\@writefile{toc}{\contentsline {subsection}{\numberline {6.2}Monitorear el uso de recursos}{11}{subsection.6.2}}
\newlabel{sec:orgfbab053}{{6.2}{11}{Monitorear el uso de recursos}{subsection.6.2}{}}
\@writefile{toc}{\contentsline {subsubsection}{\numberline {6.2.1}Ejercicios}{11}{subsubsection.6.2.1}}
\newlabel{sec:org93b5647}{{6.2.1}{11}{Ejercicios}{subsubsection.6.2.1}{}}
\@writefile{toc}{\contentsline {subsection}{\numberline {6.3}Cerrar y luego reiniciar un programa}{11}{subsection.6.3}}
\newlabel{sec:org7f57a9c}{{6.3}{11}{Cerrar y luego reiniciar un programa}{subsection.6.3}{}}
\@writefile{toc}{\contentsline {subsection}{\numberline {6.4}El sistema de \emph  {systemd}}{11}{subsection.6.4}}
\newlabel{sec:org093fd9f}{{6.4}{11}{El sistema de \emph {systemd}}{subsection.6.4}{}}
\@writefile{toc}{\contentsline {subsubsection}{\numberline {6.4.1}Iniciar}{11}{subsubsection.6.4.1}}
\newlabel{sec:orgf927c6a}{{6.4.1}{11}{Iniciar}{subsubsection.6.4.1}{}}
\@writefile{toc}{\contentsline {subsubsection}{\numberline {6.4.2}Reiniciar}{12}{subsubsection.6.4.2}}
\newlabel{sec:org3d84f35}{{6.4.2}{12}{Reiniciar}{subsubsection.6.4.2}{}}
\@writefile{toc}{\contentsline {subsubsection}{\numberline {6.4.3}Status}{12}{subsubsection.6.4.3}}
\newlabel{sec:org6cacb52}{{6.4.3}{12}{Status}{subsubsection.6.4.3}{}}
\@writefile{toc}{\contentsline {subsubsection}{\numberline {6.4.4}Stop (Detener)}{12}{subsubsection.6.4.4}}
\newlabel{sec:orgbb272b9}{{6.4.4}{12}{Stop (Detener)}{subsubsection.6.4.4}{}}
\@writefile{toc}{\contentsline {section}{\numberline {7}Archivos: Tipos, Permisos, Accesos.}{12}{section.7}}
\newlabel{sec:org9e17595}{{7}{12}{Archivos: Tipos, Permisos, Accesos}{section.7}{}}
\@writefile{toc}{\contentsline {subsection}{\numberline {7.1}Listar archivos}{12}{subsection.7.1}}
\newlabel{sec:orgde9e5f3}{{7.1}{12}{Listar archivos}{subsection.7.1}{}}
\@writefile{toc}{\contentsline {subsection}{\numberline {7.2}Descubrir la informaci\IeC {\'o}n acerca del tipo de archivo}{12}{subsection.7.2}}
\newlabel{sec:org6800e2d}{{7.2}{12}{Descubrir la información acerca del tipo de archivo}{subsection.7.2}{}}
\@writefile{toc}{\contentsline {subsection}{\numberline {7.3}Descubrir Contenidos}{13}{subsection.7.3}}
\newlabel{sec:orge37b390}{{7.3}{13}{Descubrir Contenidos}{subsection.7.3}{}}
\@writefile{toc}{\contentsline {subsection}{\numberline {7.4}Permisos de acceso, lectura y ejecuci\IeC {\'o}n}{13}{subsection.7.4}}
\newlabel{sec:org161f41b}{{7.4}{13}{Permisos de acceso, lectura y ejecución}{subsection.7.4}{}}
\@writefile{lof}{\contentsline {figure}{\numberline {8}{\ignorespaces  Asignaci\IeC {\'o}n de Permisos a archivos}}{14}{figure.8}}
\newlabel{fig:orgfe41338}{{8}{14}{Asignación de Permisos a archivos}{figure.8}{}}
\@writefile{toc}{\contentsline {subsection}{\numberline {7.5}Permisos de usuario y grupo}{14}{subsection.7.5}}
\newlabel{sec:org4038e1b}{{7.5}{14}{Permisos de usuario y grupo}{subsection.7.5}{}}
\@writefile{toc}{\contentsline {subsection}{\numberline {7.6}Crear usuario y grupo}{14}{subsection.7.6}}
\newlabel{sec:org4916895}{{7.6}{14}{Crear usuario y grupo}{subsection.7.6}{}}
\@writefile{toc}{\contentsline {subsection}{\numberline {7.7}Referencias}{15}{subsection.7.7}}
\newlabel{sec:org6bb1394}{{7.7}{15}{Referencias}{subsection.7.7}{}}
\@writefile{toc}{\contentsline {section}{\numberline {8}B\IeC {\'u}squeda y Edici\IeC {\'o}n: sed y grep}{15}{section.8}}
\newlabel{sec:org3e2f4b7}{{8}{15}{Búsqueda y Edición: sed y grep}{section.8}{}}
\@writefile{toc}{\contentsline {subsection}{\numberline {8.1}Buscar con toda la potencia}{15}{subsection.8.1}}
\newlabel{sec:org90c186b}{{8.1}{15}{Buscar con toda la potencia}{subsection.8.1}{}}
\@writefile{toc}{\contentsline {subsubsection}{\numberline {8.1.1}Ejercicios}{16}{subsubsection.8.1.1}}
\newlabel{sec:org39165a8}{{8.1.1}{16}{Ejercicios}{subsubsection.8.1.1}{}}
\@writefile{toc}{\contentsline {subsection}{\numberline {8.2}Editar desde la terminal}{16}{subsection.8.2}}
\newlabel{sec:orgbee481b}{{8.2}{16}{Editar desde la terminal}{subsection.8.2}{}}
\@writefile{toc}{\contentsline {subsection}{\numberline {8.3}Ejercicios}{16}{subsection.8.3}}
\newlabel{sec:orgea1f5dd}{{8.3}{16}{Ejercicios}{subsection.8.3}{}}
\@writefile{toc}{\contentsline {section}{\numberline {9}Decimal, hexadecimal y binario}{16}{section.9}}
\newlabel{sec:org987703f}{{9}{16}{Decimal, hexadecimal y binario}{section.9}{}}
\@writefile{toc}{\contentsline {subsection}{\numberline {9.1}Ejercicios}{17}{subsection.9.1}}
\newlabel{sec:org2a8d572}{{9.1}{17}{Ejercicios}{subsection.9.1}{}}
\@writefile{toc}{\contentsline {section}{\numberline {10}American Standard Code for Information Interchange [ASCII]}{18}{section.10}}
\newlabel{sec:orgc2c0347}{{10}{18}{American Standard Code for Information Interchange [ASCII]}{section.10}{}}
\@writefile{toc}{\contentsline {subsection}{\numberline {10.1}Jugando un poco con conversiones a ASCII}{18}{subsection.10.1}}
\newlabel{sec:org334fd9c}{{10.1}{18}{Jugando un poco con conversiones a ASCII}{subsection.10.1}{}}
\@writefile{lof}{\contentsline {figure}{\numberline {9}{\ignorespaces Tabla ASCII}}{19}{figure.9}}
\@writefile{toc}{\contentsline {subsection}{\numberline {10.2}Ejercicios}{19}{subsection.10.2}}
\newlabel{sec:org26c9a7c}{{10.2}{19}{Ejercicios}{subsection.10.2}{}}
