<?xml version="1.0" encoding="UTF-8" standalone="no"?>
<!-- Created with Inkscape (http://www.inkscape.org/) -->

<svg
   xmlns:dc="http://purl.org/dc/elements/1.1/"
   xmlns:cc="http://creativecommons.org/ns#"
   xmlns:rdf="http://www.w3.org/1999/02/22-rdf-syntax-ns#"
   xmlns:svg="http://www.w3.org/2000/svg"
   xmlns="http://www.w3.org/2000/svg"
   xmlns:sodipodi="http://sodipodi.sourceforge.net/DTD/sodipodi-0.dtd"
   xmlns:inkscape="http://www.inkscape.org/namespaces/inkscape"
   width="203.45012mm"
   height="261.65848mm"
   viewBox="0 0 203.45012 261.65848"
   version="1.1"
   id="svg1558"
   inkscape:version="0.92.1 r15371"
   sodipodi:docname="pagina.svg"
   inkscape:export-filename="/home/david/Documents/CursoProgramacion/nivel3/sesion2/archivos/pagina.png"
   inkscape:export-xdpi="95"
   inkscape:export-ydpi="95">
  <defs
     id="defs1552" />
  <sodipodi:namedview
     id="base"
     pagecolor="#ffffff"
     bordercolor="#666666"
     borderopacity="1.0"
     inkscape:pageopacity="0.0"
     inkscape:pageshadow="2"
     inkscape:zoom="0.35"
     inkscape:cx="822.2169"
     inkscape:cy="488.32305"
     inkscape:document-units="mm"
     inkscape:current-layer="layer1"
     showgrid="false"
     fit-margin-top="5"
     fit-margin-left="5"
     fit-margin-bottom="5"
     fit-margin-right="5"
     inkscape:window-width="1366"
     inkscape:window-height="709"
     inkscape:window-x="0"
     inkscape:window-y="0"
     inkscape:window-maximized="1" />
  <metadata
     id="metadata1555">
    <rdf:RDF>
      <cc:Work
         rdf:about="">
        <dc:format>image/svg+xml</dc:format>
        <dc:type
           rdf:resource="http://purl.org/dc/dcmitype/StillImage" />
        <dc:title></dc:title>
      </cc:Work>
    </rdf:RDF>
  </metadata>
  <g
     inkscape:label="Capa 1"
     inkscape:groupmode="layer"
     id="layer1"
     transform="translate(-5.6201767,-14.224331)">
    <rect
       style="opacity:1;fill:none;fill-opacity:0.99613899;stroke:#000000;stroke-width:0.83161783;stroke-miterlimit:4;stroke-dasharray:none;stroke-dashoffset:0;stroke-opacity:1"
       id="rect817"
       width="179.57643"
       height="54.668465"
       x="17.861795"
       y="24.954042" />
    <circle
       style="opacity:1;fill:#00ff00;fill-opacity:0.99613899;stroke:#000000;stroke-width:0.27178288;stroke-miterlimit:4;stroke-dasharray:none;stroke-dashoffset:0;stroke-opacity:1"
       id="path841"
       cx="192.57886"
       cy="74.560997"
       r="2.7178288" />
    <rect
       style="opacity:1;fill:none;fill-opacity:0.99613899;stroke:#000000;stroke-width:0.79374999;stroke-miterlimit:4;stroke-dasharray:none;stroke-dashoffset:0;stroke-opacity:1"
       id="rect10"
       width="192.65637"
       height="250.86473"
       x="11.017052"
       y="19.621206" />
    <rect
       y="83.131271"
       x="18.13307"
       height="132.80446"
       width="179.03387"
       id="rect819"
       style="opacity:1;fill:none;fill-opacity:0.99613899;stroke:#000000;stroke-width:0.79374999;stroke-miterlimit:4;stroke-dasharray:none;stroke-dashoffset:0;stroke-opacity:1" />
    <rect
       y="222.13687"
       x="17.799726"
       height="40.051529"
       width="179.70056"
       id="rect821"
       style="opacity:1;fill:none;fill-opacity:0.99613899;stroke:#000000;stroke-width:0.79374999;stroke-miterlimit:4;stroke-dasharray:none;stroke-dashoffset:0;stroke-opacity:1" />
    <rect
       style="opacity:1;fill:none;fill-opacity:0.99613899;stroke:#000000;stroke-width:0.4643707;stroke-miterlimit:4;stroke-dasharray:none;stroke-dashoffset:0;stroke-opacity:1"
       id="rect954"
       width="165.88295"
       height="18.850214"
       x="26.29364"
       y="89.326385" />
    <text
       xml:space="preserve"
       style="font-style:normal;font-weight:normal;font-size:10.58333302px;line-height:1.25;font-family:sans-serif;letter-spacing:0px;word-spacing:0px;fill:#000000;fill-opacity:1;stroke:none;stroke-width:0.26458332"
       x="92.98214"
       y="102.72023"
       id="text1501"><tspan
         sodipodi:role="line"
         id="tspan1499"
         x="92.98214"
         y="102.72023"
         style="stroke-width:0.26458332">Titulo</tspan></text>
    <circle
       r="2.7178288"
       cy="255.23361"
       cx="192.57886"
       id="circle1511"
       style="opacity:1;fill:#00ff00;fill-opacity:0.99613899;stroke:#000000;stroke-width:0.27178288;stroke-miterlimit:4;stroke-dasharray:none;stroke-dashoffset:0;stroke-opacity:1" />
    <rect
       y="113.90291"
       x="26.407282"
       height="41.875381"
       width="165.65567"
       id="rect1588"
       style="opacity:1;fill:none;fill-opacity:0.99613899;stroke:#000000;stroke-width:0.69165307;stroke-miterlimit:4;stroke-dasharray:none;stroke-dashoffset:0;stroke-opacity:1" />
    <text
       id="text1592"
       y="128.11084"
       x="92.98214"
       style="font-style:normal;font-weight:normal;font-size:10.58333302px;line-height:1.25;font-family:sans-serif;letter-spacing:0px;word-spacing:0px;fill:#000000;fill-opacity:1;stroke:none;stroke-width:0.26458332"
       xml:space="preserve"><tspan
         style="stroke-width:0.26458332"
         y="128.11084"
         x="92.98214"
         id="tspan1590"
         sodipodi:role="line">Imagen Principal</tspan></text>
    <rect
       style="opacity:1;fill:none;fill-opacity:0.99613899;stroke:#000000;stroke-width:0.7523486;stroke-miterlimit:4;stroke-dasharray:none;stroke-dashoffset:0;stroke-opacity:1"
       id="rect1594"
       width="165.59497"
       height="49.565502"
       x="26.43763"
       y="161.68857" />
    <text
       xml:space="preserve"
       style="font-style:normal;font-weight:normal;font-size:10.58333302px;line-height:1.25;font-family:sans-serif;letter-spacing:0px;word-spacing:0px;fill:#000000;fill-opacity:1;stroke:none;stroke-width:0.26458332"
       x="92.98214"
       y="173.2794"
       id="text1598"><tspan
         sodipodi:role="line"
         id="tspan1596"
         x="92.98214"
         y="173.2794"
         style="stroke-width:0.26458332">Texto</tspan></text>
  </g>
</svg>
