<?xml version="1.0" encoding="UTF-8" standalone="no"?>
<!-- Created with Inkscape (http://www.inkscape.org/) -->

<svg
   xmlns:dc="http://purl.org/dc/elements/1.1/"
   xmlns:cc="http://creativecommons.org/ns#"
   xmlns:rdf="http://www.w3.org/1999/02/22-rdf-syntax-ns#"
   xmlns:svg="http://www.w3.org/2000/svg"
   xmlns="http://www.w3.org/2000/svg"
   xmlns:sodipodi="http://sodipodi.sourceforge.net/DTD/sodipodi-0.dtd"
   xmlns:inkscape="http://www.inkscape.org/namespaces/inkscape"
   width="297mm"
   height="210mm"
   viewBox="0 0 297 210"
   version="1.1"
   id="svg8"
   inkscape:version="0.92.1 r15371"
   sodipodi:docname="ejecucion.svg"
   inkscape:export-filename="/home/david/Documents/CursoProgramacion/nivel1/sesion2/img/ejecucion.svg.png"
   inkscape:export-xdpi="96"
   inkscape:export-ydpi="96">
  <defs
     id="defs2">
    <marker
       inkscape:stockid="Arrow1Mend"
       orient="auto"
       refY="0.0"
       refX="0.0"
       id="marker3789"
       style="overflow:visible;"
       inkscape:isstock="true">
      <path
         id="path3787"
         d="M 0.0,0.0 L 5.0,-5.0 L -12.5,0.0 L 5.0,5.0 L 0.0,0.0 z "
         style="fill-rule:evenodd;stroke:#000000;stroke-width:1pt;stroke-opacity:1;fill:#000000;fill-opacity:1"
         transform="scale(0.4) rotate(180) translate(10,0)" />
    </marker>
    <marker
       inkscape:isstock="true"
       style="overflow:visible;"
       id="marker2873"
       refX="0.0"
       refY="0.0"
       orient="auto"
       inkscape:stockid="Arrow1Mend">
      <path
         transform="scale(0.4) rotate(180) translate(10,0)"
         style="fill-rule:evenodd;stroke:#000000;stroke-width:1pt;stroke-opacity:1;fill:#000000;fill-opacity:1"
         d="M 0.0,0.0 L 5.0,-5.0 L -12.5,0.0 L 5.0,5.0 L 0.0,0.0 z "
         id="path2871" />
    </marker>
    <marker
       inkscape:stockid="Arrow1Mend"
       orient="auto"
       refY="0.0"
       refX="0.0"
       id="marker2815"
       style="overflow:visible;"
       inkscape:isstock="true">
      <path
         id="path2813"
         d="M 0.0,0.0 L 5.0,-5.0 L -12.5,0.0 L 5.0,5.0 L 0.0,0.0 z "
         style="fill-rule:evenodd;stroke:#000000;stroke-width:1pt;stroke-opacity:1;fill:#000000;fill-opacity:1"
         transform="scale(0.4) rotate(180) translate(10,0)" />
    </marker>
    <marker
       inkscape:isstock="true"
       style="overflow:visible;"
       id="marker2775"
       refX="0.0"
       refY="0.0"
       orient="auto"
       inkscape:stockid="Arrow1Mend">
      <path
         transform="scale(0.4) rotate(180) translate(10,0)"
         style="fill-rule:evenodd;stroke:#000000;stroke-width:1pt;stroke-opacity:1;fill:#000000;fill-opacity:1"
         d="M 0.0,0.0 L 5.0,-5.0 L -12.5,0.0 L 5.0,5.0 L 0.0,0.0 z "
         id="path2773" />
    </marker>
    <marker
       inkscape:isstock="true"
       style="overflow:visible;"
       id="marker1715"
       refX="0.0"
       refY="0.0"
       orient="auto"
       inkscape:stockid="Arrow1Mend"
       inkscape:collect="always">
      <path
         transform="scale(0.4) rotate(180) translate(10,0)"
         style="fill-rule:evenodd;stroke:#000000;stroke-width:1pt;stroke-opacity:1;fill:#000000;fill-opacity:1"
         d="M 0.0,0.0 L 5.0,-5.0 L -12.5,0.0 L 5.0,5.0 L 0.0,0.0 z "
         id="path1713" />
    </marker>
    <marker
       inkscape:isstock="true"
       style="overflow:visible;"
       id="marker1133"
       refX="0.0"
       refY="0.0"
       orient="auto"
       inkscape:stockid="Arrow1Mend">
      <path
         transform="scale(0.4) rotate(180) translate(10,0)"
         style="fill-rule:evenodd;stroke:#000000;stroke-width:1pt;stroke-opacity:1;fill:#000000;fill-opacity:1"
         d="M 0.0,0.0 L 5.0,-5.0 L -12.5,0.0 L 5.0,5.0 L 0.0,0.0 z "
         id="path1131" />
    </marker>
    <marker
       inkscape:stockid="Arrow1Mend"
       orient="auto"
       refY="0.0"
       refX="0.0"
       id="Arrow1Mend"
       style="overflow:visible;"
       inkscape:isstock="true"
       inkscape:collect="always">
      <path
         id="path830"
         d="M 0.0,0.0 L 5.0,-5.0 L -12.5,0.0 L 5.0,5.0 L 0.0,0.0 z "
         style="fill-rule:evenodd;stroke:#000000;stroke-width:1pt;stroke-opacity:1;fill:#000000;fill-opacity:1"
         transform="scale(0.4) rotate(180) translate(10,0)" />
    </marker>
  </defs>
  <sodipodi:namedview
     id="base"
     pagecolor="#ffffff"
     bordercolor="#666666"
     borderopacity="1.0"
     inkscape:pageopacity="0.0"
     inkscape:pageshadow="2"
     inkscape:zoom="0.49497475"
     inkscape:cx="726.13436"
     inkscape:cy="341.84072"
     inkscape:document-units="mm"
     inkscape:current-layer="layer1"
     showgrid="false"
     inkscape:window-width="1366"
     inkscape:window-height="709"
     inkscape:window-x="0"
     inkscape:window-y="0"
     inkscape:window-maximized="1" />
  <metadata
     id="metadata5">
    <rdf:RDF>
      <cc:Work
         rdf:about="">
        <dc:format>image/svg+xml</dc:format>
        <dc:type
           rdf:resource="http://purl.org/dc/dcmitype/StillImage" />
        <dc:title></dc:title>
      </cc:Work>
    </rdf:RDF>
  </metadata>
  <g
     inkscape:label="Capa 1"
     inkscape:groupmode="layer"
     id="layer1"
     transform="translate(0,-87)">
    <rect
       style="fill:none;fill-opacity:1;stroke:#000000;stroke-width:0.26499999;stroke-miterlimit:4;stroke-dasharray:none;stroke-opacity:1"
       id="rect10"
       width="35.907738"
       height="35.907738"
       x="25.17436"
       y="133.43263" />
    <circle
       style="fill:none;fill-opacity:1;stroke:#000000;stroke-width:0.26499999;stroke-miterlimit:4;stroke-dasharray:none;stroke-opacity:1"
       id="path12"
       cx="179.95561"
       cy="150.63055"
       r="17.575893" />
    <path
       style="fill:none;stroke:#000000;stroke-width:0.26499999;stroke-linecap:butt;stroke-linejoin:miter;stroke-miterlimit:4;stroke-dasharray:none;stroke-opacity:1;marker-end:url(#Arrow1Mend)"
       d="M 62.216026,152.33144 H 159.73388"
       id="path14"
       inkscape:connector-curvature="0" />
    <text
       xml:space="preserve"
       style="font-style:normal;font-weight:normal;font-size:5.71529388px;line-height:1.25;font-family:sans-serif;letter-spacing:0px;word-spacing:0px;fill:#000000;fill-opacity:1;stroke:none;stroke-width:0.14288235"
       x="27.169069"
       y="152.08344"
       id="text1105"><tspan
         sodipodi:role="line"
         id="tspan1103"
         x="27.169069"
         y="152.08344"
         style="stroke-width:0.14288235">programa.c</tspan></text>
    <text
       id="text1109"
       y="152.08344"
       x="98.797302"
       style="font-style:normal;font-weight:normal;font-size:5.71529388px;line-height:1.25;font-family:sans-serif;letter-spacing:0px;word-spacing:0px;fill:#000000;fill-opacity:1;stroke:none;stroke-width:0.14288235"
       xml:space="preserve"><tspan
         style="stroke-width:0.14288235"
         y="152.08344"
         x="98.797302"
         id="tspan1107"
         sodipodi:role="line">gcc</tspan></text>
    <text
       xml:space="preserve"
       style="font-style:normal;font-weight:normal;font-size:5.71529388px;line-height:1.25;font-family:sans-serif;letter-spacing:0px;word-spacing:0px;fill:#000000;fill-opacity:1;stroke:none;stroke-width:0.14288235"
       x="167.70929"
       y="152.08344"
       id="text1113"><tspan
         sodipodi:role="line"
         id="tspan1111"
         x="167.70929"
         y="152.08344"
         style="stroke-width:0.14288235">programa</tspan></text>
    <path
       sodipodi:type="star"
       style="fill:none;fill-opacity:1;stroke:#000000;stroke-width:0.26499999;stroke-miterlimit:4;stroke-dasharray:none;stroke-opacity:1"
       id="path1117"
       sodipodi:sides="5"
       sodipodi:cx="255.50966"
       sodipodi:cy="127.55112"
       sodipodi:r1="19.886002"
       sodipodi:r2="9.9430008"
       sodipodi:arg1="1.0471976"
       sodipodi:arg2="1.6755161"
       inkscape:flatsided="true"
       inkscape:rounded="0"
       inkscape:randomized="0"
       d="m 265.45266,144.7729 -23.24933,-2.4436 -4.86044,-22.86655 20.24542,-11.6887 17.37279,15.64254 z"
       inkscape:transform-center-x="0.00026214005"
       inkscape:transform-center-y="-1.8986992"
       transform="rotate(-6.0024114,484.40539,191.59064)" />
    <text
       id="text1121"
       y="155.29623"
       x="244.62743"
       style="font-style:normal;font-weight:normal;font-size:5.71529388px;line-height:1.25;font-family:sans-serif;letter-spacing:0px;word-spacing:0px;fill:#000000;fill-opacity:1;stroke:none;stroke-width:0.14288235"
       xml:space="preserve"><tspan
         style="stroke-width:0.14288235"
         y="155.29623"
         x="244.62743"
         id="tspan1119"
         sodipodi:role="line">CPU</tspan></text>
    <path
       inkscape:connector-curvature="0"
       id="path1711"
       d="m 198.09847,152.33144 h 33.82886"
       style="fill:none;stroke:#000000;stroke-width:0.26499999;stroke-linecap:butt;stroke-linejoin:miter;stroke-miterlimit:4;stroke-dasharray:none;stroke-opacity:1;marker-end:url(#marker1715)"
       sodipodi:nodetypes="cc" />
    <text
       xml:space="preserve"
       style="font-style:normal;font-weight:normal;font-size:10.58333302px;line-height:1.25;font-family:sans-serif;letter-spacing:0px;word-spacing:0px;fill:#000000;fill-opacity:1;stroke:none;stroke-width:0.26458332"
       x="26.686266"
       y="116.04573"
       id="text2709"><tspan
         sodipodi:role="line"
         id="tspan2707"
         x="26.686266"
         y="116.04573"
         style="stroke-width:0.26458332">Archivos de ejecución binaria</tspan></text>
    <text
       id="text2713"
       y="196.22659"
       x="24.013571"
       style="font-style:normal;font-weight:normal;font-size:10.58333302px;line-height:1.25;font-family:sans-serif;letter-spacing:0px;word-spacing:0px;fill:#000000;fill-opacity:1;stroke:none;stroke-width:0.26458332"
       xml:space="preserve"><tspan
         style="stroke-width:0.26458332"
         y="196.22659"
         x="24.013571"
         id="tspan2711"
         sodipodi:role="line">Archivos de ejecución interpretado</tspan></text>
    <rect
       y="204.52632"
       x="25.17436"
       height="35.907738"
       width="35.907738"
       id="rect2721"
       style="fill:none;fill-opacity:1;stroke:#000000;stroke-width:0.26499999;stroke-miterlimit:4;stroke-dasharray:none;stroke-opacity:1" />
    <ellipse
       cy="221.72424"
       cx="179.95561"
       id="circle2723"
       style="fill:none;fill-opacity:1;stroke:#000000;stroke-width:0.36015806;stroke-miterlimit:4;stroke-dasharray:none;stroke-opacity:1"
       rx="32.552868"
       ry="17.528316" />
    <path
       inkscape:connector-curvature="0"
       id="path2725"
       d="m 62.216026,223.42513 84.666664,0"
       style="fill:none;stroke:#000000;stroke-width:0.26499999;stroke-linecap:butt;stroke-linejoin:miter;stroke-miterlimit:4;stroke-dasharray:none;stroke-opacity:1;marker-end:url(#marker2873)"
       sodipodi:nodetypes="cc" />
    <text
       id="text2729"
       y="223.17712"
       x="32.838711"
       style="font-style:normal;font-weight:normal;font-size:5.71529388px;line-height:1.25;font-family:sans-serif;letter-spacing:0px;word-spacing:0px;fill:#000000;fill-opacity:1;stroke:none;stroke-width:0.14288235"
       xml:space="preserve"><tspan
         style="stroke-width:0.14288235"
         y="223.17712"
         x="32.838711"
         id="tspan2727"
         sodipodi:role="line">script.sh</tspan></text>
    <text
       xml:space="preserve"
       style="font-style:normal;font-weight:normal;font-size:5.71529388px;line-height:1.25;font-family:sans-serif;letter-spacing:0px;word-spacing:0px;fill:#000000;fill-opacity:1;stroke:none;stroke-width:0.14288235"
       x="98.797302"
       y="223.17712"
       id="text2733"><tspan
         sodipodi:role="line"
         id="tspan2731"
         x="98.797302"
         y="223.17712"
         style="stroke-width:0.14288235">bash</tspan></text>
    <text
       id="text2737"
       y="224.51347"
       x="148.29819"
       style="font-style:normal;font-weight:normal;font-size:5.71529388px;line-height:1.25;font-family:sans-serif;letter-spacing:0px;word-spacing:0px;fill:#000000;fill-opacity:1;stroke:none;stroke-width:0.14288235"
       xml:space="preserve"><tspan
         style="stroke-width:0.14288235"
         y="224.51347"
         x="148.29819"
         id="tspan2735"
         sodipodi:role="line">/usr/bin/bash script.sh</tspan></text>
    <path
       transform="rotate(-6.0024114,1162.4067,227.13749)"
       inkscape:transform-center-y="-1.8986992"
       inkscape:transform-center-x="0.00026214005"
       d="m 265.45266,144.7729 -23.24933,-2.4436 -4.86044,-22.86655 20.24542,-11.6887 17.37279,15.64254 z"
       inkscape:randomized="0"
       inkscape:rounded="0"
       inkscape:flatsided="true"
       sodipodi:arg2="1.6755161"
       sodipodi:arg1="1.0471976"
       sodipodi:r2="9.9430008"
       sodipodi:r1="19.886002"
       sodipodi:cy="127.55112"
       sodipodi:cx="255.50966"
       sodipodi:sides="5"
       id="path2739"
       style="fill:none;fill-opacity:1;stroke:#000000;stroke-width:0.26499999;stroke-miterlimit:4;stroke-dasharray:none;stroke-opacity:1"
       sodipodi:type="star" />
    <text
       xml:space="preserve"
       style="font-style:normal;font-weight:normal;font-size:5.71529388px;line-height:1.25;font-family:sans-serif;letter-spacing:0px;word-spacing:0px;fill:#000000;fill-opacity:1;stroke:none;stroke-width:0.14288235"
       x="244.62743"
       y="226.38992"
       id="text2743"><tspan
         sodipodi:role="line"
         id="tspan2741"
         x="244.62743"
         y="226.38992"
         style="stroke-width:0.14288235">CPU</tspan></text>
    <path
       sodipodi:nodetypes="cc"
       style="fill:none;stroke:#000000;stroke-width:0.26499999;stroke-linecap:butt;stroke-linejoin:miter;stroke-miterlimit:4;stroke-dasharray:none;stroke-opacity:1;marker-end:url(#marker2815)"
       d="m 212.90439,225.29602 17.95386,0"
       id="path2745"
       inkscape:connector-curvature="0" />
    <rect
       style="fill:none;fill-opacity:1;stroke:#000000;stroke-width:0.26499999;stroke-miterlimit:4;stroke-dasharray:none;stroke-opacity:1"
       id="rect2747"
       width="46.869049"
       height="35.90773"
       x="25.17436"
       y="247.99358" />
    <ellipse
       style="fill:none;fill-opacity:1;stroke:#000000;stroke-width:0.35650891;stroke-miterlimit:4;stroke-dasharray:none;stroke-opacity:1"
       id="circle2749"
       cx="179.95561"
       cy="265.19147"
       rx="31.893232"
       ry="17.53014" />
    <path
       style="fill:none;stroke:#000000;stroke-width:0.26499999;stroke-linecap:butt;stroke-linejoin:miter;stroke-miterlimit:4;stroke-dasharray:none;stroke-opacity:1;marker-end:url(#marker2775)"
       d="m 73.177336,266.89238 74.272314,0"
       id="path2751"
       inkscape:connector-curvature="0"
       sodipodi:nodetypes="cc" />
    <text
       xml:space="preserve"
       style="font-style:normal;font-weight:normal;font-size:5.71529388px;line-height:1.25;font-family:sans-serif;letter-spacing:0px;word-spacing:0px;fill:#000000;fill-opacity:1;stroke:none;stroke-width:0.14288235"
       x="27.169069"
       y="266.64435"
       id="text2755"><tspan
         sodipodi:role="line"
         id="tspan2753"
         x="27.169069"
         y="266.64435"
         style="stroke-width:0.14288235">programita.py</tspan></text>
    <text
       id="text2759"
       y="266.64435"
       x="98.797302"
       style="font-style:normal;font-weight:normal;font-size:5.71529388px;line-height:1.25;font-family:sans-serif;letter-spacing:0px;word-spacing:0px;fill:#000000;fill-opacity:1;stroke:none;stroke-width:0.14288235"
       xml:space="preserve"><tspan
         style="stroke-width:0.14288235"
         y="266.64435"
         x="98.797302"
         id="tspan2757"
         sodipodi:role="line">python</tspan></text>
    <text
       xml:space="preserve"
       style="font-style:normal;font-weight:normal;font-size:5.71529388px;line-height:1.25;font-family:sans-serif;letter-spacing:0px;word-spacing:0px;fill:#000000;fill-opacity:1;stroke:none;stroke-width:0.14288235"
       x="149.18845"
       y="266.64435"
       id="text2763"><tspan
         sodipodi:role="line"
         id="tspan2761"
         x="149.18845"
         y="266.64435"
         style="stroke-width:0.14288235">python programita.py</tspan></text>
    <path
       sodipodi:type="star"
       style="fill:none;fill-opacity:1;stroke:#000000;stroke-width:0.26499999;stroke-miterlimit:4;stroke-dasharray:none;stroke-opacity:1"
       id="path2765"
       sodipodi:sides="5"
       sodipodi:cx="255.50966"
       sodipodi:cy="127.55112"
       sodipodi:r1="19.886002"
       sodipodi:r2="9.9430008"
       sodipodi:arg1="1.0471976"
       sodipodi:arg2="1.6755161"
       inkscape:flatsided="true"
       inkscape:rounded="0"
       inkscape:randomized="0"
       d="m 265.45266,144.7729 -23.24933,-2.4436 -4.86044,-22.86655 20.24542,-11.6887 17.37279,15.64254 z"
       inkscape:transform-center-x="0.00026214005"
       inkscape:transform-center-y="-1.8986992"
       transform="rotate(-6.0024114,1576.9421,248.87112)" />
    <text
       id="text2769"
       y="269.85718"
       x="244.62743"
       style="font-style:normal;font-weight:normal;font-size:5.71529388px;line-height:1.25;font-family:sans-serif;letter-spacing:0px;word-spacing:0px;fill:#000000;fill-opacity:1;stroke:none;stroke-width:0.14288235"
       xml:space="preserve"><tspan
         style="stroke-width:0.14288235"
         y="269.85718"
         x="244.62743"
         id="tspan2767"
         sodipodi:role="line">CPU</tspan></text>
    <path
       inkscape:connector-curvature="0"
       id="path2771"
       d="m 212.46157,266.89238 19.46576,0"
       style="fill:none;stroke:#000000;stroke-width:0.26499999;stroke-linecap:butt;stroke-linejoin:miter;stroke-miterlimit:4;stroke-dasharray:none;stroke-opacity:1;marker-end:url(#marker3789)"
       sodipodi:nodetypes="cc" />
  </g>
</svg>
