<?xml version="1.0" encoding="UTF-8" standalone="no"?>
<!-- Created with Inkscape (http://www.inkscape.org/) -->

<svg
   xmlns:dc="http://purl.org/dc/elements/1.1/"
   xmlns:cc="http://creativecommons.org/ns#"
   xmlns:rdf="http://www.w3.org/1999/02/22-rdf-syntax-ns#"
   xmlns:svg="http://www.w3.org/2000/svg"
   xmlns="http://www.w3.org/2000/svg"
   xmlns:sodipodi="http://sodipodi.sourceforge.net/DTD/sodipodi-0.dtd"
   xmlns:inkscape="http://www.inkscape.org/namespaces/inkscape"
   width="87.429665mm"
   height="168.09853mm"
   viewBox="0 0 87.429665 168.09853"
   version="1.1"
   id="svg993"
   inkscape:version="0.92.1 r15371"
   sodipodi:docname="ciberneticas_comun.svg"
   inkscape:export-filename="/home/david/Documentos/PedagogiasNomades/encuentro2/taller_documentacion/imagenes/imagen.png"
   inkscape:export-xdpi="95"
   inkscape:export-ydpi="95">
  <defs
     id="defs987" />
  <sodipodi:namedview
     id="base"
     pagecolor="#ffffff"
     bordercolor="#666666"
     borderopacity="1.0"
     inkscape:pageopacity="0.0"
     inkscape:pageshadow="2"
     inkscape:zoom="0.7"
     inkscape:cx="141.53471"
     inkscape:cy="297.06878"
     inkscape:document-units="mm"
     inkscape:current-layer="layer1"
     showgrid="false"
     fit-margin-top="0"
     fit-margin-left="0"
     fit-margin-right="0"
     fit-margin-bottom="0"
     inkscape:window-width="1366"
     inkscape:window-height="709"
     inkscape:window-x="0"
     inkscape:window-y="0"
     inkscape:window-maximized="1" />
  <metadata
     id="metadata990">
    <rdf:RDF>
      <cc:Work
         rdf:about="">
        <dc:format>image/svg+xml</dc:format>
        <dc:type
           rdf:resource="http://purl.org/dc/dcmitype/StillImage" />
        <dc:title />
      </cc:Work>
    </rdf:RDF>
  </metadata>
  <g
     inkscape:label="Capa 1"
     inkscape:groupmode="layer"
     id="layer1"
     transform="translate(-36.644801,-90.365979)">
    <path
       style="fill:#9eff94;fill-opacity:1;stroke:#000000;stroke-width:0.14890012px;stroke-linecap:butt;stroke-linejoin:miter;stroke-opacity:1"
       d="m 63.100711,97.348787 -26.376607,13.613733 3.403424,32.75801 14.03917,58.28376 32.758034,-6.80686 1.276274,25.95119 c 0,0 17.868024,2.97798 21.271454,1.27628 3.40343,-1.70171 14.46458,-42.96832 14.46458,-47.22261 0,-4.25428 -1.27628,-48.07347 -2.55258,-50.62606 -1.27628,-2.55258 -31.056307,-14.46458 -31.056307,-14.46458 L 76.714424,90.541922 Z"
       id="path857"
       inkscape:connector-curvature="0" />
    <path
       style="fill:none;stroke:#000000;stroke-width:0.27458647px;stroke-linecap:butt;stroke-linejoin:miter;stroke-opacity:1"
       d="m 76.714575,90.541907 -13.614015,6.80673 -0.419927,21.795843 27.850692,21.96692 31.381695,-6.2758 0.50251,-0.32982 c -0.32596,-5.30833 -0.67835,-9.22372 -1.0313,-9.92962 -1.2763,-2.55258 -31.056178,-14.46461 -31.056178,-14.46461 z"
       id="path859"
       inkscape:connector-curvature="0" />
    <path
       style="fill:none;stroke:#000000;stroke-width:0.27458647px;stroke-linecap:butt;stroke-linejoin:miter;stroke-opacity:1"
       d="m 78.763793,148.17235 -36.08186,6.15352 11.484916,47.67831 32.757853,-6.80675 0.435463,8.85381 14.939245,-2.92283 -10.590909,-22.75154 z"
       id="path861"
       inkscape:connector-curvature="0" />
    <path
       style="fill:#ffcf94;fill-opacity:1;stroke:#000000;stroke-width:0.27458647px;stroke-linecap:butt;stroke-linejoin:miter;stroke-opacity:1"
       d="m 106.02349,116.66945 c 0.14514,0.0632 0.28923,0.12684 0.43439,0.19038 -0.14605,-0.0638 -0.28827,-0.12684 -0.43439,-0.19038 z m 3.26766,1.44265 c 0.42772,0.19128 0.85682,0.38293 1.27587,0.57276 -0.42051,-0.19039 -0.84663,-0.38091 -1.27587,-0.57276 z m 1.91515,0.86237 c 0.7688,0.35083 1.51821,0.69706 2.23853,1.03614 -0.72062,-0.33904 -1.46938,-0.68536 -2.23853,-1.03614 z m 2.68364,1.24797 c 0.66811,0.31696 1.3122,0.62763 1.91836,0.92726 -0.60763,-0.30028 -1.2484,-0.6096 -1.91836,-0.92726 z m 2.2085,1.06994 c 0.19041,0.0949 0.37064,0.18625 0.55346,0.27888 -0.18284,-0.0926 -0.36303,-0.18404 -0.55346,-0.27888 z m 1.22761,0.62424 c 0.17898,0.0929 0.35485,0.18558 0.52448,0.27566 -0.17,-0.0904 -0.34506,-0.18252 -0.52448,-0.27566 z m 1.14714,0.61301 c 0.13209,0.0725 0.27116,0.14695 0.39577,0.2172 -0.12428,-0.0701 -0.26391,-0.1447 -0.39577,-0.2172 z m 1.24368,0.71327 c 0.20764,0.12684 0.39815,0.24874 0.57116,0.36468 -0.17265,-0.11588 -0.36397,-0.23791 -0.57116,-0.36468 z m 0.64516,0.4151 c 0.16817,0.11453 0.3212,0.22471 0.45158,0.32714 -0.13029,-0.10252 -0.28337,-0.21242 -0.45158,-0.32714 z m 0.46713,0.33841 c 0.0333,0.0264 0.0609,0.0512 0.0917,0.0767 -0.0306,-0.0254 -0.0586,-0.0503 -0.0917,-0.0767 z m 0.22739,0.19359 c 0.0267,0.0245 0.051,0.0483 0.075,0.0719 -0.024,-0.0236 -0.0484,-0.0474 -0.075,-0.0719 z m 0.17644,0.17805 c 0.0177,0.0201 0.0368,0.0402 0.0521,0.0594 -0.0151,-0.0192 -0.0345,-0.0396 -0.0521,-0.0594 z m 0.15124,0.20811 c 0.0218,0.0435 0.043,0.0998 0.0648,0.1673 -0.0216,-0.0666 -0.0434,-0.12413 -0.0648,-0.1673 z m 0.0713,0.18929 c 0.0177,0.057 0.0358,0.12264 0.0538,0.19521 -0.0178,-0.0727 -0.0358,-0.13809 -0.0538,-0.19521 z m 0.0875,0.3604 c 0.0332,0.15332 0.0668,0.31686 0.0997,0.52076 -0.0332,-0.20182 -0.0667,-0.36884 -0.0997,-0.52076 z m 0.12294,0.67682 c 0.0377,0.24513 0.0747,0.50908 0.11213,0.81464 -0.0373,-0.3022 -0.0746,-0.57221 -0.11213,-0.81464 z m 0.11633,0.84789 c 0.12444,1.02342 0.24782,2.37574 0.36846,3.95898 -0.12083,-1.57749 -0.2438,-2.94392 -0.36846,-3.95898 z m 0.40331,4.4395 c 0.0771,1.04551 0.15327,2.16708 0.22792,3.38085 -0.0746,-1.21441 -0.15074,-2.33914 -0.22792,-3.38085 z m 0.23007,3.41572 -0.50252,0.32982 -31.38169,6.2758 -4.844952,-3.82115 -6.594914,11.64634 12.617043,29.44028 8.890273,19.09825 15.78391,7.67877 c 3.80463,-12.45643 7.55434,-27.47446 7.55434,-29.95139 0,-3.07777 -0.66871,-26.80993 -1.52149,-40.69672 z"
       id="path863"
       inkscape:connector-curvature="0" />
    <path
       id="path865"
       d="m 76.714575,90.541907 -13.614015,6.80673 -0.419927,21.795843 27.850692,21.96692 31.381695,-6.2758 0.50251,-0.32982 c -0.32596,-5.30833 -0.67835,-9.22372 -1.0313,-9.92962 -1.2763,-2.55258 -31.056178,-14.46461 -31.056178,-14.46461 z"
       style="fill:#e9ff94;fill-opacity:1;stroke:#000000;stroke-width:0.27458647px;stroke-linecap:butt;stroke-linejoin:miter;stroke-opacity:1"
       inkscape:connector-curvature="0" />
    <path
       id="path867"
       d="m 78.763793,148.17235 -36.08186,6.15352 11.484916,47.67831 32.757853,-6.80675 0.435463,8.85381 14.939245,-2.92283 -10.590909,-22.75154 z"
       style="fill:#ffa794;fill-opacity:1;stroke:#000000;stroke-width:0.27458647px;stroke-linecap:butt;stroke-linejoin:miter;stroke-opacity:1"
       inkscape:connector-curvature="0" />
    <text
       xml:space="preserve"
       style="font-style:normal;font-weight:normal;font-size:9.36315155px;line-height:1.25;font-family:sans-serif;text-align:center;letter-spacing:0px;word-spacing:0px;text-anchor:middle;fill:#000000;fill-opacity:1;stroke:none;stroke-width:0.23407878"
       x="81.876862"
       y="246.62798"
       id="text924"><tspan
         id="tspan922"
         sodipodi:role="line"
         x="83.367287"
         y="246.62798"
         style="text-align:center;text-anchor:middle;stroke-width:0.23407878">+ Cibernéticas de </tspan><tspan
         sodipodi:role="line"
         x="81.876862"
         y="258.33191"
         style="text-align:center;text-anchor:middle;stroke-width:0.23407878"
         id="tspan1031">lo común</tspan></text>
    <circle
       r="7.3733363"
       cy="177.30075"
       cx="67.462791"
       id="circle928"
       style="opacity:1;fill:#80dbff;fill-opacity:1;stroke:#ff1d00;stroke-width:1.42424011;stroke-miterlimit:4;stroke-dasharray:none;stroke-dashoffset:0;stroke-opacity:1" />
    <circle
       style="opacity:1;fill:#8280ff;fill-opacity:1;stroke:#ff1d00;stroke-width:1.42424011;stroke-miterlimit:4;stroke-dasharray:none;stroke-dashoffset:0;stroke-opacity:1"
       id="circle930"
       cx="54.154842"
       cy="128.38493"
       r="7.3733363" />
    <circle
       r="7.3733363"
       cy="125.14787"
       cx="98.035172"
       id="circle932"
       style="opacity:1;fill:#fbff80;fill-opacity:1;stroke:#ff1d00;stroke-width:1.42424011;stroke-miterlimit:4;stroke-dasharray:none;stroke-dashoffset:0;stroke-opacity:1" />
    <circle
       style="opacity:1;fill:#ff8680;fill-opacity:1;stroke:#ff1d00;stroke-width:1.42424011;stroke-miterlimit:4;stroke-dasharray:none;stroke-dashoffset:0;stroke-opacity:1"
       id="circle934"
       cx="114.93987"
       cy="178.0201"
       r="7.3733363" />
    <circle
       r="7.3733363"
       cy="147.80737"
       cx="83.648163"
       id="circle936"
       style="opacity:1;fill:#a1ff80;fill-opacity:1;stroke:#ff1d00;stroke-width:1.42424011;stroke-miterlimit:4;stroke-dasharray:none;stroke-dashoffset:0;stroke-opacity:1" />
    <circle
       style="opacity:1;fill:#80dbff;fill-opacity:1;stroke:#ff1d00;stroke-width:1.42424011;stroke-miterlimit:4;stroke-dasharray:none;stroke-dashoffset:0;stroke-opacity:1"
       id="circle938"
       cx="103.78997"
       cy="212.90854"
       r="7.3733363" />
    <path
       style="fill:none;stroke:#000000;stroke-width:0.35606003px;stroke-linecap:butt;stroke-linejoin:miter;stroke-opacity:1"
       d="M 51.457263,130.00351 79.09159,148.93659"
       id="path940"
       inkscape:connector-curvature="0" />
    <path
       style="fill:none;stroke:#000000;stroke-width:0.35606003px;stroke-linecap:butt;stroke-linejoin:miter;stroke-opacity:1"
       d="m 79.09159,148.93659 17.684711,-23.96854 18.343419,53.59156 -12.22895,35.96751 -37.4062,-38.12554 z"
       id="path942"
       inkscape:connector-curvature="0" />
    <rect
       style="opacity:1;fill:#8280ff;fill-opacity:1;stroke:#ff1d00;stroke-width:0.81789142;stroke-miterlimit:4;stroke-dasharray:none;stroke-dashoffset:0;stroke-opacity:1"
       id="rect1033"
       width="12.852581"
       height="12.852581"
       x="78.138176"
       y="160.01144" />
    <rect
       y="140.44048"
       x="48.927769"
       height="12.852581"
       width="12.852581"
       id="rect1035"
       style="opacity:1;fill:#8280ff;fill-opacity:1;stroke:#ff1d00;stroke-width:0.81789142;stroke-miterlimit:4;stroke-dasharray:none;stroke-dashoffset:0;stroke-opacity:1" />
    <rect
       style="opacity:1;fill:#8280ff;fill-opacity:1;stroke:#ff1d00;stroke-width:0.81789142;stroke-miterlimit:4;stroke-dasharray:none;stroke-dashoffset:0;stroke-opacity:1"
       id="rect1037"
       width="12.852581"
       height="12.852581"
       x="69.912933"
       y="115.09035" />
    <rect
       y="144.30075"
       x="101.75229"
       height="12.852581"
       width="12.852581"
       id="rect1039"
       style="opacity:1;fill:#8280ff;fill-opacity:1;stroke:#ff1d00;stroke-width:0.81789142;stroke-miterlimit:4;stroke-dasharray:none;stroke-dashoffset:0;stroke-opacity:1" />
    <rect
       style="opacity:1;fill:#8280ff;fill-opacity:1;stroke:#ff1d00;stroke-width:0.81789142;stroke-miterlimit:4;stroke-dasharray:none;stroke-dashoffset:0;stroke-opacity:1"
       id="rect1041"
       width="12.852581"
       height="12.852581"
       x="89.446823"
       y="188.27582" />
  </g>
</svg>
