<?xml version="1.0" encoding="UTF-8" standalone="no"?>
<!-- Created with Inkscape (http://www.inkscape.org/) -->

<svg
   xmlns:dc="http://purl.org/dc/elements/1.1/"
   xmlns:cc="http://creativecommons.org/ns#"
   xmlns:rdf="http://www.w3.org/1999/02/22-rdf-syntax-ns#"
   xmlns:svg="http://www.w3.org/2000/svg"
   xmlns="http://www.w3.org/2000/svg"
   xmlns:sodipodi="http://sodipodi.sourceforge.net/DTD/sodipodi-0.dtd"
   xmlns:inkscape="http://www.inkscape.org/namespaces/inkscape"
   width="210mm"
   height="297mm"
   viewBox="0 0 210 297"
   version="1.1"
   id="svg4588"
   inkscape:version="0.92.1 r15371"
   sodipodi:docname="edicion-pagina.svg"
   inkscape:export-filename="/home/david/Documents/CursoProgramacion/nivel3/sesion3/imagenes/edicion-pagina.png"
   inkscape:export-xdpi="95"
   inkscape:export-ydpi="95">
  <defs
     id="defs4582" />
  <sodipodi:namedview
     id="base"
     pagecolor="#ffffff"
     bordercolor="#666666"
     borderopacity="1.0"
     inkscape:pageopacity="0.0"
     inkscape:pageshadow="2"
     inkscape:zoom="0.49497475"
     inkscape:cx="332.44608"
     inkscape:cy="441.95135"
     inkscape:document-units="mm"
     inkscape:current-layer="layer1"
     showgrid="false"
     inkscape:window-width="1366"
     inkscape:window-height="709"
     inkscape:window-x="0"
     inkscape:window-y="0"
     inkscape:window-maximized="1" />
  <metadata
     id="metadata4585">
    <rdf:RDF>
      <cc:Work
         rdf:about="">
        <dc:format>image/svg+xml</dc:format>
        <dc:type
           rdf:resource="http://purl.org/dc/dcmitype/StillImage" />
        <dc:title></dc:title>
      </cc:Work>
    </rdf:RDF>
  </metadata>
  <g
     inkscape:label="Capa 1"
     inkscape:groupmode="layer"
     id="layer1">
    <text
       xml:space="preserve"
       style="font-style:normal;font-weight:normal;font-size:10.58333302px;line-height:1.25;font-family:sans-serif;letter-spacing:0px;word-spacing:0px;fill:#000000;fill-opacity:1;stroke:none;stroke-width:0.26458332"
       x="53.672619"
       y="22.589287"
       id="text5135"><tspan
         sodipodi:role="line"
         id="tspan5133"
         x="53.672619"
         y="22.589287"
         style="stroke-width:0.26458332">Editar Página</tspan><tspan
         sodipodi:role="line"
         x="53.672619"
         y="35.818455"
         style="stroke-width:0.26458332"
         id="tspan5137">(formulario)</tspan></text>
    <text
       xml:space="preserve"
       style="font-style:normal;font-weight:normal;font-size:10.58333302px;line-height:1.25;font-family:sans-serif;letter-spacing:0px;word-spacing:0px;fill:#000000;fill-opacity:1;stroke:none;stroke-width:0.26458332"
       x="15.875"
       y="65.846252"
       id="text5141"><tspan
         sodipodi:role="line"
         id="tspan5139"
         x="15.875"
         y="65.846252"
         style="stroke-width:0.26458332">Titulo</tspan></text>
    <rect
       style="opacity:1;fill:none;fill-opacity:1;stroke:#000000;stroke-width:0.79374999;stroke-miterlimit:4;stroke-dasharray:none;stroke-dashoffset:0;stroke-opacity:1"
       id="rect5143"
       width="186.72025"
       height="12.095239"
       x="14.363094"
       y="74.161736" />
    <rect
       y="104.39983"
       x="14.363094"
       height="38.55357"
       width="188.23215"
       id="rect5145"
       style="opacity:1;fill:none;fill-opacity:1;stroke:#000000;stroke-width:0.79374999;stroke-miterlimit:4;stroke-dasharray:none;stroke-dashoffset:0;stroke-opacity:1" />
    <rect
       style="opacity:1;fill:none;fill-opacity:1;stroke:#000000;stroke-width:0.79374999;stroke-miterlimit:4;stroke-dasharray:none;stroke-dashoffset:0;stroke-opacity:1"
       id="rect5147"
       width="188.23215"
       height="85.422623"
       x="14.363094"
       y="161.85222" />
    <text
       id="text5151"
       y="99.522209"
       x="15.875"
       style="font-style:normal;font-weight:normal;font-size:10.58333302px;line-height:1.25;font-family:sans-serif;letter-spacing:0px;word-spacing:0px;fill:#000000;fill-opacity:1;stroke:none;stroke-width:0.26458332"
       xml:space="preserve"><tspan
         style="stroke-width:0.26458332"
         y="99.522209"
         x="15.875"
         id="tspan5149"
         sodipodi:role="line">Resumen</tspan></text>
    <text
       xml:space="preserve"
       style="font-style:normal;font-weight:normal;font-size:10.58333302px;line-height:1.25;font-family:sans-serif;letter-spacing:0px;word-spacing:0px;fill:#000000;fill-opacity:1;stroke:none;stroke-width:0.26458332"
       x="15.875"
       y="157.25243"
       id="text5155"><tspan
         sodipodi:role="line"
         id="tspan5153"
         x="15.875"
         y="157.25243"
         style="stroke-width:0.26458332">Contenido</tspan></text>
    <text
       id="text5159"
       y="264.16022"
       x="15.875"
       style="font-style:normal;font-weight:normal;font-size:10.58333302px;line-height:1.25;font-family:sans-serif;letter-spacing:0px;word-spacing:0px;fill:#000000;fill-opacity:1;stroke:none;stroke-width:0.26458332"
       xml:space="preserve"><tspan
         style="stroke-width:0.26458332"
         y="264.16022"
         x="15.875"
         id="tspan5157"
         sodipodi:role="line">Imagen Principal</tspan></text>
    <rect
       style="opacity:1;fill:none;fill-opacity:1;stroke:#000000;stroke-width:0.79374999;stroke-miterlimit:4;stroke-dasharray:none;stroke-dashoffset:0;stroke-opacity:1"
       id="rect5161"
       width="93.009796"
       height="17.105249"
       x="110.64958"
       y="253.70235" />
    <text
       xml:space="preserve"
       style="font-style:normal;font-weight:normal;font-size:8.60612774px;line-height:1.25;font-family:sans-serif;letter-spacing:0px;word-spacing:0px;fill:#000000;fill-opacity:1;stroke:none;stroke-width:0.21515319"
       x="114.0666"
       y="264.71265"
       id="text5165"><tspan
         sodipodi:role="line"
         id="tspan5163"
         x="114.0666"
         y="264.71265"
         style="stroke-width:0.21515319">Botón Subir Imagen</tspan></text>
    <flowRoot
       xml:space="preserve"
       id="flowRoot5167"
       style="font-style:normal;font-weight:normal;font-size:40px;line-height:1.25;font-family:sans-serif;letter-spacing:0px;word-spacing:0px;fill:#000000;fill-opacity:1;stroke:none"
       transform="scale(0.26458333)"><flowRegion
         id="flowRegion5169"><rect
           id="rect5171"
           width="315.71429"
           height="42.857143"
           x="70"
           y="1065.3768" /></flowRegion><flowPara
         id="flowPara5173">GBo</flowPara></flowRoot>    <text
       xml:space="preserve"
       style="font-style:normal;font-weight:normal;font-size:10.58333302px;line-height:1.25;font-family:sans-serif;letter-spacing:0px;word-spacing:0px;fill:#000000;fill-opacity:1;stroke:none;stroke-width:0.26458332"
       x="4.5357122"
       y="290.5744"
       id="text5177"><tspan
         sodipodi:role="line"
         id="tspan5175"
         x="4.5357122"
         y="290.5744"
         style="stroke-width:0.26458332">Bóton Cancelar</tspan></text>
    <text
       id="text5181"
       y="290.5744"
       x="130.0238"
       style="font-style:normal;font-weight:normal;font-size:10.58333302px;line-height:1.25;font-family:sans-serif;letter-spacing:0px;word-spacing:0px;fill:#000000;fill-opacity:1;stroke:none;stroke-width:0.26458332"
       xml:space="preserve"><tspan
         style="stroke-width:0.26458332"
         y="290.5744"
         x="130.0238"
         id="tspan5179"
         sodipodi:role="line">Bóton Guardar</tspan></text>
  </g>
</svg>
