<?xml version="1.0" encoding="UTF-8" standalone="no"?>
<!-- Created with Inkscape (http://www.inkscape.org/) -->

<svg
   xmlns:dc="http://purl.org/dc/elements/1.1/"
   xmlns:cc="http://creativecommons.org/ns#"
   xmlns:rdf="http://www.w3.org/1999/02/22-rdf-syntax-ns#"
   xmlns:svg="http://www.w3.org/2000/svg"
   xmlns="http://www.w3.org/2000/svg"
   xmlns:sodipodi="http://sodipodi.sourceforge.net/DTD/sodipodi-0.dtd"
   xmlns:inkscape="http://www.inkscape.org/namespaces/inkscape"
   width="151.3132mm"
   height="99.275169mm"
   viewBox="0 0 151.3132 99.275169"
   version="1.1"
   id="svg5875"
   inkscape:version="0.92.1 r15371"
   sodipodi:docname="eliminar-pagina.svg"
   inkscape:export-filename="/home/david/Documents/CursoProgramacion/nivel3/sesion3/imagenes/eliminar-pagina.png"
   inkscape:export-xdpi="95"
   inkscape:export-ydpi="95">
  <defs
     id="defs5869" />
  <sodipodi:namedview
     id="base"
     pagecolor="#ffffff"
     bordercolor="#666666"
     borderopacity="1.0"
     inkscape:pageopacity="0.0"
     inkscape:pageshadow="2"
     inkscape:zoom="0.24748737"
     inkscape:cx="773.9344"
     inkscape:cy="-302.98836"
     inkscape:document-units="mm"
     inkscape:current-layer="layer1"
     showgrid="false"
     fit-margin-right="10"
     fit-margin-top="10"
     fit-margin-left="10"
     fit-margin-bottom="10"
     inkscape:window-width="1366"
     inkscape:window-height="709"
     inkscape:window-x="0"
     inkscape:window-y="0"
     inkscape:window-maximized="1" />
  <metadata
     id="metadata5872">
    <rdf:RDF>
      <cc:Work
         rdf:about="">
        <dc:format>image/svg+xml</dc:format>
        <dc:type
           rdf:resource="http://purl.org/dc/dcmitype/StillImage" />
        <dc:title></dc:title>
      </cc:Work>
    </rdf:RDF>
  </metadata>
  <g
     inkscape:label="Capa 1"
     inkscape:groupmode="layer"
     id="layer1"
     transform="translate(-26.396969,-2.8806378)">
    <g
       id="g4514"
       inkscape:tile-cx="75.285544"
       inkscape:tile-cy="55.095237"
       inkscape:tile-w="131.3132"
       inkscape:tile-h="24.984227"
       inkscape:tile-x0="9.4305059"
       inkscape:tile-y0="42.603124"
       transform="translate(26.966463,-3.0238101)">
      <rect
         y="43"
         x="9.8273811"
         height="24.190477"
         width="48.380955"
         id="rect4485"
         style="opacity:1;fill:none;fill-opacity:1;stroke:#000000;stroke-width:0.79374999;stroke-miterlimit:4;stroke-dasharray:none;stroke-dashoffset:0;stroke-opacity:1" />
      <text
         id="text4489"
         y="52.476265"
         x="67.657738"
         style="font-style:normal;font-weight:normal;font-size:10.58333302px;line-height:1.25;font-family:sans-serif;letter-spacing:0px;word-spacing:0px;fill:#000000;fill-opacity:1;stroke:none;stroke-width:0.26458332"
         xml:space="preserve"><tspan
           style="stroke-width:0.26458332"
           y="52.476265"
           x="67.657738"
           id="tspan4487"
           sodipodi:role="line">título (enlace)</tspan></text>
      <text
         xml:space="preserve"
         style="font-style:normal;font-weight:normal;font-size:10.58333302px;line-height:1.25;font-family:sans-serif;letter-spacing:0px;word-spacing:0px;fill:#000000;fill-opacity:1;stroke:none;stroke-width:0.26458332"
         x="67.657738"
         y="63.567276"
         id="text4497"><tspan
           sodipodi:role="line"
           id="tspan4495"
           x="67.657738"
           y="63.567276"
           style="stroke-width:0.26458332">resumen</tspan></text>
    </g>
    <text
       xml:space="preserve"
       style="font-style:normal;font-weight:normal;font-size:10.58333302px;line-height:1.25;font-family:sans-serif;letter-spacing:0px;word-spacing:0px;fill:#000000;fill-opacity:1;stroke:none;stroke-width:0.26458332"
       x="67.279762"
       y="23.345238"
       id="text6438"><tspan
         sodipodi:role="line"
         id="tspan6436"
         x="67.279762"
         y="23.345238"
         style="stroke-width:0.26458332">Eliminar Página</tspan></text>
    <text
       id="text6442"
       y="86.845238"
       x="67.279762"
       style="font-style:normal;font-weight:normal;font-size:10.58333302px;line-height:1.25;font-family:sans-serif;letter-spacing:0px;word-spacing:0px;fill:#000000;fill-opacity:1;stroke:none;stroke-width:0.26458332"
       xml:space="preserve"><tspan
         style="stroke-width:0.26458332"
         y="86.845238"
         x="67.279762"
         id="tspan6440"
         sodipodi:role="line">Botón Eliminar</tspan></text>
    <rect
       style="opacity:1;fill:none;fill-opacity:1;stroke:#000000;stroke-width:0.79374999;stroke-miterlimit:4;stroke-dasharray:none;stroke-dashoffset:0;stroke-opacity:1"
       id="rect6444"
       width="89.58036"
       height="17.386906"
       x="62.36607"
       y="74.372025" />
  </g>
</svg>
