<?xml version="1.0" encoding="UTF-8" standalone="no"?>
<!-- Created with Inkscape (http://www.inkscape.org/) -->

<svg
   xmlns:dc="http://purl.org/dc/elements/1.1/"
   xmlns:cc="http://creativecommons.org/ns#"
   xmlns:rdf="http://www.w3.org/1999/02/22-rdf-syntax-ns#"
   xmlns:svg="http://www.w3.org/2000/svg"
   xmlns="http://www.w3.org/2000/svg"
   xmlns:sodipodi="http://sodipodi.sourceforge.net/DTD/sodipodi-0.dtd"
   xmlns:inkscape="http://www.inkscape.org/namespaces/inkscape"
   width="237.0585mm"
   height="148.02386mm"
   viewBox="0 0 237.05851 148.02386"
   version="1.1"
   id="svg1120"
   inkscape:export-filename="/home/david/Documentos/4libertades/jornadas/awk, poder en terminal/esquema_general.png"
   inkscape:export-xdpi="95"
   inkscape:export-ydpi="95"
   inkscape:version="0.92.1 r15371"
   sodipodi:docname="esquema_general.svg">
  <defs
     id="defs1114">
    <marker
       inkscape:stockid="Arrow1Mend"
       orient="auto"
       refY="0"
       refX="0"
       id="marker6697"
       style="overflow:visible"
       inkscape:isstock="true">
      <path
         id="path6695"
         d="M 0,0 5,-5 -12.5,0 5,5 Z"
         style="fill:#ff2c80;fill-opacity:1;fill-rule:evenodd;stroke:#ff2c80;stroke-width:1.00000003pt;stroke-opacity:1"
         transform="matrix(-0.4,0,0,-0.4,-4,0)"
         inkscape:connector-curvature="0" />
    </marker>
    <marker
       inkscape:stockid="Arrow1Mend"
       orient="auto"
       refY="0"
       refX="0"
       id="marker5143"
       style="overflow:visible"
       inkscape:isstock="true">
      <path
         id="path5141"
         d="M 0,0 5,-5 -12.5,0 5,5 Z"
         style="fill:#000000;fill-opacity:1;fill-rule:evenodd;stroke:#000000;stroke-width:1.00000003pt;stroke-opacity:1"
         transform="matrix(-0.4,0,0,-0.4,-4,0)"
         inkscape:connector-curvature="0" />
    </marker>
    <marker
       inkscape:isstock="true"
       style="overflow:visible"
       id="marker2209"
       refX="0"
       refY="0"
       orient="auto"
       inkscape:stockid="Arrow1Mend"
       inkscape:collect="always">
      <path
         transform="matrix(-0.4,0,0,-0.4,-4,0)"
         style="fill:#ff2c80;fill-opacity:1;fill-rule:evenodd;stroke:#ff2c80;stroke-width:1.00000003pt;stroke-opacity:1"
         d="M 0,0 5,-5 -12.5,0 5,5 Z"
         id="path2207"
         inkscape:connector-curvature="0" />
    </marker>
    <marker
       inkscape:stockid="Arrow1Mend"
       orient="auto"
       refY="0"
       refX="0"
       id="Arrow1Mend"
       style="overflow:visible"
       inkscape:isstock="true"
       inkscape:collect="always">
      <path
         id="path1680"
         d="M 0,0 5,-5 -12.5,0 5,5 Z"
         style="fill:#ff2c80;fill-opacity:1;fill-rule:evenodd;stroke:#ff2c80;stroke-width:1.00000003pt;stroke-opacity:1"
         transform="matrix(-0.4,0,0,-0.4,-4,0)"
         inkscape:connector-curvature="0" />
    </marker>
  </defs>
  <sodipodi:namedview
     id="base"
     pagecolor="#ffffff"
     bordercolor="#666666"
     borderopacity="1.0"
     inkscape:pageopacity="0.0"
     inkscape:pageshadow="2"
     inkscape:zoom="0.49497475"
     inkscape:cx="260.98364"
     inkscape:cy="347.5154"
     inkscape:document-units="mm"
     inkscape:current-layer="layer1"
     showgrid="false"
     units="mm"
     height="7.5in"
     fit-margin-top="5"
     fit-margin-left="5"
     fit-margin-right="5"
     fit-margin-bottom="5"
     inkscape:window-width="1366"
     inkscape:window-height="709"
     inkscape:window-x="0"
     inkscape:window-y="0"
     inkscape:window-maximized="1" />
  <metadata
     id="metadata1117">
    <rdf:RDF>
      <cc:Work
         rdf:about="">
        <dc:format>image/svg+xml</dc:format>
        <dc:type
           rdf:resource="http://purl.org/dc/dcmitype/StillImage" />
        <dc:title></dc:title>
      </cc:Work>
    </rdf:RDF>
  </metadata>
  <g
     inkscape:label="Capa 1"
     inkscape:groupmode="layer"
     id="layer1"
     transform="translate(-22.160574,-143.50928)">
    <text
       xml:space="preserve"
       style="font-style:normal;font-weight:normal;font-size:23.49866104px;line-height:1.25;font-family:sans-serif;letter-spacing:0px;word-spacing:0px;fill:#09a8ff;fill-opacity:1;stroke:none;stroke-width:1.18930209;stroke-miterlimit:4;stroke-dasharray:none"
       x="112.39646"
       y="223.53326"
       id="text1124"><tspan
         sodipodi:role="line"
         id="tspan1122"
         x="112.39646"
         y="223.53326"
         style="fill:#09a8ff;fill-opacity:1;stroke-width:1.18930209;stroke-miterlimit:4;stroke-dasharray:none">AWK</tspan></text>
    <path
       style="fill:none;stroke:#ff2c80;stroke-width:1.18930209;stroke-linecap:butt;stroke-linejoin:miter;stroke-miterlimit:4;stroke-dasharray:none;stroke-opacity:1;marker-end:url(#Arrow1Mend)"
       d="m 139.69062,199.74648 v -33.30154 -6.24736"
       id="path1669"
       inkscape:connector-curvature="0"
       sodipodi:nodetypes="ccc" />
    <path
       sodipodi:nodetypes="csc"
       inkscape:connector-curvature="0"
       id="path2205"
       d="m 50.705873,261.77709 c 0,0 15.587075,-4.36373 22.586606,-22.48879 6.703262,-17.3579 35.561891,-18.74209 35.561891,-18.74209"
       style="fill:none;stroke:#ff2c80;stroke-width:1.18930209;stroke-linecap:butt;stroke-linejoin:miter;stroke-miterlimit:4;stroke-dasharray:none;stroke-opacity:1;marker-end:url(#marker2209)" />
    <path
       style="fill:none;stroke:#ff2c80;stroke-width:1.18930209;stroke-linecap:butt;stroke-linejoin:miter;stroke-miterlimit:4;stroke-dasharray:none;stroke-opacity:1;marker-end:url(#marker6697)"
       d="m 226.9109,261.77709 c 0,0 -15.58707,-4.36373 -22.58661,-22.48879 -6.70326,-17.3579 -35.56189,-18.74209 -35.56189,-18.74209"
       id="path6693"
       inkscape:connector-curvature="0"
       sodipodi:nodetypes="csc" />
    <text
       xml:space="preserve"
       style="font-style:normal;font-weight:normal;font-size:9.51472282px;line-height:1.25;font-family:sans-serif;letter-spacing:0px;word-spacing:0px;fill:#008000;fill-opacity:1;stroke:none;stroke-width:1.18930209;stroke-miterlimit:4;stroke-dasharray:none"
       x="107.06871"
       y="257.51443"
       id="text7373"><tspan
         sodipodi:role="line"
         id="tspan7371"
         x="107.06871"
         y="257.51443"
         style="fill:#008000;stroke-width:1.18930209;stroke-miterlimit:4;stroke-dasharray:none">SUS FUENTES</tspan></text>
    <text
       id="text7377"
       y="181.39665"
       x="85.660583"
       style="font-style:normal;font-weight:normal;font-size:9.51472282px;line-height:1.25;font-family:sans-serif;letter-spacing:0px;word-spacing:0px;fill:#008000;fill-opacity:1;stroke:none;stroke-width:1.18930209;stroke-miterlimit:4;stroke-dasharray:none"
       xml:space="preserve"><tspan
         style="fill:#008000;stroke-width:1.18930209;stroke-miterlimit:4;stroke-dasharray:none"
         y="181.39665"
         x="85.660583"
         id="tspan7375"
         sodipodi:role="line">PRODUCE</tspan></text>
    <text
       xml:space="preserve"
       style="font-style:normal;font-weight:normal;font-size:9.51472282px;line-height:1.25;font-family:sans-serif;letter-spacing:0px;word-spacing:0px;fill:#ff7f2a;fill-opacity:1;stroke:none;stroke-width:1.18930209;stroke-miterlimit:4;stroke-dasharray:none"
       x="26.533382"
       y="274.505"
       id="text7381"><tspan
         sodipodi:role="line"
         id="tspan7379"
         x="26.533382"
         y="274.505"
         style="fill:#ff7f2a;stroke-width:1.18930209;stroke-miterlimit:4;stroke-dasharray:none">STREAM DE </tspan><tspan
         sodipodi:role="line"
         x="26.533382"
         y="286.39841"
         style="fill:#ff7f2a;stroke-width:1.18930209;stroke-miterlimit:4;stroke-dasharray:none"
         id="tspan7383">DATOS</tspan></text>
    <text
       id="text7389"
       y="274.505"
       x="205.61407"
       style="font-style:normal;font-weight:normal;font-size:9.51472282px;line-height:1.25;font-family:sans-serif;letter-spacing:0px;word-spacing:0px;fill:#ff7f2a;fill-opacity:1;stroke:none;stroke-width:1.18930209;stroke-miterlimit:4;stroke-dasharray:none"
       xml:space="preserve"><tspan
         id="tspan7387"
         style="fill:#ff7f2a;stroke-width:1.18930209;stroke-miterlimit:4;stroke-dasharray:none"
         y="274.505"
         x="205.61407"
         sodipodi:role="line">ARCHIVOS</tspan></text>
    <text
       xml:space="preserve"
       style="font-style:normal;font-weight:normal;font-size:9.51472282px;line-height:1.25;font-family:sans-serif;letter-spacing:0px;word-spacing:0px;fill:#ff7f2a;fill-opacity:1;stroke:none;stroke-width:1.18930209;stroke-miterlimit:4;stroke-dasharray:none"
       x="85.919998"
       y="155.57098"
       id="text7395"><tspan
         sodipodi:role="line"
         x="85.919998"
         y="155.57098"
         style="fill:#ff7f2a;stroke-width:1.18930209;stroke-miterlimit:4;stroke-dasharray:none"
         id="tspan7393">STREAMS o ARCHIVOS</tspan></text>
    <text
       xml:space="preserve"
       style="font-style:normal;font-weight:normal;font-size:9.51472282px;line-height:1.25;font-family:sans-serif;letter-spacing:0px;word-spacing:0px;fill:#000000;fill-opacity:1;stroke:none;stroke-width:1.18930209;stroke-miterlimit:4;stroke-dasharray:none"
       x="194.42719"
       y="155.91078"
       id="text7399"><tspan
         sodipodi:role="line"
         id="tspan7397"
         x="194.42719"
         y="155.91078"
         style="stroke-width:1.18930209;stroke-miterlimit:4;stroke-dasharray:none">(&gt;)</tspan></text>
    <text
       id="text7403"
       y="274.16519"
       x="87.359627"
       style="font-style:normal;font-weight:normal;font-size:9.51472282px;line-height:1.25;font-family:sans-serif;letter-spacing:0px;word-spacing:0px;fill:#000000;fill-opacity:1;stroke:none;stroke-width:1.18930209;stroke-miterlimit:4;stroke-dasharray:none"
       xml:space="preserve"><tspan
         style="stroke-width:1.18930209;stroke-miterlimit:4;stroke-dasharray:none"
         y="274.16519"
         x="87.359627"
         id="tspan7401"
         sodipodi:role="line">(|)</tspan></text>
    <text
       xml:space="preserve"
       style="font-style:normal;font-weight:normal;font-size:9.51472282px;line-height:1.25;font-family:sans-serif;letter-spacing:0px;word-spacing:0px;fill:#000000;fill-opacity:1;stroke:none;stroke-width:1.18930209;stroke-miterlimit:4;stroke-dasharray:none"
       x="87.359627"
       y="274.16519"
       id="text7407"><tspan
         sodipodi:role="line"
         id="tspan7405"
         x="87.359627"
         y="274.16519"
         style="stroke-width:1.18930209;stroke-miterlimit:4;stroke-dasharray:none">(|)</tspan></text>
  </g>
</svg>
