"Albania";"ALB"
"Algeria";"DZA"
"Andorra";"AND"
"Angola";"AGO"
"Antigua and Barbuda";"ATG"
"Armenia";"ARM"
"Australia";"AUS"
"Austria";"AUT"
"Azerbaijan";"AZE"
"Bahrain";"BHR"
"Bangladesh";"BGD"
"Barbados";"BRB"
"Belarus";"BLR"
"Belgium";"BEL"
"Belize";"BLZ"
"Benin";"BEN"
"Bhutan";"BTN"
"Bosnia and Herzegovina";"BIH"
"Botswana";"BWA"
"Brunei Darussalam";"BRN"
"Bulgaria";"BGR"
"Burkina Faso";"BFA"
"Burundi";"BDI"
"Cabo Verde";"CPV"
"Cambodia";"KHM"
"Chile";"CHL"
"China";"CHN"
"Colombia";"COL"
;
"Costa Rica";"CRI"
"Croatia";"HRV"
"Cuba";"CUB"
"Cyprus";"CYP"
"Denmark";"DNK"
"Djibouti";"DJI"
"Dominica";"DMA"
"El Salvador";"SLV"
"Equatorial Guinea";"GNQ"
"Eritrea";"ERI"
"Estonia";"EST"
"Ethiopia";"ETH"
"Fiji";"FJI"
"Finland";"FIN"
"France";"FRA"
"Gambia (the)";"GMB"
"Georgia";"GEO"
"Germany";"DEU"
"Ghana";"GHA"
"Greece";"GRC"
"Grenada";"GRD"
"Guatemala";"GTM"
"Guinea";"GIN"
"Guinea-Bissau";"GNB"
"Guyana";"GUY"
"Haiti";"HTI"
;
"Honduras";"HND"
"Hungary";"HUN"
"Iceland";"ISL"
"Indonesia";"IDN"
"Ireland";"IRL"
"Israel";"ISR"
"Italy";"ITA"
"Jamaica";"JAM"
"Jordan";"JOR"
"Kazakhstan";"KAZ"
"Kenya";"KEN"
"Kiribati";"KIR"
"Kuwait";"KWT"
"Kyrgyzstan";"KGZ"
"Latvia";"LVA"
"Lesotho";"LSO"
"Liberia";"LBR"
"Libya";"LBY"
"Liechtenstein";"LIE"
"Lithuania";"LTU"
"Luxembourg";"LUX"
"Madagascar";"MDG"
"Malawi";"MWI"
"Malaysia";"MYS"
"Maldives";"MDV"
"Mali";"MLI"
"Malta";"MLT"
"Mauritania";"MRT"
"Mauritius";"MUS"
"Mexico";"MEX"
"Micronesia (Federated States of)";"FSM"
"Monaco";"MCO"
"Mongolia";"MNG"
"Montenegro";"MNE"
"Morocco";"MAR"
"Mozambique";"MOZ"
"Myanmar";"MMR"
"Namibia";"NAM"
"Nauru";"NRU"
"Nepal";"NPL"
"New Zealand";"NZL"
"Nicaragua";"NIC"
"Nigeria";"NGA"
;
"Norway";"NOR"
"Oman";"OMN"
"Palau";"PLW"
"Panama";"PAN"
"Papua New Guinea";"PNG"
"Philippines (the)";"PHL"
"Poland";"POL"
"Portugal";"PRT"
"Qatar";"QAT"
"Romania";"ROU"
"Rwanda";"RWA"
"Saint Kitts and Nevis";"KNA"
"Saint Lucia";"LCA"
"Saint Vincent and the Grenadines";"VCT"
"Samoa";"WSM"
"San Marino";"SMR"
"Sao Tome and Principe";"STP"
"Serbia";"SRB"
"Seychelles";"SYC"
"Sierra Leone";"SLE"
"Singapore";"SGP"
"Slovenia";"SVN"
"Somalia";"SOM"
"South Africa";"ZAF"
"South Sudan";"SSD"
"Spain";"ESP"
"Sri Lanka";"LKA"
;
"Suriname";"SUR"
"Sweden";"SWE"
"Switzerland";"CHE"
"Tajikistan";"TJK"
"Thailand";"THA"
"Timor-Leste";"TLS"
"Tonga";"TON"
"Tunisia";"TUN"
"Turkey";"TUR"
"Turkmenistan";"TKM"
"Tuvalu";"TUV"
"Uganda";"UGA"
"Ukraine";"UKR"
"Uzbekistan";"UZB"
"Vanuatu";"VUT"
"Viet Nam";"VNM"
"Zambia";"ZMB"
"Zimbabwe";"ZWE"
;
"*Observer State";
"**Member of specialized agencies";
