<?xml version="1.0" encoding="UTF-8" standalone="no"?>
<!-- Created with Inkscape (http://www.inkscape.org/) -->

<svg
   xmlns:dc="http://purl.org/dc/elements/1.1/"
   xmlns:cc="http://creativecommons.org/ns#"
   xmlns:rdf="http://www.w3.org/1999/02/22-rdf-syntax-ns#"
   xmlns:svg="http://www.w3.org/2000/svg"
   xmlns="http://www.w3.org/2000/svg"
   xmlns:sodipodi="http://sodipodi.sourceforge.net/DTD/sodipodi-0.dtd"
   xmlns:inkscape="http://www.inkscape.org/namespaces/inkscape"
   width="575.6485"
   height="398.98828"
   viewBox="0 0 152.307 105.56565"
   version="1.1"
   id="svg8"
   inkscape:version="0.92.1 r15371"
   sodipodi:docname="engine.svg"
   inkscape:export-filename="/home/david/Documents/CursoProgramacion/nivel2/sesion7/engine.png"
   inkscape:export-xdpi="95"
   inkscape:export-ydpi="95">
  <defs
     id="defs2">
    <marker
       inkscape:isstock="true"
       style="overflow:visible"
       id="marker4858"
       refX="0"
       refY="0"
       orient="auto"
       inkscape:stockid="Arrow1Mend">
      <path
         transform="matrix(-0.4,0,0,-0.4,-4,0)"
         style="fill:#ff8900;fill-opacity:1;fill-rule:evenodd;stroke:#ff8900;stroke-width:1.00000003pt;stroke-opacity:1"
         d="M 0,0 5,-5 -12.5,0 5,5 Z"
         id="path4856"
         inkscape:connector-curvature="0" />
    </marker>
    <marker
       inkscape:stockid="Arrow1Mend"
       orient="auto"
       refY="0"
       refX="0"
       id="Arrow1Mend"
       style="overflow:visible"
       inkscape:isstock="true"
       inkscape:collect="always">
      <path
         id="path4583"
         d="M 0,0 5,-5 -12.5,0 5,5 Z"
         style="fill:#ff8900;fill-opacity:1;fill-rule:evenodd;stroke:#ff8900;stroke-width:1.00000003pt;stroke-opacity:1"
         transform="matrix(-0.4,0,0,-0.4,-4,0)"
         inkscape:connector-curvature="0" />
    </marker>
  </defs>
  <sodipodi:namedview
     id="base"
     pagecolor="#ffffff"
     bordercolor="#666666"
     borderopacity="1.0"
     inkscape:pageopacity="0.0"
     inkscape:pageshadow="2"
     inkscape:zoom="0.49497475"
     inkscape:cx="222.47726"
     inkscape:cy="301.56222"
     inkscape:document-units="mm"
     inkscape:current-layer="layer1"
     showgrid="false"
     fit-margin-top="5"
     fit-margin-left="5"
     fit-margin-bottom="5"
     fit-margin-right="5"
     units="px"
     inkscape:window-width="1366"
     inkscape:window-height="709"
     inkscape:window-x="0"
     inkscape:window-y="0"
     inkscape:window-maximized="1" />
  <metadata
     id="metadata5">
    <rdf:RDF>
      <cc:Work
         rdf:about="">
        <dc:format>image/svg+xml</dc:format>
        <dc:type
           rdf:resource="http://purl.org/dc/dcmitype/StillImage" />
        <dc:title></dc:title>
      </cc:Work>
    </rdf:RDF>
  </metadata>
  <g
     inkscape:label="Capa 1"
     inkscape:groupmode="layer"
     id="layer1"
     transform="translate(-26.278044,-101.30519)">
    <rect
       style="opacity:1;fill:none;fill-opacity:1;stroke:#000000;stroke-width:0.65792722;stroke-miterlimit:4;stroke-dasharray:none;stroke-dashoffset:0;stroke-opacity:1"
       id="rect4520"
       width="149.00323"
       height="102.26189"
       x="27.929924"
       y="102.95707" />
    <rect
       style="opacity:1;fill:none;fill-opacity:1;stroke:#f30000;stroke-width:0.79374999;stroke-miterlimit:4;stroke-dasharray:none;stroke-dashoffset:0;stroke-opacity:1"
       id="rect4524"
       width="32.479195"
       height="32.479195"
       x="39.419781"
       y="128.64302" />
    <rect
       y="128.64302"
       x="87.528297"
       height="32.479195"
       width="32.479195"
       id="rect4526"
       style="opacity:1;fill:none;fill-opacity:1;stroke:#f30000;stroke-width:0.79374999;stroke-miterlimit:4;stroke-dasharray:none;stroke-dashoffset:0;stroke-opacity:1" />
    <rect
       style="opacity:1;fill:none;fill-opacity:1;stroke:#f30000;stroke-width:0.79374999;stroke-miterlimit:4;stroke-dasharray:none;stroke-dashoffset:0;stroke-opacity:1"
       id="rect4528"
       width="32.479195"
       height="32.479195"
       x="136.17136"
       y="128.64302" />
    <rect
       y="172.82587"
       x="39.235889"
       height="9.32726"
       width="32.571629"
       id="rect4530"
       style="opacity:1;fill:none;fill-opacity:1;stroke:#0025ff;stroke-width:0.79374999;stroke-miterlimit:4;stroke-dasharray:none;stroke-dashoffset:0;stroke-opacity:1" />
    <rect
       style="opacity:1;fill:none;fill-opacity:1;stroke:#0025ff;stroke-width:0.79374999;stroke-miterlimit:4;stroke-dasharray:none;stroke-dashoffset:0;stroke-opacity:1"
       id="rect4532"
       width="32.571629"
       height="9.32726"
       x="87.103348"
       y="172.82587" />
    <rect
       y="172.82587"
       x="136.26282"
       height="9.32726"
       width="32.571629"
       id="rect4534"
       style="opacity:1;fill:none;fill-opacity:1;stroke:#0025ff;stroke-width:0.79374999;stroke-miterlimit:4;stroke-dasharray:none;stroke-dashoffset:0;stroke-opacity:1" />
    <text
       xml:space="preserve"
       style="font-style:normal;font-variant:normal;font-weight:normal;font-stretch:normal;font-size:7.05555534px;line-height:1.25;font-family:sans-serif;-inkscape-font-specification:'sans-serif, Normal';font-variant-ligatures:normal;font-variant-caps:normal;font-variant-numeric:normal;font-feature-settings:normal;text-align:start;letter-spacing:0px;word-spacing:0px;writing-mode:lr-tb;text-anchor:start;fill:#000000;fill-opacity:1;stroke:none;stroke-width:0.26458332"
       x="45.143997"
       y="149.88873"
       id="text4538"><tspan
         sodipodi:role="line"
         id="tspan4536"
         x="45.143997"
         y="149.88873"
         style="font-style:normal;font-variant:normal;font-weight:normal;font-stretch:normal;font-size:7.05555534px;font-family:sans-serif;-inkscape-font-specification:'sans-serif, Normal';font-variant-ligatures:normal;font-variant-caps:normal;font-variant-numeric:normal;font-feature-settings:normal;text-align:start;writing-mode:lr-tb;text-anchor:start;stroke-width:0.26458332">Suma</tspan></text>
    <text
       id="text4542"
       y="149.88873"
       x="93.792213"
       style="font-style:normal;font-variant:normal;font-weight:normal;font-stretch:normal;font-size:7.05555534px;line-height:1.25;font-family:sans-serif;-inkscape-font-specification:'sans-serif, Normal';font-variant-ligatures:normal;font-variant-caps:normal;font-variant-numeric:normal;font-feature-settings:normal;text-align:start;letter-spacing:0px;word-spacing:0px;writing-mode:lr-tb;text-anchor:start;fill:#000000;fill-opacity:1;stroke:none;stroke-width:0.26458332"
       xml:space="preserve"><tspan
         style="font-style:normal;font-variant:normal;font-weight:normal;font-stretch:normal;font-size:7.05555534px;font-family:sans-serif;-inkscape-font-specification:'sans-serif, Normal';font-variant-ligatures:normal;font-variant-caps:normal;font-variant-numeric:normal;font-feature-settings:normal;text-align:start;writing-mode:lr-tb;text-anchor:start;stroke-width:0.26458332"
         y="149.88873"
         x="93.792213"
         id="tspan4540"
         sodipodi:role="line">Resta</tspan></text>
    <text
       xml:space="preserve"
       style="font-style:normal;font-variant:normal;font-weight:normal;font-stretch:normal;font-size:7.05555534px;line-height:1.25;font-family:sans-serif;-inkscape-font-specification:'sans-serif, Normal';font-variant-ligatures:normal;font-variant-caps:normal;font-variant-numeric:normal;font-feature-settings:normal;text-align:start;letter-spacing:0px;word-spacing:0px;writing-mode:lr-tb;text-anchor:start;fill:#000000;fill-opacity:1;stroke:none;stroke-width:0.19267476"
       x="138.0813"
       y="149.19887"
       id="text4546"><tspan
         sodipodi:role="line"
         id="tspan4544"
         x="138.0813"
         y="149.19887"
         style="font-style:normal;font-variant:normal;font-weight:normal;font-stretch:normal;font-size:7.05555534px;font-family:sans-serif;-inkscape-font-specification:'sans-serif, Normal';font-variant-ligatures:normal;font-variant-caps:normal;font-variant-numeric:normal;font-feature-settings:normal;text-align:start;writing-mode:lr-tb;text-anchor:start;stroke-width:0.19267476">Seno(x)</tspan></text>
    <rect
       style="opacity:1;fill:#39d400;fill-opacity:1;stroke:none;stroke-width:0.79374999;stroke-miterlimit:4;stroke-dasharray:none;stroke-dashoffset:0;stroke-opacity:1"
       id="rect4552"
       width="8.6962938"
       height="9.32726"
       x="148.20049"
       y="162.16226" />
    <rect
       y="162.16226"
       x="98.354721"
       height="9.32726"
       width="8.6962938"
       id="rect4554"
       style="opacity:1;fill:#39d400;fill-opacity:1;stroke:none;stroke-width:0.79374999;stroke-miterlimit:4;stroke-dasharray:none;stroke-dashoffset:0;stroke-opacity:1" />
    <rect
       style="opacity:1;fill:#39d400;fill-opacity:1;stroke:none;stroke-width:0.79374999;stroke-miterlimit:4;stroke-dasharray:none;stroke-dashoffset:0;stroke-opacity:1"
       id="rect4556"
       width="8.6962938"
       height="9.32726"
       x="50.780746"
       y="162.16226" />
    <text
       xml:space="preserve"
       style="font-style:normal;font-weight:normal;font-size:5.56054974px;line-height:1.25;font-family:sans-serif;letter-spacing:0px;word-spacing:0px;fill:#000000;fill-opacity:1;stroke:none;stroke-width:0.13901374"
       x="41.28265"
       y="179.33153"
       id="text4560"><tspan
         sodipodi:role="line"
         id="tspan4558"
         x="41.28265"
         y="179.33153"
         style="stroke-width:0.13901374">suma-task</tspan></text>
    <text
       id="text4564"
       y="179.33153"
       x="89.474617"
       style="font-style:normal;font-weight:normal;font-size:5.56054974px;line-height:1.25;font-family:sans-serif;letter-spacing:0px;word-spacing:0px;fill:#000000;fill-opacity:1;stroke:none;stroke-width:0.13901374"
       xml:space="preserve"><tspan
         style="stroke-width:0.13901374"
         y="179.33153"
         x="89.474617"
         id="tspan4562"
         sodipodi:role="line">resta-task</tspan></text>
    <text
       xml:space="preserve"
       style="font-style:normal;font-weight:normal;font-size:5.56054974px;line-height:1.25;font-family:sans-serif;letter-spacing:0px;word-spacing:0px;fill:#000000;fill-opacity:1;stroke:none;stroke-width:0.13901374"
       x="138.9895"
       y="179.33153"
       id="text4568"><tspan
         sodipodi:role="line"
         id="tspan4566"
         x="138.9895"
         y="179.33153"
         style="stroke-width:0.13901374">seno-task</tspan></text>
    <path
       style="fill:none;stroke:#ff8900;stroke-width:0.5291667;stroke-linecap:butt;stroke-linejoin:miter;stroke-miterlimit:4;stroke-dasharray:none;stroke-opacity:1;marker-end:url(#marker4858)"
       d="m 54.790252,182.34137 v 16.30344 h 24.054257 v -89.26802 h 65.731381 v 18.66785"
       id="path4570"
       inkscape:connector-curvature="0" />
    <path
       style="fill:none;stroke:#ff8900;stroke-width:0.5291667;stroke-linecap:butt;stroke-linejoin:miter;stroke-miterlimit:4;stroke-dasharray:none;stroke-opacity:1;marker-end:url(#Arrow1Mend)"
       d="m 102.62053,182.47321 v 17.00893 h 24.19048 v -79.94196 h 14.93006 v 8.12648"
       id="path4572"
       inkscape:connector-curvature="0" />
    <text
       id="text4920"
       y="116.39915"
       x="48.96513"
       style="font-style:normal;font-weight:normal;font-size:5.40319443px;line-height:1.25;font-family:sans-serif;letter-spacing:0px;word-spacing:0px;fill:#000000;fill-opacity:1;stroke:none;stroke-width:0.13507986"
       xml:space="preserve"><tspan
         style="stroke-width:0.13507986"
         y="116.39915"
         x="48.96513"
         id="tspan4918"
         sodipodi:role="line">cola-suma</tspan></text>
    <text
       xml:space="preserve"
       style="font-style:normal;font-weight:normal;font-size:5.40319443px;line-height:1.25;font-family:sans-serif;letter-spacing:0px;word-spacing:0px;fill:#000000;fill-opacity:1;stroke:none;stroke-width:0.13507986"
       x="105.359"
       y="116.39915"
       id="text4930"><tspan
         sodipodi:role="line"
         id="tspan4928"
         x="105.359"
         y="116.39915"
         style="stroke-width:0.13507986">cola-resta</tspan></text>
  </g>
</svg>
