<?xml version="1.0" encoding="UTF-8" standalone="no"?>
<!-- Created with Inkscape (http://www.inkscape.org/) -->

<svg
   xmlns:dc="http://purl.org/dc/elements/1.1/"
   xmlns:cc="http://creativecommons.org/ns#"
   xmlns:rdf="http://www.w3.org/1999/02/22-rdf-syntax-ns#"
   xmlns:svg="http://www.w3.org/2000/svg"
   xmlns="http://www.w3.org/2000/svg"
   xmlns:sodipodi="http://sodipodi.sourceforge.net/DTD/sodipodi-0.dtd"
   xmlns:inkscape="http://www.inkscape.org/namespaces/inkscape"
   width="262.71973mm"
   height="160.70766mm"
   viewBox="0 0 262.71973 160.70766"
   version="1.1"
   id="svg4921"
   inkscape:version="0.92.1 r15371"
   sodipodi:docname="grupo_tareas_sicnrono.svg"
   inkscape:export-filename="/home/david/Documents/CursoProgramacion/nivel2/sesion7/grupo_tareas_sicnrono.png"
   inkscape:export-xdpi="95"
   inkscape:export-ydpi="95">
  <defs
     id="defs4915">
    <marker
       inkscape:stockid="Arrow1Mstart"
       orient="auto"
       refY="0"
       refX="0"
       id="Arrow1Mstart"
       style="overflow:visible"
       inkscape:isstock="true">
      <path
         id="path4517"
         d="M 0,0 5,-5 -12.5,0 5,5 Z"
         style="fill:#000000;fill-opacity:1;fill-rule:evenodd;stroke:#000000;stroke-width:1.00000003pt;stroke-opacity:1"
         transform="matrix(0.4,0,0,0.4,4,0)"
         inkscape:connector-curvature="0" />
    </marker>
    <marker
       inkscape:stockid="Arrow1Mend"
       orient="auto"
       refY="0"
       refX="0"
       id="Arrow1Mend"
       style="overflow:visible"
       inkscape:isstock="true">
      <path
         id="path4520"
         d="M 0,0 5,-5 -12.5,0 5,5 Z"
         style="fill:#000000;fill-opacity:1;fill-rule:evenodd;stroke:#000000;stroke-width:1.00000003pt;stroke-opacity:1"
         transform="matrix(-0.4,0,0,-0.4,-4,0)"
         inkscape:connector-curvature="0" />
    </marker>
  </defs>
  <sodipodi:namedview
     id="base"
     pagecolor="#ffffff"
     bordercolor="#666666"
     borderopacity="1.0"
     inkscape:pageopacity="0.0"
     inkscape:pageshadow="2"
     inkscape:zoom="0.49497475"
     inkscape:cx="617.43276"
     inkscape:cy="116.94846"
     inkscape:document-units="pc"
     inkscape:current-layer="layer1"
     showgrid="false"
     units="mm"
     fit-margin-top="5"
     fit-margin-left="5"
     fit-margin-bottom="5"
     fit-margin-right="5"
     inkscape:window-width="1366"
     inkscape:window-height="709"
     inkscape:window-x="0"
     inkscape:window-y="0"
     inkscape:window-maximized="1" />
  <metadata
     id="metadata4918">
    <rdf:RDF>
      <cc:Work
         rdf:about="">
        <dc:format>image/svg+xml</dc:format>
        <dc:type
           rdf:resource="http://purl.org/dc/dcmitype/StillImage" />
        <dc:title></dc:title>
      </cc:Work>
    </rdf:RDF>
  </metadata>
  <g
     inkscape:label="Capa 1"
     inkscape:groupmode="layer"
     id="layer1"
     transform="translate(-15.294902,-115.34855)">
    <rect
       style="opacity:0.33600003;fill:#0000ff;fill-opacity:1;stroke:none;stroke-width:0.06768273;stroke-miterlimit:4;stroke-dasharray:none;stroke-dashoffset:0;stroke-opacity:1"
       id="rect4485"
       width="15.236137"
       height="4.961875"
       x="35.336063"
       y="121.08183"
       ry="0" />
    <rect
       ry="0"
       y="129.39615"
       x="35.346619"
       height="4.9407682"
       width="9.5453835"
       id="rect4487"
       style="opacity:0.33600003;fill:#0000ff;fill-opacity:1;stroke:none;stroke-width:0.05345784;stroke-miterlimit:4;stroke-dasharray:none;stroke-dashoffset:0;stroke-opacity:1" />
    <rect
       style="opacity:0.33600003;fill:#0000ff;fill-opacity:1;stroke:none;stroke-width:0.09544288;stroke-miterlimit:4;stroke-dasharray:none;stroke-dashoffset:0;stroke-opacity:1"
       id="rect4489"
       width="30.184727"
       height="4.9804082"
       x="35.326797"
       y="137.68011"
       ry="0" />
    <rect
       ry="0"
       y="146.01488"
       x="35.357822"
       height="4.9183574"
       width="10.032562"
       id="rect4491"
       style="opacity:0.33600003;fill:#0000ff;fill-opacity:1;stroke:none;stroke-width:0.05468062;stroke-miterlimit:4;stroke-dasharray:none;stroke-dashoffset:0;stroke-opacity:1" />
    <text
       xml:space="preserve"
       style="font-style:normal;font-weight:normal;font-size:5.08620739px;line-height:1.25;font-family:sans-serif;letter-spacing:0px;word-spacing:0px;fill:#000000;fill-opacity:1;stroke:none;stroke-width:0.12715518"
       x="20.309803"
       y="124.12347"
       id="text4495"><tspan
         sodipodi:role="line"
         id="tspan4493"
         x="20.309803"
         y="124.12347"
         style="stroke-width:0.12715518">T0</tspan></text>
    <text
       id="text4499"
       y="133.47838"
       x="20.309803"
       style="font-style:normal;font-weight:normal;font-size:5.08620739px;line-height:1.25;font-family:sans-serif;letter-spacing:0px;word-spacing:0px;fill:#000000;fill-opacity:1;stroke:none;stroke-width:0.12715518"
       xml:space="preserve"><tspan
         style="stroke-width:0.12715518"
         y="133.47838"
         x="20.309803"
         id="tspan4497"
         sodipodi:role="line">T1</tspan></text>
    <text
       xml:space="preserve"
       style="font-style:normal;font-weight:normal;font-size:5.08620739px;line-height:1.25;font-family:sans-serif;letter-spacing:0px;word-spacing:0px;fill:#000000;fill-opacity:1;stroke:none;stroke-width:0.12715518"
       x="20.309803"
       y="141.51039"
       id="text4503"><tspan
         sodipodi:role="line"
         id="tspan4501"
         x="20.309803"
         y="141.51039"
         style="stroke-width:0.12715518">T2</tspan></text>
    <text
       id="text4507"
       y="150.29832"
       x="20.309803"
       style="font-style:normal;font-weight:normal;font-size:5.08620739px;line-height:1.25;font-family:sans-serif;letter-spacing:0px;word-spacing:0px;fill:#000000;fill-opacity:1;stroke:none;stroke-width:0.12715518"
       xml:space="preserve"><tspan
         style="stroke-width:0.12715518"
         y="150.29832"
         x="20.309803"
         id="tspan4505"
         sodipodi:role="line">T3</tspan></text>
    <path
       style="fill:none;stroke:#000000;stroke-width:0.26499999;stroke-linecap:butt;stroke-linejoin:miter;stroke-miterlimit:4;stroke-dasharray:none;stroke-opacity:1;marker-start:url(#Arrow1Mstart);marker-end:url(#Arrow1Mend)"
       d="m 30.066186,166.05863 v 94.61341 H 257.77982"
       id="path4509"
       inkscape:connector-curvature="0" />
    <text
       xml:space="preserve"
       style="font-style:normal;font-weight:normal;font-size:5.92010927px;line-height:1.25;font-family:sans-serif;letter-spacing:0px;word-spacing:0px;fill:#000000;fill-opacity:1;stroke:none;stroke-width:0.14800271"
       x="263.48984"
       y="270.27573"
       id="text4827"><tspan
         sodipodi:role="line"
         id="tspan4825"
         x="263.48984"
         y="270.27573"
         style="stroke-width:0.14800271">t[s]</tspan></text>
    <text
       id="text4831"
       y="186.66454"
       x="20.309803"
       style="font-style:normal;font-weight:normal;font-size:5.08620739px;line-height:1.25;font-family:sans-serif;letter-spacing:0px;word-spacing:0px;fill:#000000;fill-opacity:1;stroke:none;stroke-width:0.12715518"
       xml:space="preserve"><tspan
         style="stroke-width:0.12715518"
         y="186.66454"
         x="20.309803"
         id="tspan4829"
         sodipodi:role="line">T0</tspan></text>
    <text
       xml:space="preserve"
       style="font-style:normal;font-weight:normal;font-size:5.08620739px;line-height:1.25;font-family:sans-serif;letter-spacing:0px;word-spacing:0px;fill:#000000;fill-opacity:1;stroke:none;stroke-width:0.12715518"
       x="20.309803"
       y="208.22092"
       id="text4835"><tspan
         sodipodi:role="line"
         id="tspan4833"
         x="20.309803"
         y="208.22092"
         style="stroke-width:0.12715518">T1</tspan></text>
    <text
       id="text4839"
       y="229.80832"
       x="20.309803"
       style="font-style:normal;font-weight:normal;font-size:5.08620739px;line-height:1.25;font-family:sans-serif;letter-spacing:0px;word-spacing:0px;fill:#000000;fill-opacity:1;stroke:none;stroke-width:0.12715518"
       xml:space="preserve"><tspan
         style="stroke-width:0.12715518"
         y="229.80832"
         x="20.309803"
         id="tspan4837"
         sodipodi:role="line">T2</tspan></text>
    <text
       xml:space="preserve"
       style="font-style:normal;font-weight:normal;font-size:5.08620739px;line-height:1.25;font-family:sans-serif;letter-spacing:0px;word-spacing:0px;fill:#000000;fill-opacity:1;stroke:none;stroke-width:0.12715518"
       x="20.309803"
       y="251.3262"
       id="text4843"><tspan
         sodipodi:role="line"
         id="tspan4841"
         x="20.309803"
         y="251.3262"
         style="stroke-width:0.12715518">T3</tspan></text>
    <path
       style="fill:none;stroke:#000000;stroke-width:0.26458332;stroke-linecap:butt;stroke-linejoin:miter;stroke-miterlimit:4;stroke-dasharray:0.26458332, 1.05833328;stroke-dashoffset:0;stroke-opacity:1"
       d="M 26.858952,185.03476 H 256.71074"
       id="path4845"
       inkscape:connector-curvature="0" />
    <path
       inkscape:connector-curvature="0"
       id="path4847"
       d="M 26.858952,206.95738 H 256.71074"
       style="fill:none;stroke:#000000;stroke-width:0.26458332;stroke-linecap:butt;stroke-linejoin:miter;stroke-miterlimit:4;stroke-dasharray:0.26458332, 1.05833328;stroke-dashoffset:0;stroke-opacity:1" />
    <path
       style="fill:none;stroke:#000000;stroke-width:0.26458332;stroke-linecap:butt;stroke-linejoin:miter;stroke-miterlimit:4;stroke-dasharray:0.26458332, 1.05833328;stroke-dashoffset:0;stroke-opacity:1"
       d="M 26.858952,228.50202 H 256.71074"
       id="path4849"
       inkscape:connector-curvature="0" />
    <path
       inkscape:connector-curvature="0"
       id="path4851"
       d="M 26.858952,250.04666 H 256.71074"
       style="fill:none;stroke:#000000;stroke-width:0.26458332;stroke-linecap:butt;stroke-linejoin:miter;stroke-miterlimit:4;stroke-dasharray:0.26458332, 1.05833328;stroke-dashoffset:0;stroke-opacity:1" />
    <rect
       ry="0"
       y="180.09732"
       x="30.535767"
       height="4.9407682"
       width="4.8108511"
       id="rect4855"
       style="opacity:0.33600003;fill:#008000;fill-opacity:1;stroke:none;stroke-width:0.03795121;stroke-miterlimit:4;stroke-dasharray:none;stroke-dashoffset:0;stroke-opacity:1" />
    <rect
       style="opacity:0.33600003;fill:#008000;fill-opacity:1;stroke:none;stroke-width:0.10602972;stroke-miterlimit:4;stroke-dasharray:none;stroke-dashoffset:0;stroke-opacity:1"
       id="rect4865"
       width="37.551373"
       height="4.9407682"
       x="35.311768"
       y="157.0663"
       ry="0" />
    <text
       xml:space="preserve"
       style="font-style:normal;font-weight:normal;font-size:5.08620739px;line-height:1.25;font-family:sans-serif;letter-spacing:0px;word-spacing:0px;fill:#000000;fill-opacity:1;stroke:none;stroke-width:0.12715518"
       x="76.061295"
       y="161.07065"
       id="text4869"><tspan
         sodipodi:role="line"
         id="tspan4867"
         x="76.061295"
         y="161.07065"
         style="stroke-width:0.12715518">Tiempo de espera desde que sucede evento</tspan></text>
    <rect
       ry="0"
       y="180.08676"
       x="35.336063"
       height="4.961875"
       width="15.236137"
       id="rect5616"
       style="opacity:0.33600003;fill:#0000ff;fill-opacity:1;stroke:none;stroke-width:0.06768273;stroke-miterlimit:4;stroke-dasharray:none;stroke-dashoffset:0;stroke-opacity:1" />
    <rect
       ry="0"
       y="223.10274"
       x="45.721142"
       height="4.9804082"
       width="27.779301"
       id="rect5618"
       style="opacity:0.33600003;fill:#008000;fill-opacity:1;stroke:none;stroke-width:0.09156101;stroke-miterlimit:4;stroke-dasharray:none;stroke-dashoffset:0;stroke-opacity:1" />
    <rect
       style="opacity:0.33600003;fill:#0000ff;fill-opacity:1;stroke:none;stroke-width:0.05468062;stroke-miterlimit:4;stroke-dasharray:none;stroke-dashoffset:0;stroke-opacity:1"
       id="rect5620"
       width="10.032562"
       height="4.9183574"
       x="104.57467"
       y="244.66666"
       ry="0" />
    <rect
       style="opacity:0.33600003;fill:#0000ff;fill-opacity:1;stroke:none;stroke-width:0.09544288;stroke-miterlimit:4;stroke-dasharray:none;stroke-dashoffset:0;stroke-opacity:1"
       id="rect5622"
       width="30.184727"
       height="4.9804082"
       x="73.500443"
       y="223.10274"
       ry="0" />
    <rect
       style="opacity:0.33600003;fill:#0000ff;fill-opacity:1;stroke:none;stroke-width:0.05345784;stroke-miterlimit:4;stroke-dasharray:none;stroke-dashoffset:0;stroke-opacity:1"
       id="rect5624"
       width="9.5453835"
       height="4.9407682"
       x="63.944458"
       y="201.82619"
       ry="0" />
    <rect
       ry="0"
       y="201.82619"
       x="50.122768"
       height="4.9407682"
       width="13.821696"
       id="rect5626"
       style="opacity:0.33600003;fill:#008000;fill-opacity:1;stroke:none;stroke-width:0.06432731;stroke-miterlimit:4;stroke-dasharray:none;stroke-dashoffset:0;stroke-opacity:1" />
    <rect
       ry="0"
       y="244.66666"
       x="63.075588"
       height="4.9183574"
       width="41.499081"
       id="rect5628"
       style="opacity:0.33600003;fill:#008000;fill-opacity:1;stroke:none;stroke-width:0.11121074;stroke-miterlimit:4;stroke-dasharray:none;stroke-dashoffset:0;stroke-opacity:1" />
    <rect
       style="opacity:0.33600003;fill:#008000;fill-opacity:1;stroke:none;stroke-width:0.03795121;stroke-miterlimit:4;stroke-dasharray:none;stroke-dashoffset:0;stroke-opacity:1"
       id="rect5918"
       width="4.8108511"
       height="4.9407682"
       x="114.44649"
       y="180.09732"
       ry="0" />
    <rect
       style="opacity:0.33600003;fill:#0000ff;fill-opacity:1;stroke:none;stroke-width:0.06768273;stroke-miterlimit:4;stroke-dasharray:none;stroke-dashoffset:0;stroke-opacity:1"
       id="rect5920"
       width="15.236137"
       height="4.961875"
       x="119.24679"
       y="180.08676"
       ry="0" />
    <rect
       style="opacity:0.33600003;fill:#008000;fill-opacity:1;stroke:none;stroke-width:0.09156101;stroke-miterlimit:4;stroke-dasharray:none;stroke-dashoffset:0;stroke-opacity:1"
       id="rect5922"
       width="27.779301"
       height="4.9804082"
       x="117.34763"
       y="223.10274"
       ry="0" />
    <rect
       ry="0"
       y="244.66666"
       x="176.57913"
       height="4.9183574"
       width="10.032562"
       id="rect5924"
       style="opacity:0.33600003;fill:#0000ff;fill-opacity:1;stroke:none;stroke-width:0.05468062;stroke-miterlimit:4;stroke-dasharray:none;stroke-dashoffset:0;stroke-opacity:1" />
    <rect
       ry="0"
       y="223.10274"
       x="145.12694"
       height="4.9804082"
       width="30.184727"
       id="rect5926"
       style="opacity:0.33600003;fill:#0000ff;fill-opacity:1;stroke:none;stroke-width:0.09544288;stroke-miterlimit:4;stroke-dasharray:none;stroke-dashoffset:0;stroke-opacity:1" />
    <rect
       ry="0"
       y="201.82619"
       x="135.38196"
       height="4.9407682"
       width="9.5453835"
       id="rect5928"
       style="opacity:0.33600003;fill:#0000ff;fill-opacity:1;stroke:none;stroke-width:0.05345784;stroke-miterlimit:4;stroke-dasharray:none;stroke-dashoffset:0;stroke-opacity:1" />
    <rect
       style="opacity:0.33600003;fill:#008000;fill-opacity:1;stroke:none;stroke-width:0.09488884;stroke-miterlimit:4;stroke-dasharray:none;stroke-dashoffset:0;stroke-opacity:1"
       id="rect5930"
       width="30.074671"
       height="4.9407682"
       x="105.30729"
       y="201.82619"
       ry="0" />
    <rect
       style="opacity:0.33600003;fill:#008000;fill-opacity:1;stroke:none;stroke-width:0.11121074;stroke-miterlimit:4;stroke-dasharray:none;stroke-dashoffset:0;stroke-opacity:1"
       id="rect5932"
       width="41.499081"
       height="4.9183574"
       x="135.08005"
       y="244.66666"
       ry="0" />
    <path
       style="fill:none;stroke:#000000;stroke-width:0.26246666;stroke-linecap:butt;stroke-linejoin:miter;stroke-opacity:1;stroke-miterlimit:4;stroke-dasharray:0.26246666,1.04986666;stroke-dashoffset:0"
       d="M 114.32466,256.59044 V 173.62467"
       id="path5934"
       inkscape:connector-curvature="0" />
    <path
       inkscape:connector-curvature="0"
       id="path5936"
       d="M 186.7071,256.59044 V 173.62467"
       style="fill:none;stroke:#000000;stroke-width:0.26246666;stroke-linecap:butt;stroke-linejoin:miter;stroke-opacity:1;stroke-miterlimit:4;stroke-dasharray:0.26246666,1.04986666;stroke-dashoffset:0" />
    <rect
       style="opacity:0.33600003;fill:#0000ff;fill-opacity:1;stroke:none;stroke-width:0.05468062;stroke-miterlimit:4;stroke-dasharray:none;stroke-dashoffset:0;stroke-opacity:1"
       id="rect5938"
       width="10.032562"
       height="4.9183574"
       x="240.77298"
       y="244.66666"
       ry="0" />
    <rect
       ry="0"
       y="244.66666"
       x="199.2739"
       height="4.9183574"
       width="41.499081"
       id="rect5940"
       style="opacity:0.33600003;fill:#008000;fill-opacity:1;stroke:none;stroke-width:0.11121074;stroke-miterlimit:4;stroke-dasharray:none;stroke-dashoffset:0;stroke-opacity:1" />
    <rect
       ry="0"
       y="180.08676"
       x="186.59871"
       height="4.961875"
       width="15.236137"
       id="rect5942"
       style="opacity:0.33600003;fill:#0000ff;fill-opacity:1;stroke:none;stroke-width:0.06768273;stroke-miterlimit:4;stroke-dasharray:none;stroke-dashoffset:0;stroke-opacity:1" />
    <rect
       style="opacity:0.33600003;fill:#008000;fill-opacity:1;stroke:none;stroke-width:0.08680834;stroke-miterlimit:4;stroke-dasharray:none;stroke-dashoffset:0;stroke-opacity:1"
       id="rect5944"
       width="25.063519"
       height="4.961875"
       x="161.5352"
       y="180.08676"
       ry="0" />
    <rect
       style="opacity:0.33600003;fill:#0000ff;fill-opacity:1;stroke:none;stroke-width:0.05345784;stroke-miterlimit:4;stroke-dasharray:none;stroke-dashoffset:0;stroke-opacity:1"
       id="rect5946"
       width="9.5453835"
       height="4.9407682"
       x="201.93207"
       y="201.82619"
       ry="0" />
    <rect
       ry="0"
       y="201.82619"
       x="171.85741"
       height="4.9407682"
       width="30.074671"
       id="rect5948"
       style="opacity:0.33600003;fill:#008000;fill-opacity:1;stroke:none;stroke-width:0.09488884;stroke-miterlimit:4;stroke-dasharray:none;stroke-dashoffset:0;stroke-opacity:1" />
    <rect
       ry="0"
       y="223.10274"
       x="206.65543"
       height="4.9804082"
       width="3.6852717"
       id="rect5950"
       style="opacity:0.33600003;fill:#008000;fill-opacity:1;stroke:none;stroke-width:0.03334944;stroke-miterlimit:4;stroke-dasharray:none;stroke-dashoffset:0;stroke-opacity:1" />
    <rect
       style="opacity:0.33600003;fill:#0000ff;fill-opacity:1;stroke:none;stroke-width:0.09544288;stroke-miterlimit:4;stroke-dasharray:none;stroke-dashoffset:0;stroke-opacity:1"
       id="rect5952"
       width="30.184727"
       height="4.9804082"
       x="210.3407"
       y="223.10274"
       ry="0" />
  </g>
</svg>
