<?xml version="1.0" encoding="UTF-8" standalone="no"?>
<!-- Created with Inkscape (http://www.inkscape.org/) -->

<svg
   xmlns:dc="http://purl.org/dc/elements/1.1/"
   xmlns:cc="http://creativecommons.org/ns#"
   xmlns:rdf="http://www.w3.org/1999/02/22-rdf-syntax-ns#"
   xmlns:svg="http://www.w3.org/2000/svg"
   xmlns="http://www.w3.org/2000/svg"
   xmlns:sodipodi="http://sodipodi.sourceforge.net/DTD/sodipodi-0.dtd"
   xmlns:inkscape="http://www.inkscape.org/namespaces/inkscape"
   width="262.7197mm"
   height="160.70766mm"
   viewBox="0 0 262.7197 160.70766"
   version="1.1"
   id="svg8"
   inkscape:version="0.92.1 r15371"
   sodipodi:docname="grupo_tareas_multiasync.svg"
   inkscape:export-filename="/home/david/Documents/CursoProgramacion/nivel2/sesion7/grupo_tareas_multiasync.png"
   inkscape:export-xdpi="95"
   inkscape:export-ydpi="95">
  <defs
     id="defs2">
    <marker
       inkscape:stockid="Arrow1Mend"
       orient="auto"
       refY="0"
       refX="0"
       id="Arrow1Mend"
       style="overflow:visible"
       inkscape:isstock="true">
      <path
         id="path4520"
         d="M 0,0 5,-5 -12.5,0 5,5 Z"
         style="fill:#000000;fill-opacity:1;fill-rule:evenodd;stroke:#000000;stroke-width:1.00000003pt;stroke-opacity:1"
         transform="matrix(-0.4,0,0,-0.4,-4,0)"
         inkscape:connector-curvature="0" />
    </marker>
    <marker
       inkscape:stockid="Arrow1Mstart"
       orient="auto"
       refY="0"
       refX="0"
       id="Arrow1Mstart"
       style="overflow:visible"
       inkscape:isstock="true">
      <path
         id="path4517"
         d="M 0,0 5,-5 -12.5,0 5,5 Z"
         style="fill:#000000;fill-opacity:1;fill-rule:evenodd;stroke:#000000;stroke-width:1.00000003pt;stroke-opacity:1"
         transform="matrix(0.4,0,0,0.4,4,0)"
         inkscape:connector-curvature="0" />
    </marker>
    <marker
       inkscape:stockid="Arrow1Mstart"
       orient="auto"
       refY="0"
       refX="0"
       id="Arrow1Mstart-9"
       style="overflow:visible"
       inkscape:isstock="true">
      <path
         id="path4517-9"
         d="M 0,0 5,-5 -12.5,0 5,5 Z"
         style="fill:#000000;fill-opacity:1;fill-rule:evenodd;stroke:#000000;stroke-width:1.00000003pt;stroke-opacity:1"
         transform="matrix(0.4,0,0,0.4,4,0)"
         inkscape:connector-curvature="0" />
    </marker>
    <marker
       inkscape:stockid="Arrow1Mend"
       orient="auto"
       refY="0"
       refX="0"
       id="Arrow1Mend-0"
       style="overflow:visible"
       inkscape:isstock="true">
      <path
         id="path4520-8"
         d="M 0,0 5,-5 -12.5,0 5,5 Z"
         style="fill:#000000;fill-opacity:1;fill-rule:evenodd;stroke:#000000;stroke-width:1.00000003pt;stroke-opacity:1"
         transform="matrix(-0.4,0,0,-0.4,-4,0)"
         inkscape:connector-curvature="0" />
    </marker>
  </defs>
  <sodipodi:namedview
     id="base"
     pagecolor="#ffffff"
     bordercolor="#666666"
     borderopacity="1.0"
     inkscape:pageopacity="0.0"
     inkscape:pageshadow="2"
     inkscape:zoom="0.7"
     inkscape:cx="166.28773"
     inkscape:cy="300.97558"
     inkscape:document-units="mm"
     inkscape:current-layer="layer1"
     showgrid="false"
     units="mm"
     fit-margin-top="5"
     fit-margin-left="5"
     fit-margin-right="5"
     fit-margin-bottom="5"
     inkscape:window-width="1366"
     inkscape:window-height="709"
     inkscape:window-x="0"
     inkscape:window-y="0"
     inkscape:window-maximized="1"
     showguides="true"
     inkscape:guide-bbox="true">
    <sodipodi:guide
       position="28.568221,91.27528"
       orientation="1,0"
       id="guide4760"
       inkscape:locked="false" />
    <sodipodi:guide
       position="38.085907,72.563674"
       orientation="1,0"
       id="guide4766"
       inkscape:locked="false" />
    <sodipodi:guide
       position="46.504897,68.420997"
       orientation="1,0"
       id="guide4778"
       inkscape:locked="false" />
    <sodipodi:guide
       position="56.373404,47.556227"
       orientation="1,0"
       id="guide4784"
       inkscape:locked="false" />
    <sodipodi:guide
       position="65.05461,47.556227"
       orientation="1,0"
       id="guide4788"
       inkscape:locked="false" />
    <sodipodi:guide
       position="73.735823,52.536634"
       orientation="1,0"
       id="guide4802"
       inkscape:locked="false" />
    <sodipodi:guide
       position="82.262884,96.237149"
       orientation="1,0"
       id="guide4804"
       inkscape:locked="false" />
    <sodipodi:guide
       position="84.546934,26.087462"
       orientation="1,0"
       id="guide4814"
       inkscape:locked="false" />
    <sodipodi:guide
       position="93.945237,70.826422"
       orientation="1,0"
       id="guide4816"
       inkscape:locked="false" />
    <sodipodi:guide
       position="102.4723,91.27528"
       orientation="1,0"
       id="guide4830"
       inkscape:locked="false" />
    <sodipodi:guide
       position="112.34081,52.536634"
       orientation="1,0"
       id="guide4832"
       inkscape:locked="false" />
    <sodipodi:guide
       position="121.88618,69.088788"
       orientation="1,0"
       id="guide4838"
       inkscape:locked="false" />
    <sodipodi:guide
       position="126.9355,47.556227"
       orientation="1,0"
       id="guide4840"
       inkscape:locked="false" />
    <sodipodi:guide
       position="135.61672,52.536634"
       orientation="1,0"
       id="guide4854"
       inkscape:locked="false" />
    <sodipodi:guide
       position="144.14377,96.237149"
       orientation="1,0"
       id="guide4868"
       inkscape:locked="false" />
    <sodipodi:guide
       position="154.01227,52.536634"
       orientation="1,0"
       id="guide4882"
       inkscape:locked="false" />
    <sodipodi:guide
       position="162.53933,96.237149"
       orientation="1,0"
       id="guide4884"
       inkscape:locked="false" />
    <sodipodi:guide
       position="167.58866,47.556227"
       orientation="1,0"
       id="guide4890"
       inkscape:locked="false" />
    <sodipodi:guide
       position="177.13404,69.088788"
       orientation="1,0"
       id="guide4892"
       inkscape:locked="false" />
  </sodipodi:namedview>
  <metadata
     id="metadata5">
    <rdf:RDF>
      <cc:Work
         rdf:about="">
        <dc:format>image/svg+xml</dc:format>
        <dc:type
           rdf:resource="http://purl.org/dc/dcmitype/StillImage" />
        <dc:title></dc:title>
      </cc:Work>
    </rdf:RDF>
  </metadata>
  <g
     inkscape:label="Capa 1"
     inkscape:groupmode="layer"
     id="layer1"
     transform="translate(0.87326749,-122.27687)">
    <rect
       style="opacity:0.33600003;fill:#0000ff;fill-opacity:1;stroke:none;stroke-width:0.05063375;stroke-miterlimit:4;stroke-dasharray:none;stroke-dashoffset:0;stroke-opacity:1"
       id="rect4485"
       width="8.5270605"
       height="4.9618745"
       x="19.167894"
       y="128.01015"
       ry="0" />
    <rect
       ry="0"
       y="136.32448"
       x="19.178453"
       height="4.9407682"
       width="9.5453825"
       id="rect4487"
       style="opacity:0.33600003;fill:#0000ff;fill-opacity:1;stroke:none;stroke-width:0.05345784;stroke-miterlimit:4;stroke-dasharray:none;stroke-dashoffset:0;stroke-opacity:1" />
    <rect
       style="opacity:0.33600003;fill:#0000ff;fill-opacity:1;stroke:none;stroke-width:0.05457273;stroke-miterlimit:4;stroke-dasharray:none;stroke-dashoffset:0;stroke-opacity:1"
       id="rect4489"
       width="9.8685064"
       height="4.9804082"
       x="19.158632"
       y="144.60844"
       ry="0" />
    <rect
       ry="0"
       y="152.94321"
       x="19.189653"
       height="4.9183574"
       width="2.2840505"
       id="rect4491"
       style="opacity:0.33600003;fill:#0000ff;fill-opacity:1;stroke:none;stroke-width:0.02609038;stroke-miterlimit:4;stroke-dasharray:none;stroke-dashoffset:0;stroke-opacity:1" />
    <text
       xml:space="preserve"
       style="font-style:normal;font-weight:normal;font-size:5.08620739px;line-height:1.25;font-family:sans-serif;letter-spacing:0px;word-spacing:0px;fill:#000000;fill-opacity:1;stroke:none;stroke-width:0.12715518"
       x="4.1416335"
       y="131.05179"
       id="text4495"><tspan
         sodipodi:role="line"
         id="tspan4493"
         x="4.1416335"
         y="131.05179"
         style="stroke-width:0.12715518">T0</tspan></text>
    <text
       id="text4499"
       y="140.40671"
       x="4.1416335"
       style="font-style:normal;font-weight:normal;font-size:5.08620739px;line-height:1.25;font-family:sans-serif;letter-spacing:0px;word-spacing:0px;fill:#000000;fill-opacity:1;stroke:none;stroke-width:0.12715518"
       xml:space="preserve"><tspan
         style="stroke-width:0.12715518"
         y="140.40671"
         x="4.1416335"
         id="tspan4497"
         sodipodi:role="line">T1</tspan></text>
    <text
       xml:space="preserve"
       style="font-style:normal;font-weight:normal;font-size:5.08620739px;line-height:1.25;font-family:sans-serif;letter-spacing:0px;word-spacing:0px;fill:#000000;fill-opacity:1;stroke:none;stroke-width:0.12715518"
       x="4.1416335"
       y="148.43872"
       id="text4503"><tspan
         sodipodi:role="line"
         id="tspan4501"
         x="4.1416335"
         y="148.43872"
         style="stroke-width:0.12715518">T2</tspan></text>
    <text
       id="text4507"
       y="157.22665"
       x="4.1416335"
       style="font-style:normal;font-weight:normal;font-size:5.08620739px;line-height:1.25;font-family:sans-serif;letter-spacing:0px;word-spacing:0px;fill:#000000;fill-opacity:1;stroke:none;stroke-width:0.12715518"
       xml:space="preserve"><tspan
         style="stroke-width:0.12715518"
         y="157.22665"
         x="4.1416335"
         id="tspan4505"
         sodipodi:role="line">T3</tspan></text>
    <path
       style="fill:none;stroke:#000000;stroke-width:0.26499999;stroke-linecap:butt;stroke-linejoin:miter;stroke-miterlimit:4;stroke-dasharray:none;stroke-opacity:1;marker-start:url(#Arrow1Mstart-9);marker-end:url(#Arrow1Mend-0)"
       d="m 13.89801,172.98695 v 94.61341 h 227.71364"
       id="path4509"
       inkscape:connector-curvature="0" />
    <text
       xml:space="preserve"
       style="font-style:normal;font-weight:normal;font-size:5.92010927px;line-height:1.25;font-family:sans-serif;letter-spacing:0px;word-spacing:0px;fill:#000000;fill-opacity:1;stroke:none;stroke-width:0.14800271"
       x="247.32166"
       y="277.20404"
       id="text4827"><tspan
         sodipodi:role="line"
         id="tspan4825"
         x="247.32166"
         y="277.20404"
         style="stroke-width:0.14800271">t[s]</tspan></text>
    <text
       id="text4831"
       y="193.59285"
       x="4.1416335"
       style="font-style:normal;font-weight:normal;font-size:5.08620739px;line-height:1.25;font-family:sans-serif;letter-spacing:0px;word-spacing:0px;fill:#000000;fill-opacity:1;stroke:none;stroke-width:0.12715518"
       xml:space="preserve"><tspan
         style="stroke-width:0.12715518"
         y="193.59285"
         x="4.1416335"
         id="tspan4829"
         sodipodi:role="line">T0</tspan></text>
    <text
       xml:space="preserve"
       style="font-style:normal;font-weight:normal;font-size:5.08620739px;line-height:1.25;font-family:sans-serif;letter-spacing:0px;word-spacing:0px;fill:#000000;fill-opacity:1;stroke:none;stroke-width:0.12715518"
       x="4.1416335"
       y="215.14923"
       id="text4835"><tspan
         sodipodi:role="line"
         id="tspan4833"
         x="4.1416335"
         y="215.14923"
         style="stroke-width:0.12715518">T1</tspan></text>
    <text
       id="text4839"
       y="236.73663"
       x="4.1416335"
       style="font-style:normal;font-weight:normal;font-size:5.08620739px;line-height:1.25;font-family:sans-serif;letter-spacing:0px;word-spacing:0px;fill:#000000;fill-opacity:1;stroke:none;stroke-width:0.12715518"
       xml:space="preserve"><tspan
         style="stroke-width:0.12715518"
         y="236.73663"
         x="4.1416335"
         id="tspan4837"
         sodipodi:role="line">T2</tspan></text>
    <text
       xml:space="preserve"
       style="font-style:normal;font-weight:normal;font-size:5.08620739px;line-height:1.25;font-family:sans-serif;letter-spacing:0px;word-spacing:0px;fill:#000000;fill-opacity:1;stroke:none;stroke-width:0.12715518"
       x="4.1416335"
       y="258.25455"
       id="text4843"><tspan
         sodipodi:role="line"
         id="tspan4841"
         x="4.1416335"
         y="258.25455"
         style="stroke-width:0.12715518">T3</tspan></text>
    <path
       style="fill:none;stroke:#000000;stroke-width:0.26458332;stroke-linecap:butt;stroke-linejoin:miter;stroke-miterlimit:4;stroke-dasharray:0.26458331, 1.05833326;stroke-dashoffset:0;stroke-opacity:1"
       d="M 10.69078,191.96308 H 240.54257"
       id="path4845"
       inkscape:connector-curvature="0" />
    <path
       inkscape:connector-curvature="0"
       id="path4847"
       d="M 10.69078,213.8857 H 240.54257"
       style="fill:none;stroke:#000000;stroke-width:0.26458332;stroke-linecap:butt;stroke-linejoin:miter;stroke-miterlimit:4;stroke-dasharray:0.26458331, 1.05833326;stroke-dashoffset:0;stroke-opacity:1" />
    <path
       style="fill:none;stroke:#000000;stroke-width:0.26458332;stroke-linecap:butt;stroke-linejoin:miter;stroke-miterlimit:4;stroke-dasharray:0.26458331, 1.05833326;stroke-dashoffset:0;stroke-opacity:1"
       d="M 10.69078,235.43034 H 240.54257"
       id="path4849"
       inkscape:connector-curvature="0" />
    <path
       inkscape:connector-curvature="0"
       id="path4851"
       d="M 10.69078,256.97498 H 240.54257"
       style="fill:none;stroke:#000000;stroke-width:0.26458332;stroke-linecap:butt;stroke-linejoin:miter;stroke-miterlimit:4;stroke-dasharray:0.26458331, 1.05833326;stroke-dashoffset:0;stroke-opacity:1" />
    <rect
       style="opacity:0.33600003;fill:#008000;fill-opacity:1;stroke:none;stroke-width:0.10602972;stroke-miterlimit:4;stroke-dasharray:none;stroke-dashoffset:0;stroke-opacity:1"
       id="rect4865"
       width="37.551373"
       height="4.9407682"
       x="19.143587"
       y="163.99463"
       ry="0" />
    <text
       xml:space="preserve"
       style="font-style:normal;font-weight:normal;font-size:5.08620739px;line-height:1.25;font-family:sans-serif;letter-spacing:0px;word-spacing:0px;fill:#000000;fill-opacity:1;stroke:none;stroke-width:0.12715518"
       x="59.893112"
       y="167.99898"
       id="text4869"><tspan
         sodipodi:role="line"
         id="tspan4867"
         x="59.893112"
         y="167.99898"
         style="stroke-width:0.12715518">Tiempo de espera desde que sucede evento</tspan></text>
    <rect
       ry="0"
       y="128.01015"
       x="27.694954"
       height="4.9618745"
       width="3.8968523"
       id="rect4734"
       style="opacity:0.33600003;fill:#800080;fill-opacity:1;stroke:none;stroke-width:0.03422925;stroke-miterlimit:4;stroke-dasharray:none;stroke-dashoffset:0;stroke-opacity:1" />
    <rect
       ry="0"
       y="128.01015"
       x="31.591806"
       height="4.9618745"
       width="8.5270605"
       id="rect4736"
       style="opacity:0.33600003;fill:#0000ff;fill-opacity:1;stroke:none;stroke-width:0.05063375;stroke-miterlimit:4;stroke-dasharray:none;stroke-dashoffset:0;stroke-opacity:1" />
    <rect
       ry="0"
       y="144.60844"
       x="29.027138"
       height="4.9804082"
       width="3.6318994"
       id="rect4738"
       style="opacity:0.33600003;fill:#800080;fill-opacity:1;stroke:none;stroke-width:0.03310677;stroke-miterlimit:4;stroke-dasharray:none;stroke-dashoffset:0;stroke-opacity:1" />
    <rect
       ry="0"
       y="144.60844"
       x="32.659039"
       height="4.9804082"
       width="5.0493102"
       id="rect4740"
       style="opacity:0.33600003;fill:#0000ff;fill-opacity:1;stroke:none;stroke-width:0.03903606;stroke-miterlimit:4;stroke-dasharray:none;stroke-dashoffset:0;stroke-opacity:1" />
    <rect
       style="opacity:0.33600003;fill:#800080;fill-opacity:1;stroke:none;stroke-width:0.03310677;stroke-miterlimit:4;stroke-dasharray:none;stroke-dashoffset:0;stroke-opacity:1"
       id="rect4742"
       width="3.6318994"
       height="4.9804082"
       x="37.708347"
       y="144.60844"
       ry="0" />
    <rect
       style="opacity:0.33600003;fill:#0000ff;fill-opacity:1;stroke:none;stroke-width:0.03903606;stroke-miterlimit:4;stroke-dasharray:none;stroke-dashoffset:0;stroke-opacity:1"
       id="rect4744"
       width="5.0493102"
       height="4.9804082"
       x="41.340248"
       y="144.60844"
       ry="0" />
    <rect
       style="opacity:0.33600003;fill:#800080;fill-opacity:1;stroke:none;stroke-width:0.1066298;stroke-miterlimit:4;stroke-dasharray:none;stroke-dashoffset:0;stroke-opacity:1"
       id="rect4746"
       width="37.675358"
       height="4.9804082"
       x="19.00453"
       y="170.53358"
       ry="0" />
    <text
       id="text4750"
       y="175.0148"
       x="59.893112"
       style="font-style:normal;font-weight:normal;font-size:5.08620739px;line-height:1.25;font-family:sans-serif;letter-spacing:0px;word-spacing:0px;fill:#000000;fill-opacity:1;stroke:none;stroke-width:0.12715518"
       xml:space="preserve"><tspan
         style="stroke-width:0.12715518"
         y="175.0148"
         x="59.893112"
         id="tspan4748"
         sodipodi:role="line">Tiempo de espera (await) dentro de corrutina</tspan></text>
    <rect
       ry="0"
       y="186.74738"
       x="19.167894"
       height="4.9618745"
       width="8.5270605"
       id="rect4752"
       style="opacity:0.33600003;fill:#0000ff;fill-opacity:1;stroke:none;stroke-width:0.05063375;stroke-miterlimit:4;stroke-dasharray:none;stroke-dashoffset:0;stroke-opacity:1" />
    <rect
       style="opacity:0.33600003;fill:#800080;fill-opacity:1;stroke:none;stroke-width:0.05349412;stroke-miterlimit:4;stroke-dasharray:none;stroke-dashoffset:0;stroke-opacity:1"
       id="rect4754"
       width="9.517684"
       height="4.9618745"
       x="27.694954"
       y="186.74738"
       ry="0" />
    <rect
       style="opacity:0.33600003;fill:#0000ff;fill-opacity:1;stroke:none;stroke-width:0.05063375;stroke-miterlimit:4;stroke-dasharray:none;stroke-dashoffset:0;stroke-opacity:1"
       id="rect4756"
       width="8.5270605"
       height="4.9618745"
       x="37.212639"
       y="186.74738"
       ry="0" />
    <rect
       style="opacity:0.33600003;fill:#008000;fill-opacity:1;stroke:none;stroke-width:0.03880436;stroke-miterlimit:4;stroke-dasharray:none;stroke-dashoffset:0;stroke-opacity:1"
       id="rect4758"
       width="5.008184"
       height="4.9618745"
       x="14.15971"
       y="186.74738"
       ry="0" />
    <rect
       style="opacity:0.33600003;fill:#0000ff;fill-opacity:1;stroke:none;stroke-width:0.05345784;stroke-miterlimit:4;stroke-dasharray:none;stroke-dashoffset:0;stroke-opacity:1"
       id="rect4762"
       width="9.5453825"
       height="4.9407682"
       x="27.694954"
       y="208.95497"
       ry="0" />
    <rect
       ry="0"
       y="208.95497"
       x="24.697674"
       height="4.9407682"
       width="2.9972792"
       id="rect4764"
       style="opacity:0.33600003;fill:#008000;fill-opacity:1;stroke:none;stroke-width:0.02995562;stroke-miterlimit:4;stroke-dasharray:none;stroke-dashoffset:0;stroke-opacity:1" />
    <rect
       ry="0"
       y="230.44789"
       x="45.63163"
       height="4.9804082"
       width="9.8685064"
       id="rect4768"
       style="opacity:0.33600003;fill:#0000ff;fill-opacity:1;stroke:none;stroke-width:0.05457273;stroke-miterlimit:4;stroke-dasharray:none;stroke-dashoffset:0;stroke-opacity:1" />
    <rect
       style="opacity:0.33600003;fill:#800080;fill-opacity:1;stroke:none;stroke-width:0.03310677;stroke-miterlimit:4;stroke-dasharray:none;stroke-dashoffset:0;stroke-opacity:1"
       id="rect4770"
       width="3.6318994"
       height="4.9804082"
       x="55.500137"
       y="230.44789"
       ry="0" />
    <rect
       style="opacity:0.33600003;fill:#0000ff;fill-opacity:1;stroke:none;stroke-width:0.03903606;stroke-miterlimit:4;stroke-dasharray:none;stroke-dashoffset:0;stroke-opacity:1"
       id="rect4772"
       width="5.0493102"
       height="4.9804082"
       x="59.132034"
       y="230.44789"
       ry="0" />
    <rect
       ry="0"
       y="230.44789"
       x="64.181343"
       height="4.9804082"
       width="3.6318994"
       id="rect4774"
       style="opacity:0.33600003;fill:#800080;fill-opacity:1;stroke:none;stroke-width:0.03310677;stroke-miterlimit:4;stroke-dasharray:none;stroke-dashoffset:0;stroke-opacity:1" />
    <rect
       ry="0"
       y="230.44789"
       x="67.813248"
       height="4.9804082"
       width="5.0493102"
       id="rect4776"
       style="opacity:0.33600003;fill:#0000ff;fill-opacity:1;stroke:none;stroke-width:0.03903606;stroke-miterlimit:4;stroke-dasharray:none;stroke-dashoffset:0;stroke-opacity:1" />
    <rect
       style="opacity:0.33600003;fill:#008000;fill-opacity:1;stroke:none;stroke-width:0.03658488;stroke-miterlimit:4;stroke-dasharray:none;stroke-dashoffset:0;stroke-opacity:1"
       id="rect4780"
       width="4.4350986"
       height="4.9804082"
       x="41.196529"
       y="230.44789"
       ry="0" />
    <rect
       style="opacity:0.33600003;fill:#0000ff;fill-opacity:1;stroke:none;stroke-width:0.02609038;stroke-miterlimit:4;stroke-dasharray:none;stroke-dashoffset:0;stroke-opacity:1"
       id="rect4782"
       width="2.2840505"
       height="4.9183574"
       x="55.500137"
       y="251.9787"
       ry="0" />
    <rect
       ry="0"
       y="251.9787"
       x="54.786297"
       height="4.9183574"
       width="0.71384197"
       id="rect4786"
       style="opacity:0.33600003;fill:#008000;fill-opacity:1;stroke:none;stroke-width:0.01458574;stroke-miterlimit:4;stroke-dasharray:none;stroke-dashoffset:0;stroke-opacity:1" />
    <rect
       ry="0"
       y="251.9787"
       x="64.181343"
       height="4.9183574"
       width="2.2840505"
       id="rect4790"
       style="opacity:0.33600003;fill:#0000ff;fill-opacity:1;stroke:none;stroke-width:0.02609038;stroke-miterlimit:4;stroke-dasharray:none;stroke-dashoffset:0;stroke-opacity:1" />
    <rect
       style="opacity:0.33600003;fill:#008000;fill-opacity:1;stroke:none;stroke-width:0.0179518;stroke-miterlimit:4;stroke-dasharray:none;stroke-dashoffset:0;stroke-opacity:1"
       id="rect4792"
       width="1.0813376"
       height="4.9183574"
       x="63.100006"
       y="251.9787"
       ry="0" />
    <rect
       style="opacity:0.33600003;fill:#0000ff;fill-opacity:1;stroke:none;stroke-width:0.05063375;stroke-miterlimit:4;stroke-dasharray:none;stroke-dashoffset:0;stroke-opacity:1"
       id="rect4794"
       width="8.5270605"
       height="4.9618745"
       x="72.862556"
       y="186.74738"
       ry="0" />
    <rect
       ry="0"
       y="186.74738"
       x="81.389618"
       height="4.9618745"
       width="11.682349"
       id="rect4796"
       style="opacity:0.33600003;fill:#800080;fill-opacity:1;stroke:none;stroke-width:0.05926598;stroke-miterlimit:4;stroke-dasharray:none;stroke-dashoffset:0;stroke-opacity:1" />
    <rect
       ry="0"
       y="186.74738"
       x="93.071968"
       height="4.9618745"
       width="8.5270605"
       id="rect4798"
       style="opacity:0.33600003;fill:#0000ff;fill-opacity:1;stroke:none;stroke-width:0.05063375;stroke-miterlimit:4;stroke-dasharray:none;stroke-dashoffset:0;stroke-opacity:1" />
    <rect
       ry="0"
       y="186.74738"
       x="69.992523"
       height="4.9618745"
       width="2.8700278"
       id="rect4800"
       style="opacity:0.33600003;fill:#008000;fill-opacity:1;stroke:none;stroke-width:0.02937538;stroke-miterlimit:4;stroke-dasharray:none;stroke-dashoffset:0;stroke-opacity:1" />
    <rect
       style="opacity:0.33600003;fill:#0000ff;fill-opacity:1;stroke:none;stroke-width:0.02609038;stroke-miterlimit:4;stroke-dasharray:none;stroke-dashoffset:0;stroke-opacity:1"
       id="rect4806"
       width="2.2840505"
       height="4.9183574"
       x="81.389618"
       y="251.9787"
       ry="0" />
    <rect
       ry="0"
       y="251.9787"
       x="80.308281"
       height="4.9183574"
       width="1.0813376"
       id="rect4808"
       style="opacity:0.33600003;fill:#008000;fill-opacity:1;stroke:none;stroke-width:0.0179518;stroke-miterlimit:4;stroke-dasharray:none;stroke-dashoffset:0;stroke-opacity:1" />
    <rect
       ry="0"
       y="208.95497"
       x="83.673668"
       height="4.9407682"
       width="9.5453825"
       id="rect4810"
       style="opacity:0.33600003;fill:#0000ff;fill-opacity:1;stroke:none;stroke-width:0.05345784;stroke-miterlimit:4;stroke-dasharray:none;stroke-dashoffset:0;stroke-opacity:1" />
    <rect
       style="opacity:0.33600003;fill:#008000;fill-opacity:1;stroke:none;stroke-width:0.02274338;stroke-miterlimit:4;stroke-dasharray:none;stroke-dashoffset:0;stroke-opacity:1"
       id="rect4812"
       width="1.7277489"
       height="4.9407682"
       x="81.945923"
       y="208.95497"
       ry="0" />
    <rect
       style="opacity:0.33600003;fill:#0000ff;fill-opacity:1;stroke:none;stroke-width:0.05457273;stroke-miterlimit:4;stroke-dasharray:none;stroke-dashoffset:0;stroke-opacity:1"
       id="rect4818"
       width="9.8685064"
       height="4.9804082"
       x="101.59904"
       y="230.44789"
       ry="0" />
    <rect
       ry="0"
       y="230.44789"
       x="111.46755"
       height="4.9804082"
       width="9.5453691"
       id="rect4820"
       style="opacity:0.33600003;fill:#800080;fill-opacity:1;stroke:none;stroke-width:0.05367181;stroke-miterlimit:4;stroke-dasharray:none;stroke-dashoffset:0;stroke-opacity:1" />
    <rect
       ry="0"
       y="230.44789"
       x="121.01292"
       height="4.9804082"
       width="5.0493102"
       id="rect4822"
       style="opacity:0.33600003;fill:#0000ff;fill-opacity:1;stroke:none;stroke-width:0.03903606;stroke-miterlimit:4;stroke-dasharray:none;stroke-dashoffset:0;stroke-opacity:1" />
    <rect
       style="opacity:0.33600003;fill:#800080;fill-opacity:1;stroke:none;stroke-width:0.03310677;stroke-miterlimit:4;stroke-dasharray:none;stroke-dashoffset:0;stroke-opacity:1"
       id="rect4824"
       width="3.6318994"
       height="4.9804082"
       x="126.06223"
       y="230.44789"
       ry="0" />
    <rect
       style="opacity:0.33600003;fill:#0000ff;fill-opacity:1;stroke:none;stroke-width:0.03903606;stroke-miterlimit:4;stroke-dasharray:none;stroke-dashoffset:0;stroke-opacity:1"
       id="rect4826"
       width="5.0493102"
       height="4.9804082"
       x="129.69414"
       y="230.44789"
       ry="0" />
    <rect
       ry="0"
       y="230.44789"
       x="97.16394"
       height="4.9804082"
       width="4.4350986"
       id="rect4828"
       style="opacity:0.33600003;fill:#008000;fill-opacity:1;stroke:none;stroke-width:0.03658488;stroke-miterlimit:4;stroke-dasharray:none;stroke-dashoffset:0;stroke-opacity:1" />
    <rect
       style="opacity:0.33600003;fill:#0000ff;fill-opacity:1;stroke:none;stroke-width:0.05345784;stroke-miterlimit:4;stroke-dasharray:none;stroke-dashoffset:0;stroke-opacity:1"
       id="rect4834"
       width="9.5453825"
       height="4.9407682"
       x="111.46754"
       y="208.95497"
       ry="0" />
    <rect
       ry="0"
       y="208.95497"
       x="109.7398"
       height="4.9407682"
       width="1.7277489"
       id="rect4836"
       style="opacity:0.33600003;fill:#008000;fill-opacity:1;stroke:none;stroke-width:0.02274338;stroke-miterlimit:4;stroke-dasharray:none;stroke-dashoffset:0;stroke-opacity:1" />
    <rect
       ry="0"
       y="251.9787"
       x="126.06223"
       height="4.9183574"
       width="2.2840505"
       id="rect4842"
       style="opacity:0.33600003;fill:#0000ff;fill-opacity:1;stroke:none;stroke-width:0.02609038;stroke-miterlimit:4;stroke-dasharray:none;stroke-dashoffset:0;stroke-opacity:1" />
    <rect
       style="opacity:0.33600003;fill:#008000;fill-opacity:1;stroke:none;stroke-width:0.0179518;stroke-miterlimit:4;stroke-dasharray:none;stroke-dashoffset:0;stroke-opacity:1"
       id="rect4844"
       width="1.0813376"
       height="4.9183574"
       x="124.9809"
       y="251.9787"
       ry="0" />
    <rect
       ry="0"
       y="186.74738"
       x="134.74345"
       height="4.9618745"
       width="8.5270605"
       id="rect4846"
       style="opacity:0.33600003;fill:#0000ff;fill-opacity:1;stroke:none;stroke-width:0.05063375;stroke-miterlimit:4;stroke-dasharray:none;stroke-dashoffset:0;stroke-opacity:1" />
    <rect
       style="opacity:0.33600003;fill:#800080;fill-opacity:1;stroke:none;stroke-width:0.05447104;stroke-miterlimit:4;stroke-dasharray:none;stroke-dashoffset:0;stroke-opacity:1"
       id="rect4848"
       width="9.8684883"
       height="4.9618745"
       x="143.27052"
       y="186.74738"
       ry="0" />
    <rect
       style="opacity:0.33600003;fill:#0000ff;fill-opacity:1;stroke:none;stroke-width:0.05063375;stroke-miterlimit:4;stroke-dasharray:none;stroke-dashoffset:0;stroke-opacity:1"
       id="rect4850"
       width="8.5270605"
       height="4.9618745"
       x="153.13901"
       y="186.74738"
       ry="0" />
    <rect
       style="opacity:0.33600003;fill:#008000;fill-opacity:1;stroke:none;stroke-width:0.02937538;stroke-miterlimit:4;stroke-dasharray:none;stroke-dashoffset:0;stroke-opacity:1"
       id="rect4852"
       width="2.8700278"
       height="4.9618745"
       x="131.87343"
       y="186.74738"
       ry="0" />
    <rect
       ry="0"
       y="230.44789"
       x="143.27051"
       height="4.9804082"
       width="9.8685064"
       id="rect4856"
       style="opacity:0.33600003;fill:#0000ff;fill-opacity:1;stroke:none;stroke-width:0.05457273;stroke-miterlimit:4;stroke-dasharray:none;stroke-dashoffset:0;stroke-opacity:1" />
    <rect
       style="opacity:0.33600003;fill:#800080;fill-opacity:1;stroke:none;stroke-width:0.05072817;stroke-miterlimit:4;stroke-dasharray:none;stroke-dashoffset:0;stroke-opacity:1"
       id="rect4858"
       width="8.5270472"
       height="4.9804082"
       x="153.13902"
       y="230.44789"
       ry="0" />
    <rect
       style="opacity:0.33600003;fill:#0000ff;fill-opacity:1;stroke:none;stroke-width:0.03903606;stroke-miterlimit:4;stroke-dasharray:none;stroke-dashoffset:0;stroke-opacity:1"
       id="rect4860"
       width="5.0493102"
       height="4.9804082"
       x="161.66608"
       y="230.44789"
       ry="0" />
    <rect
       ry="0"
       y="230.44789"
       x="166.71539"
       height="4.9804082"
       width="9.5453863"
       id="rect4862"
       style="opacity:0.33600003;fill:#800080;fill-opacity:1;stroke:none;stroke-width:0.05367186;stroke-miterlimit:4;stroke-dasharray:none;stroke-dashoffset:0;stroke-opacity:1" />
    <rect
       ry="0"
       y="230.44789"
       x="176.26077"
       height="4.9804082"
       width="5.0493102"
       id="rect4864"
       style="opacity:0.33600003;fill:#0000ff;fill-opacity:1;stroke:none;stroke-width:0.03903606;stroke-miterlimit:4;stroke-dasharray:none;stroke-dashoffset:0;stroke-opacity:1" />
    <rect
       style="opacity:0.33600003;fill:#008000;fill-opacity:1;stroke:none;stroke-width:0.03658488;stroke-miterlimit:4;stroke-dasharray:none;stroke-dashoffset:0;stroke-opacity:1"
       id="rect4866"
       width="4.4350986"
       height="4.9804082"
       x="138.83542"
       y="230.44789"
       ry="0" />
    <rect
       ry="0"
       y="208.95497"
       x="166.71539"
       height="4.9407682"
       width="9.5453825"
       id="rect4886"
       style="opacity:0.33600003;fill:#0000ff;fill-opacity:1;stroke:none;stroke-width:0.05345784;stroke-miterlimit:4;stroke-dasharray:none;stroke-dashoffset:0;stroke-opacity:1" />
    <rect
       style="opacity:0.33600003;fill:#008000;fill-opacity:1;stroke:none;stroke-width:0.02274338;stroke-miterlimit:4;stroke-dasharray:none;stroke-dashoffset:0;stroke-opacity:1"
       id="rect4888"
       width="1.7277489"
       height="4.9407682"
       x="164.98766"
       y="208.95497"
       ry="0" />
  </g>
</svg>
