id,país,ciudad
1,Chile,Santiago
2,Chile,Valdivia
3,Chile,Arica
4,Argentina,Buenos Aires
5,Argentina,Córdova
6,Bolivia,La Paz
7,Cuba,Santiago
8,Cuba,La Habana
9,Perú,Lima
10,Perú,Tacna
11,Colombia,Bogotá
12,Colombia,Calí
