<?xml version="1.0" encoding="UTF-8" standalone="no"?>
<!-- Created with Inkscape (http://www.inkscape.org/) -->

<svg
   xmlns:dc="http://purl.org/dc/elements/1.1/"
   xmlns:cc="http://creativecommons.org/ns#"
   xmlns:rdf="http://www.w3.org/1999/02/22-rdf-syntax-ns#"
   xmlns:svg="http://www.w3.org/2000/svg"
   xmlns="http://www.w3.org/2000/svg"
   xmlns:sodipodi="http://sodipodi.sourceforge.net/DTD/sodipodi-0.dtd"
   xmlns:inkscape="http://www.inkscape.org/namespaces/inkscape"
   width="11in"
   height="8.5in"
   viewBox="0 0 279.4 215.9"
   version="1.1"
   id="svg14707"
   inkscape:version="0.92.1 r15371"
   sodipodi:docname="gncsocket.svg">
  <defs
     id="defs14701">
    <marker
       inkscape:isstock="true"
       style="overflow:visible"
       id="marker16386"
       refX="0"
       refY="0"
       orient="auto"
       inkscape:stockid="Arrow1Send">
      <path
         transform="matrix(-0.2,0,0,-0.2,-1.2,0)"
         style="fill:#ff0000;fill-opacity:1;fill-rule:evenodd;stroke:#f19400;stroke-width:1.00000003pt;stroke-opacity:1"
         d="M 0,0 5,-5 -12.5,0 5,5 Z"
         id="path16384"
         inkscape:connector-curvature="0" />
    </marker>
    <marker
       inkscape:stockid="Arrow1Send"
       orient="auto"
       refY="0"
       refX="0"
       id="marker15963"
       style="overflow:visible"
       inkscape:isstock="true"
       inkscape:collect="always">
      <path
         id="path15961"
         d="M 0,0 5,-5 -12.5,0 5,5 Z"
         style="fill:#ff0000;fill-opacity:1;fill-rule:evenodd;stroke:#f19400;stroke-width:1.00000003pt;stroke-opacity:1"
         transform="matrix(-0.2,0,0,-0.2,-1.2,0)"
         inkscape:connector-curvature="0" />
    </marker>
    <marker
       inkscape:isstock="true"
       style="overflow:visible"
       id="marker15647"
       refX="0"
       refY="0"
       orient="auto"
       inkscape:stockid="Arrow1Send"
       inkscape:collect="always">
      <path
         transform="matrix(-0.2,0,0,-0.2,-1.2,0)"
         style="fill:#ff0000;fill-opacity:1;fill-rule:evenodd;stroke:#f19400;stroke-width:1.00000003pt;stroke-opacity:1"
         d="M 0,0 5,-5 -12.5,0 5,5 Z"
         id="path15645"
         inkscape:connector-curvature="0" />
    </marker>
    <marker
       inkscape:stockid="Arrow1Send"
       orient="auto"
       refY="0"
       refX="0"
       id="Arrow1Send"
       style="overflow:visible"
       inkscape:isstock="true"
       inkscape:collect="always">
      <path
         id="path12530"
         d="M 0,0 5,-5 -12.5,0 5,5 Z"
         style="fill:#ff0000;fill-opacity:1;fill-rule:evenodd;stroke:#f19400;stroke-width:1.00000003pt;stroke-opacity:1"
         transform="matrix(-0.2,0,0,-0.2,-1.2,0)"
         inkscape:connector-curvature="0" />
    </marker>
    <marker
       inkscape:isstock="true"
       style="overflow:visible"
       id="marker15424"
       refX="0"
       refY="0"
       orient="auto"
       inkscape:stockid="Arrow1Mend">
      <path
         transform="matrix(-0.4,0,0,-0.4,-4,0)"
         style="fill:#000000;fill-opacity:1;fill-rule:evenodd;stroke:#000000;stroke-width:1.00000003pt;stroke-opacity:1"
         d="M 0,0 5,-5 -12.5,0 5,5 Z"
         id="path15422"
         inkscape:connector-curvature="0" />
    </marker>
    <marker
       inkscape:stockid="Arrow1Mend"
       orient="auto"
       refY="0"
       refX="0"
       id="Arrow1Mend"
       style="overflow:visible"
       inkscape:isstock="true"
       inkscape:collect="always">
      <path
         id="path12524"
         d="M 0,0 5,-5 -12.5,0 5,5 Z"
         style="fill:#000000;fill-opacity:1;fill-rule:evenodd;stroke:#000000;stroke-width:1.00000003pt;stroke-opacity:1"
         transform="matrix(-0.4,0,0,-0.4,-4,0)"
         inkscape:connector-curvature="0" />
    </marker>
  </defs>
  <sodipodi:namedview
     id="base"
     pagecolor="#ffffff"
     bordercolor="#666666"
     borderopacity="1.0"
     inkscape:pageopacity="0.0"
     inkscape:pageshadow="2"
     inkscape:zoom="0.70710678"
     inkscape:cx="453.6518"
     inkscape:cy="268.46718"
     inkscape:document-units="mm"
     inkscape:current-layer="layer1"
     showgrid="false"
     inkscape:window-width="1918"
     inkscape:window-height="1054"
     inkscape:window-x="1920"
     inkscape:window-y="0"
     inkscape:window-maximized="1"
     units="in" />
  <metadata
     id="metadata14704">
    <rdf:RDF>
      <cc:Work
         rdf:about="">
        <dc:format>image/svg+xml</dc:format>
        <dc:type
           rdf:resource="http://purl.org/dc/dcmitype/StillImage" />
        <dc:title></dc:title>
      </cc:Work>
    </rdf:RDF>
  </metadata>
  <g
     inkscape:label="Capa 1"
     inkscape:groupmode="layer"
     id="layer1"
     transform="translate(0,-81.1)">
    <text
       xml:space="preserve"
       style="font-style:normal;font-weight:normal;font-size:9.9297142px;line-height:1.25;font-family:sans-serif;letter-spacing:0px;word-spacing:0px;fill:#000000;fill-opacity:1;stroke:none;stroke-width:0.24824286"
       x="4.1291389"
       y="98.672134"
       id="text11870"><tspan
         sodipodi:role="line"
         id="tspan11868"
         x="4.1291389"
         y="98.672134"
         style="stroke-width:0.24824286">Módulo GNC Socket</tspan></text>
    <text
       xml:space="preserve"
       style="font-style:normal;font-weight:normal;font-size:9.9297142px;line-height:1.25;font-family:sans-serif;letter-spacing:0px;word-spacing:0px;fill:#000000;fill-opacity:1;stroke:none;stroke-width:0.24824286"
       x="5.5365849"
       y="111.55483"
       id="text14813"><tspan
         sodipodi:role="line"
         id="tspan14811"
         x="5.5365849"
         y="111.55483"
         style="stroke-width:0.24824286">http://gitlab.csn.uchile.cl/dpineda/gncsocket</tspan></text>
    <text
       xml:space="preserve"
       style="font-style:normal;font-weight:normal;font-size:9.9297142px;line-height:1.25;font-family:sans-serif;letter-spacing:0px;word-spacing:0px;fill:#000000;fill-opacity:1;stroke:none;stroke-width:0.24824286"
       x="6.9551148"
       y="134.25133"
       id="text14817"><tspan
         sodipodi:role="line"
         id="tspan14815"
         x="6.9551148"
         y="134.25133"
         style="stroke-width:0.24824286">Provee la herramienta Socket de tipo UNIX y TCP,</tspan><tspan
         sodipodi:role="line"
         x="6.9551148"
         y="146.66347"
         style="stroke-width:0.24824286"
         id="tspan14819">Cada conexión entrega los objetos <tspan
   style="fill:#ff0000;stroke-width:0.24824286"
   id="tspan14821">reader<tspan
   style="fill:#000000;stroke-width:0.24824286"
   id="tspan14823"> y </tspan>writer </tspan></tspan><tspan
         sodipodi:role="line"
         x="6.9551148"
         y="159.07561"
         style="stroke-width:0.24824286"
         id="tspan14825"><tspan
           style="fill:#ff0000;stroke-width:0.24824286"
           id="tspan14827"><tspan
             style="fill:#000000;stroke-width:0.24824286"
             id="tspan14829">que permiten una comunicación asíncrona entre</tspan></tspan></tspan><tspan
         sodipodi:role="line"
         x="6.9551148"
         y="171.48776"
         style="stroke-width:0.24824286"
         id="tspan14831"><tspan
           style="fill:#ff0000;stroke-width:0.24824286"
           id="tspan14833">cliente<tspan
   style="fill:#000000;stroke-width:0.24824286"
   id="tspan14835"> y </tspan>servidor<tspan
   style="fill:#000000;stroke-width:0.24824286"
   id="tspan15506">. Y, entre las opciones, puede ser</tspan></tspan></tspan><tspan
         sodipodi:role="line"
         x="6.9551148"
         y="183.8999"
         style="stroke-width:0.24824286"
         id="tspan15508"><tspan
           style="fill:#ff0000;stroke-width:0.24824286"
           id="tspan15510"><tspan
   style="fill:#000000;stroke-width:0.24824286"
   id="tspan15514">en modo</tspan> 'cliente'<tspan
   style="fill:#000000;stroke-width:0.24824286"
   id="tspan15512"> o modo</tspan> 'servidor'<tspan
   style="fill:#000000;stroke-width:0.24824286"
   id="tspan15516">, además de otras.</tspan></tspan></tspan></text>
    <rect
       style="fill:#cdefd6;fill-opacity:1;stroke:#ff8000;stroke-width:0.49648571;stroke-miterlimit:4;stroke-dasharray:none;stroke-dashoffset:0;stroke-opacity:1"
       id="rect14837"
       width="4.2555919"
       height="76.600655"
       x="53.057362"
       y="195.60278" />
    <circle
       style="fill:none;fill-opacity:1;stroke:#ff8000;stroke-width:0.49648571;stroke-miterlimit:4;stroke-dasharray:none;stroke-dashoffset:0;stroke-opacity:1"
       id="path14841"
       cx="17.771412"
       cy="232.6619"
       r="14.007988" />
    <path
       style="fill:none;stroke:#000000;stroke-width:0.99297142;stroke-linecap:butt;stroke-linejoin:miter;stroke-miterlimit:4;stroke-dasharray:none;stroke-opacity:1;marker-end:url(#marker15424)"
       d="M 58.895674,201.22575 H 210.35662"
       id="path14843"
       inkscape:connector-curvature="0" />
    <path
       style="fill:none;stroke:#000000;stroke-width:0.99297142;stroke-linecap:butt;stroke-linejoin:miter;stroke-miterlimit:4;stroke-dasharray:none;stroke-opacity:1;marker-end:url(#Arrow1Mend)"
       d="M 211.10891,265.17035 H 58.394146"
       id="path14845"
       inkscape:connector-curvature="0" />
    <text
       xml:space="preserve"
       style="font-style:normal;font-weight:normal;font-size:9.9297142px;line-height:1.25;font-family:sans-serif;letter-spacing:0px;word-spacing:0px;fill:#000000;fill-opacity:1;stroke:none;stroke-width:0.24824286"
       x="116.89123"
       y="210.85199"
       id="text15500"><tspan
         sodipodi:role="line"
         id="tspan15498"
         x="116.89123"
         y="210.85199"
         style="stroke-width:0.24824286">Enviar</tspan></text>
    <text
       id="text15504"
       y="259.79129"
       x="126.46632"
       style="font-style:normal;font-weight:normal;font-size:9.9297142px;line-height:1.25;font-family:sans-serif;letter-spacing:0px;word-spacing:0px;fill:none;fill-opacity:1;stroke:none;stroke-width:0.24824286"
       xml:space="preserve"><tspan
         style="fill:none;stroke-width:0.24824286"
         y="259.79129"
         x="126.46632"
         id="tspan15502"
         sodipodi:role="line">Recibir</tspan></text>
    <path
       style="fill:#1a3eff;fill-opacity:1;stroke:#ff8000;stroke-width:0.28973734;stroke-miterlimit:4;stroke-dasharray:none;stroke-dashoffset:0;stroke-opacity:1"
       d="m 53.05736,195.60279 a 8.1747315,8.1747315 0 0 0 -7.441497,8.13556 8.1747315,8.1747315 0 0 0 7.441497,8.13811 z"
       id="circle15518"
       inkscape:connector-curvature="0" />
    <path
       inkscape:connector-curvature="0"
       id="path15525"
       d="m 53.05736,255.53518 a 8.1747315,8.1747315 0 0 0 -7.441497,8.13556 8.1747315,8.1747315 0 0 0 7.441497,8.13812 z"
       style="fill:#ff6401;fill-opacity:1;stroke:#ff0200;stroke-width:0.28973734;stroke-miterlimit:4;stroke-dasharray:none;stroke-dashoffset:0;stroke-opacity:1" />
    <rect
       y="195.60278"
       x="-217.36145"
       height="76.600655"
       width="4.2555919"
       id="rect15527"
       style="fill:#cdefd6;fill-opacity:1;stroke:#ff8000;stroke-width:0.49648571;stroke-miterlimit:4;stroke-dasharray:none;stroke-dashoffset:0;stroke-opacity:1"
       transform="scale(-1,1)" />
    <path
       inkscape:connector-curvature="0"
       id="path15529"
       d="m 217.36144,195.60279 a 8.1747315,8.1747315 0 0 1 7.4415,8.13556 8.1747315,8.1747315 0 0 1 -7.4415,8.13811 z"
       style="fill:#ff6401;fill-opacity:1;stroke:#ff0200;stroke-width:0.28973734;stroke-miterlimit:4;stroke-dasharray:none;stroke-dashoffset:0;stroke-opacity:1" />
    <path
       style="fill:#1a3eff;fill-opacity:1;stroke:#ff8000;stroke-width:0.28973734;stroke-miterlimit:4;stroke-dasharray:none;stroke-dashoffset:0;stroke-opacity:1"
       d="m 217.36144,255.53518 a 8.1747315,8.1747315 0 0 1 7.4415,8.13556 8.1747315,8.1747315 0 0 1 -7.4415,8.13812 z"
       id="path15531"
       inkscape:connector-curvature="0" />
    <text
       id="text15543"
       y="276.10437"
       x="115.82733"
       style="font-style:normal;font-weight:normal;font-size:9.9297142px;line-height:1.25;font-family:sans-serif;letter-spacing:0px;word-spacing:0px;fill:#000000;fill-opacity:1;stroke:none;stroke-width:0.24824286"
       xml:space="preserve"><tspan
         style="stroke-width:0.24824286"
         y="276.10437"
         x="115.82733"
         id="tspan15541"
         sodipodi:role="line">Recibir</tspan></text>
    <text
       id="text15547"
       y="203.05006"
       x="5.8912082"
       style="font-style:normal;font-weight:normal;font-size:9.9297142px;line-height:1.25;font-family:sans-serif;letter-spacing:0px;word-spacing:0px;fill:#008000;fill-opacity:1;stroke:none;stroke-width:0.24824286"
       xml:space="preserve"><tspan
         style="fill:#008000;stroke-width:0.24824286"
         y="203.05006"
         x="5.8912082"
         id="tspan15545"
         sodipodi:role="line">writer</tspan></text>
    <text
       xml:space="preserve"
       style="font-style:normal;font-weight:normal;font-size:9.9297142px;line-height:1.25;font-family:sans-serif;letter-spacing:0px;word-spacing:0px;fill:#008000;fill-opacity:1;stroke:none;stroke-width:0.24824286"
       x="229.66441"
       y="275.0405"
       id="text15551"><tspan
         sodipodi:role="line"
         id="tspan15549"
         x="229.66441"
         y="275.0405"
         style="fill:#008000;stroke-width:0.24824286">writer</tspan></text>
    <text
       id="text15555"
       y="199.14912"
       x="226.82736"
       style="font-style:normal;font-weight:normal;font-size:9.9297142px;line-height:1.25;font-family:sans-serif;letter-spacing:0px;word-spacing:0px;fill:#800000;fill-opacity:1;stroke:none;stroke-width:0.24824286"
       xml:space="preserve"><tspan
         style="fill:#800000;stroke-width:0.24824286"
         y="199.14912"
         x="226.82736"
         id="tspan15553"
         sodipodi:role="line">reader</tspan></text>
    <text
       xml:space="preserve"
       style="font-style:normal;font-weight:normal;font-size:9.9297142px;line-height:1.25;font-family:sans-serif;letter-spacing:0px;word-spacing:0px;fill:#800000;fill-opacity:1;stroke:none;stroke-width:0.24824286"
       x="5.891211"
       y="274.68588"
       id="text15559"><tspan
         sodipodi:role="line"
         id="tspan15557"
         x="5.891211"
         y="274.68588"
         style="fill:#800000;stroke-width:0.24824286">reader</tspan></text>
    <text
       xml:space="preserve"
       style="font-style:normal;font-weight:normal;font-size:7.13005257px;line-height:1.25;font-family:sans-serif;text-align:center;letter-spacing:0px;word-spacing:0px;text-anchor:middle;fill:#000000;fill-opacity:1;stroke:none;stroke-width:0.17825131"
       x="16.939054"
       y="229.91397"
       id="text15563"><tspan
         sodipodi:role="line"
         id="tspan15561"
         x="16.939054"
         y="229.91397"
         style="text-align:center;text-anchor:middle;stroke-width:0.17825131">P0</tspan><tspan
         sodipodi:role="line"
         x="16.939054"
         y="238.82654"
         style="text-align:center;text-anchor:middle;stroke-width:0.17825131"
         id="tspan16566">server</tspan></text>
    <circle
       r="14.007988"
       cy="232.6619"
       cx="262.11331"
       id="circle15565"
       style="fill:none;fill-opacity:1;stroke:#ff8000;stroke-width:0.49648571;stroke-miterlimit:4;stroke-dasharray:none;stroke-dashoffset:0;stroke-opacity:1" />
    <text
       id="text15569"
       y="230.21437"
       x="261.88474"
       style="font-style:normal;font-weight:normal;font-size:6.04679012px;line-height:1.25;font-family:sans-serif;text-align:center;letter-spacing:0px;word-spacing:0px;text-anchor:middle;fill:#000000;fill-opacity:1;stroke:none;stroke-width:0.15116975"
       xml:space="preserve"><tspan
         style="text-align:center;text-anchor:middle;stroke-width:0.15116975"
         y="230.21437"
         x="261.88474"
         id="tspan15567"
         sodipodi:role="line">P1</tspan><tspan
         style="text-align:center;text-anchor:middle;stroke-width:0.15116975"
         y="237.77286"
         x="261.88474"
         sodipodi:role="line"
         id="tspan16568">cliente</tspan></text>
    <g
       id="g15939"
       style="stroke-width:0.79374999;stroke-miterlimit:4;stroke-dasharray:none"
       transform="matrix(0.93824074,0,0,0.93824074,0.21709498,5.6034367)">
      <path
         inkscape:connector-curvature="0"
         id="path15573"
         d="M 48.002975,275.64435 20.977678,257.50149"
         style="fill:#ff0000;stroke:#f19400;stroke-width:0.79374999;stroke-linecap:butt;stroke-linejoin:miter;stroke-miterlimit:4;stroke-dasharray:none;stroke-opacity:1;marker-end:url(#marker15647)" />
      <path
         inkscape:connector-curvature="0"
         id="path15575"
         d="M 22.867559,226.88542 47.43601,211.57738"
         style="fill:#ff0000;stroke:#f19400;stroke-width:0.79374999;stroke-linecap:butt;stroke-linejoin:miter;stroke-miterlimit:4;stroke-dasharray:none;stroke-opacity:1;marker-end:url(#Arrow1Send)" />
      <path
         style="fill:#ff0000;stroke:#f19400;stroke-width:0.79374999;stroke-linecap:butt;stroke-linejoin:miter;stroke-miterlimit:4;stroke-dasharray:none;stroke-opacity:1;marker-end:url(#marker15963)"
         d="M 48.002975,275.64435 20.977678,257.50149"
         id="path15959"
         inkscape:connector-curvature="0" />
    </g>
    <g
       id="g16375"
       transform="matrix(-0.93824074,0,0,-0.93824074,270.77919,462.53775)">
      <path
         style="fill:#ff0000;stroke:#f19400;stroke-width:0.79374999;stroke-linecap:butt;stroke-linejoin:miter;stroke-miterlimit:4;stroke-dasharray:none;stroke-opacity:1;marker-end:url(#marker15647)"
         d="M 48.002975,275.64435 20.977678,257.50149"
         id="path16367"
         inkscape:connector-curvature="0" />
      <path
         style="fill:#ff0000;stroke:#f19400;stroke-width:0.79374999;stroke-linecap:butt;stroke-linejoin:miter;stroke-miterlimit:4;stroke-dasharray:none;stroke-opacity:1;marker-end:url(#Arrow1Send)"
         d="M 22.867559,226.88542 47.43601,211.57738"
         id="path16369"
         inkscape:connector-curvature="0" />
      <path
         inkscape:connector-curvature="0"
         id="path16371"
         d="M 48.002975,275.64435 20.977678,257.50149"
         style="fill:#ff0000;stroke:#f19400;stroke-width:0.79374999;stroke-linecap:butt;stroke-linejoin:miter;stroke-miterlimit:4;stroke-dasharray:none;stroke-opacity:1;marker-end:url(#marker16386)" />
      <text
         xml:space="preserve"
         style="font-style:normal;font-weight:normal;font-size:4.72717714px;line-height:1.25;font-family:sans-serif;letter-spacing:0px;word-spacing:0px;fill:#000000;fill-opacity:1;stroke:none;stroke-width:0.11817943"
         x="-253.38818"
         y="-262.08325"
         id="text16552"
         transform="scale(-1)"><tspan
           sodipodi:role="line"
           id="tspan16550"
           x="-253.38818"
           y="-262.08325"
           style="stroke-width:0.11817943">queue</tspan></text>
      <text
         transform="scale(-1)"
         id="text16556"
         y="-222.39575"
         x="-253.38818"
         style="font-style:normal;font-weight:normal;font-size:4.72717714px;line-height:1.25;font-family:sans-serif;letter-spacing:0px;word-spacing:0px;fill:#000000;fill-opacity:1;stroke:none;stroke-width:0.11817943"
         xml:space="preserve"><tspan
           style="stroke-width:0.11817943"
           y="-222.39575"
           x="-253.38818"
           id="tspan16554"
           sodipodi:role="line">queue</tspan></text>
      <text
         xml:space="preserve"
         style="font-style:normal;font-weight:normal;font-size:4.72717714px;line-height:1.25;font-family:sans-serif;letter-spacing:0px;word-spacing:0px;fill:#000000;fill-opacity:1;stroke:none;stroke-width:0.11817943"
         x="-44.631935"
         y="-222.39575"
         id="text16560"
         transform="scale(-1)"><tspan
           sodipodi:role="line"
           id="tspan16558"
           x="-44.631935"
           y="-222.39575"
           style="stroke-width:0.11817943">queue</tspan></text>
      <text
         transform="scale(-1)"
         id="text16564"
         y="-259.43741"
         x="-44.631935"
         style="font-style:normal;font-weight:normal;font-size:4.72717714px;line-height:1.25;font-family:sans-serif;letter-spacing:0px;word-spacing:0px;fill:#000000;fill-opacity:1;stroke:none;stroke-width:0.11817943"
         xml:space="preserve"><tspan
           style="stroke-width:0.11817943"
           y="-259.43741"
           x="-44.631935"
           id="tspan16562"
           sodipodi:role="line">queue</tspan></text>
    </g>
    <text
       xml:space="preserve"
       style="font-style:normal;font-weight:normal;font-size:9.9297142px;line-height:1.25;font-family:sans-serif;letter-spacing:0px;word-spacing:0px;fill:#ff0000;fill-opacity:1;stroke:none;stroke-width:0.24824286"
       x="110.80364"
       y="218.96222"
       id="text16572"><tspan
         sodipodi:role="line"
         id="tspan16570"
         x="110.80364"
         y="218.96222"
         style="fill:#ff0000;stroke-width:0.24824286">mensaje A</tspan></text>
    <text
       id="text16576"
       y="260.38831"
       x="110.80364"
       style="font-style:normal;font-weight:normal;font-size:9.9297142px;line-height:1.25;font-family:sans-serif;letter-spacing:0px;word-spacing:0px;fill:#ff0000;fill-opacity:1;stroke:none;stroke-width:0.24824286"
       xml:space="preserve"><tspan
         style="fill:#ff0000;stroke-width:0.24824286"
         y="260.38831"
         x="110.80364"
         id="tspan16574"
         sodipodi:role="line">mensaje B</tspan></text>
  </g>
</svg>
