999
dxfrw 0.6.3
  0
SECTION
  2
HEADER
  9
$ACADVER
  1
AC1021
  9
$DWGCODEPAGE
  3
ANSI_1252
  9
$INSBASE
 10
0
 20
0
 30
0
  9
$EXTMIN
 10
-275.5710381114177
 20
-2243.979136344926
 30
0
  9
$EXTMAX
 10
2184.444382736499
 20
21.66486051511782
 30
0
  9
$LIMMIN
 10
0
 20
0
  9
$LIMMAX
 10
420
 20
297
  9
$ORTHOMODE
 70
    0
  9
$REGENMODE
 70
    1
  9
$FILLMODE
 70
    1
  9
$QTEXTMODE
 70
    0
  9
$MIRRTEXT
 70
    0
  9
$LTSCALE
 40
1
  9
$ATTMODE
 70
    0
  9
$TEXTSIZE
 40
2.5
  9
$TRACEWID
 40
15.68
  9
$TEXTSTYLE
  7
STANDARD
  9
$CLAYER
  8
Template
  9
$CELTYPE
  6
BYLAYER
  9
$CECOLOR
 62
  256
  9
$CELTSCALE
 40
1
  9
$DISPSILH
 70
    0
  9
$DIMSCALE
 40
2.5
  9
$DIMASZ
 40
2.5
  9
$DIMEXO
 40
0.625
  9
$DIMDLI
 40
3.75
  9
$DIMRND
 40
0
  9
$DIMDLE
 40
0
  9
$DIMEXE
 40
1.25
  9
$DIMTP
 40
0
  9
$DIMTM
 40
0
  9
$DIMTXT
 40
2.5
  9
$DIMCEN
 40
2.5
  9
$DIMTSZ
 40
0
  9
$DIMTOL
 70
    0
  9
$DIMLIM
 70
    0
  9
$DIMTIH
 70
    0
  9
$DIMTOH
 70
    0
  9
$DIMSE1
 70
    0
  9
$DIMSE2
 70
    0
  9
$DIMTAD
 70
    1
  9
$DIMZIN
 70
    8
  9
$DIMBLK
  1

  9
$DIMASO
 70
    1
  9
$DIMSHO
 70
    1
  9
$DIMPOST
  1

  9
$DIMAPOST
  1

  9
$DIMALT
 70
    0
  9
$DIMALTD
 70
    3
  9
$DIMALTF
 40
0.03937
  9
$DIMLFAC
 40
1
  9
$DIMTOFL
 70
    1
  9
$DIMTVP
 40
0
  9
$DIMTIX
 70
    0
  9
$DIMSOXD
 70
    0
  9
$DIMSAH
 70
    0
  9
$DIMBLK1
  1

  9
$DIMBLK2
  1

  9
$DIMSTYLE
  2
STANDARD
  9
$DIMCLRD
 70
    0
  9
$DIMCLRE
 70
    0
  9
$DIMCLRT
 70
    0
  9
$DIMTFAC
 40
1
  9
$DIMGAP
 40
0.625
  9
$DIMJUST
 70
    0
  9
$DIMSD1
 70
    0
  9
$DIMSD2
 70
    0
  9
$DIMTOLJ
 70
    0
  9
$DIMTZIN
 70
    8
  9
$DIMALTZ
 70
    0
  9
$DIMALTTZ
 70
    0
  9
$DIMUPT
 70
    0
  9
$DIMDEC
 70
    2
  9
$DIMTDEC
 70
    2
  9
$DIMALTU
 70
    2
  9
$DIMALTTD
 70
    3
  9
$DIMTXSTY
  7
STANDARD
  9
$DIMAUNIT
 70
    0
  9
$DIMADEC
 70
    0
  9
$DIMALTRND
 40
0
  9
$DIMAZIN
 70
    0
  9
$DIMDSEP
 70
   44
  9
$DIMATFIT
 70
    3
  9
$DIMFRAC
 70
    0
  9
$DIMLDRBLK
  1
STANDARD
  9
$DIMLUNIT
 70
    2
  9
$DIMLWD
 70
   -2
  9
$DIMLWE
 70
   -2
  9
$DIMTMOVE
 70
    0
  9
$DIMFXL
 40
1
  9
$DIMFXLON
 70
    0
  9
$DIMJOGANG
 40
0.7854
  9
$DIMTFILL
 70
    0
  9
$DIMTFILLCLR
 70
    0
  9
$DIMARCSYM
 70
    0
  9
$DIMLTYPE
  6

  9
$DIMLTEX1
  6

  9
$DIMLTEX2
  6

  9
$LUNITS
 70
    2
  9
$LUPREC
 70
    4
  9
$SKETCHINC
 40
1
  9
$FILLETRAD
 40
0
  9
$AUNITS
 70
    0
  9
$AUPREC
 70
    2
  9
$MENU
  1
.
  9
$ELEVATION
 40
0
  9
$PELEVATION
 40
0
  9
$THICKNESS
 40
0
  9
$LIMCHECK
 70
    0
  9
$CHAMFERA
 40
0
  9
$CHAMFERB
 40
0
  9
$CHAMFERC
 40
0
  9
$CHAMFERD
 40
0
  9
$SKPOLY
 70
    0
  9
$USRTIMER
 70
    1
  9
$ANGBASE
 50
0
  9
$ANGDIR
 70
    0
  9
$PDMODE
 70
   34
  9
$PDSIZE
 40
0
  9
$PLINEWID
 40
0
  9
$SPLFRAME
 70
    0
  9
$SPLINETYPE
 70
    2
  9
$SPLINESEGS
 70
    8
  9
$HANDSEED
  5
20000
  9
$SURFTAB1
 70
    6
  9
$SURFTAB2
 70
    6
  9
$SURFTYPE
 70
    6
  9
$SURFU
 70
    6
  9
$SURFV
 70
    6
  9
$UCSBASE
  2

  9
$UCSNAME
  2

  9
$UCSORG
 10
0
 20
0
 30
0
  9
$UCSXDIR
 10
1
 20
0
 30
0
  9
$UCSYDIR
 10
0
 20
1
 30
0
  9
$UCSORTHOREF
  2

  9
$UCSORTHOVIEW
 70
    0
  9
$UCSORGTOP
 10
0
 20
0
 30
0
  9
$UCSORGBOTTOM
 10
0
 20
0
 30
0
  9
$UCSORGLEFT
 10
0
 20
0
 30
0
  9
$UCSORGRIGHT
 10
0
 20
0
 30
0
  9
$UCSORGFRONT
 10
0
 20
0
 30
0
  9
$UCSORGBACK
 10
0
 20
0
 30
0
  9
$PUCSBASE
  2

  9
$PUCSNAME
  2

  9
$PUCSORG
 10
0
 20
0
 30
0
  9
$PUCSXDIR
 10
1
 20
0
 30
0
  9
$PUCSYDIR
 10
0
 20
1
 30
0
  9
$PUCSORTHOREF
  2

  9
$PUCSORTHOVIEW
 70
    0
  9
$PUCSORGTOP
 10
0
 20
0
 30
0
  9
$PUCSORGBOTTOM
 10
0
 20
0
 30
0
  9
$PUCSORGLEFT
 10
0
 20
0
 30
0
  9
$PUCSORGRIGHT
 10
0
 20
0
 30
0
  9
$PUCSORGFRONT
 10
0
 20
0
 30
0
  9
$PUCSORGBACK
 10
0
 20
0
 30
0
  9
$USERI1
 70
    0
  9
$USERI2
 70
    0
  9
$USERI3
 70
    0
  9
$USERI4
 70
    0
  9
$USERI5
 70
    0
  9
$USERR1
 40
0
  9
$USERR2
 40
0
  9
$USERR3
 40
0
  9
$USERR4
 40
0
  9
$USERR5
 40
0
  9
$WORLDVIEW
 70
    1
  9
$SHADEDGE
 70
    3
  9
$SHADEDIF
 70
   70
  9
$TILEMODE
 70
    1
  9
$MAXACTVP
 70
   64
  9
$PINSBASE
 10
576.7810978085718
 20
592.7538464118028
 30
0
  9
$PLIMCHECK
 70
    0
  9
$PEXTMIN
 10
0
 20
0
 30
0
  9
$PEXTMAX
 10
0
 20
0
 30
0
  9
$GRIDMODE
 70
    1
  9
$SNAPSTYLE
 70
    0
  9
$PLIMMIN
 10
0
 20
0
  9
$PLIMMAX
 10
841
 20
1189
  9
$UNITMODE
 70
    0
  9
$VISRETAIN
 70
    1
  9
$PLINEGEN
 70
    0
  9
$PSLTSCALE
 70
    1
  9
$TREEDEPTH
 70
 3020
  9
$CMLSTYLE
  2
Standard
  9
$CMLJUST
 70
    0
  9
$CMLSCALE
 40
20
  9
$PROXYGRAPHICS
 70
    1
  9
$MEASUREMENT
 70
    1
  9
$CELWEIGHT
370
   -1
  9
$ENDCAPS
280
    0
  9
$JOINSTYLE
280
    0
  9
$LWDISPLAY
290
    0
  9
$INSUNITS
 70
    4
  9
$HYPERLINKBASE
  1

  9
$STYLESHEET
  1

  9
$XEDIT
290
    1
  9
$CEPSNTYPE
380
    0
  9
$PSTYLEMODE
290
    1
  9
$EXTNAMES
290
    1
  9
$PSVPSCALE
 40
2.09766
  9
$OLESTARTUP
290
    0
  9
$SORTENTS
280
  127
  9
$INDEXCTL
280
    0
  9
$HIDETEXT
280
    1
  9
$XCLIPFRAME
290
    0
  9
$HALOGAP
280
    0
  9
$OBSCOLOR
 70
  257
  9
$OBSLTYPE
280
    0
  9
$INTERSECTIONDISPLAY
280
    0
  9
$INTERSECTIONCOLOR
 70
  257
  9
$DIMASSOC
280
    1
  9
$PROJECTNAME
  1

  9
$CAMERADISPLAY
290
    0
  9
$LENSLENGTH
 40
50
  9
$CAMERAHEIGHT
 40
0
  9
$STEPSPERSEC
 40
2
  9
$STEPSIZE
 40
50
  9
$3DDWFPREC
 40
2
  9
$PSOLWIDTH
 40
5
  9
$PSOLHEIGHT
 40
80
  9
$LOFTANG1
 40
1.570796326794897
  9
$LOFTANG2
 40
1.570796326794897
  9
$LOFTMAG1
 40
0
  9
$LOFTMAG2
 40
0
  9
$LOFTPARAM
 70
    7
  9
$LOFTNORMALS
280
    1
  9
$LATITUDE
 40
1
  9
$LONGITUDE
 40
1
  9
$NORTHDIRECTION
 40
0
  9
$TIMEZONE
 70
-8000
  9
$LIGHTGLYPHDISPLAY
280
    1
  9
$TILEMODELIGHTSYNCH
280
    1
  9
$SOLIDHIST
280
    1
  9
$SHOWHIST
280
    1
  9
$DWFFRAME
280
    2
  9
$DGNFRAME
280
    0
  9
$REALWORLDSCALE
290
    1
  9
$INTERFERECOLOR
 62
    1
  9
$CSHADOW
280
    0
  9
$SHADOWPLANELOCATION
 40
0
  0
ENDSEC
  0
SECTION
  2
CLASSES
  0
ENDSEC
  0
SECTION
  2
TABLES
  0
TABLE
  2
VPORT
  5
8
330
0
100
AcDbSymbolTable
 70
    1
  0
VPORT
  5
31
330
2
100
AcDbSymbolTableRecord
100
AcDbViewportTableRecord
  2
*ACTIVE
 70
    0
 10
0
 20
0
 11
1
 21
1
 12
-650.6833928290295
 22
-1394.958232571823
 13
0
 23
0
 14
10
 24
10
 15
10
 25
10
 16
0
 26
0
 36
1
 17
0
 27
0
 37
0
 40
534.8082680786544
 41
1.65
 42
50
 43
0
 44
0
 50
0
 51
0
 71
    0
 72
  100
 73
    1
 74
    3
 75
    0
 76
    1
 77
    0
 78
    0
281
    0
 65
    1
110
0
120
0
130
0
111
1
121
0
131
0
112
0
122
1
132
0
 79
    0
146
0
348
10020
 60
    7
 61
    5
292
1
282
    1
141
0
142
0
 63
  250
421
3358443
  0
ENDTAB
  0
TABLE
  2
LTYPE
  5
5
330
0
100
AcDbSymbolTable
 70
    4
  0
LTYPE
  5
14
330
5
100
AcDbSymbolTableRecord
100
AcDbLinetypeTableRecord
  2
ByBlock
 70
    0
  3

 72
   65
 73
    0
 40
0
  0
LTYPE
  5
15
330
5
100
AcDbSymbolTableRecord
100
AcDbLinetypeTableRecord
  2
ByLayer
 70
    0
  3

 72
   65
 73
    0
 40
0
  0
LTYPE
  5
16
330
5
100
AcDbSymbolTableRecord
100
AcDbLinetypeTableRecord
  2
Continuous
 70
    0
  3
Solid line
 72
   65
 73
    0
 40
0
  0
LTYPE
  5
32
330
5
100
AcDbSymbolTableRecord
100
AcDbLinetypeTableRecord
  2
DOT
 70
    0
  3
Dot . . . . . . . . . . . . . . . . . . . . . .
 72
   65
 73
    2
 40
6.35
 49
0
 74
    0
 49
-6.35
 74
    0
  0
LTYPE
  5
33
330
5
100
AcDbSymbolTableRecord
100
AcDbLinetypeTableRecord
  2
DOTTINY
 70
    0
  3
Dot (.15x) .....................................
 72
   65
 73
    2
 40
0.9525
 49
0
 74
    0
 49
-0.9525
 74
    0
  0
LTYPE
  5
34
330
5
100
AcDbSymbolTableRecord
100
AcDbLinetypeTableRecord
  2
DOT2
 70
    0
  3
Dot (.5x) .....................................
 72
   65
 73
    2
 40
3.175
 49
0
 74
    0
 49
-3.175
 74
    0
  0
LTYPE
  5
35
330
5
100
AcDbSymbolTableRecord
100
AcDbLinetypeTableRecord
  2
DOTX2
 70
    0
  3
Dot (2x) .  .  .  .  .  .  .  .  .  .  .  .  .
 72
   65
 73
    2
 40
12.7
 49
0
 74
    0
 49
-12.7
 74
    0
  0
LTYPE
  5
36
330
5
100
AcDbSymbolTableRecord
100
AcDbLinetypeTableRecord
  2
DASHED
 70
    0
  3
Dashed _ _ _ _ _ _ _ _ _ _ _ _ _ _ _ _ _
 72
   65
 73
    2
 40
19.05
 49
12.7
 74
    0
 49
-6.35
 74
    0
  0
LTYPE
  5
37
330
5
100
AcDbSymbolTableRecord
100
AcDbLinetypeTableRecord
  2
DASHEDTINY
 70
    0
  3
Dashed (.15x) _ _ _ _ _ _ _ _ _ _ _ _ _ _ _ _ _
 72
   65
 73
    2
 40
2.8575
 49
1.905
 74
    0
 49
-0.9525
 74
    0
  0
LTYPE
  5
38
330
5
100
AcDbSymbolTableRecord
100
AcDbLinetypeTableRecord
  2
DASHED2
 70
    0
  3
Dashed (.5x) _ _ _ _ _ _ _ _ _ _ _ _ _ _ _ _ _
 72
   65
 73
    2
 40
9.524999999999999
 49
6.35
 74
    0
 49
-3.175
 74
    0
  0
LTYPE
  5
39
330
5
100
AcDbSymbolTableRecord
100
AcDbLinetypeTableRecord
  2
DASHEDX2
 70
    0
  3
Dashed (2x) ____  ____  ____  ____  ____  ___
 72
   65
 73
    2
 40
38.09999999999999
 49
25.4
 74
    0
 49
-12.7
 74
    0
  0
LTYPE
  5
3A
330
5
100
AcDbSymbolTableRecord
100
AcDbLinetypeTableRecord
  2
DASHDOT
 70
    0
  3
Dash dot __ . __ . __ . __ . __ . __ . __ . __
 72
   65
 73
    4
 40
25.4
 49
12.7
 74
    0
 49
-6.35
 74
    0
 49
0
 74
    0
 49
-6.35
 74
    0
  0
LTYPE
  5
3B
330
5
100
AcDbSymbolTableRecord
100
AcDbLinetypeTableRecord
  2
DASHDOTTINY
 70
    0
  3
Dash dot (.15x) _._._._._._._._._._._._._._._.
 72
   65
 73
    4
 40
3.81
 49
1.905
 74
    0
 49
-0.9525
 74
    0
 49
0
 74
    0
 49
-0.9525
 74
    0
  0
LTYPE
  5
3C
330
5
100
AcDbSymbolTableRecord
100
AcDbLinetypeTableRecord
  2
DASHDOT2
 70
    0
  3
Dash dot (.5x) _._._._._._._._._._._._._._._.
 72
   65
 73
    4
 40
12.7
 49
6.35
 74
    0
 49
-3.175
 74
    0
 49
0
 74
    0
 49
-3.175
 74
    0
  0
LTYPE
  5
3D
330
5
100
AcDbSymbolTableRecord
100
AcDbLinetypeTableRecord
  2
DASHDOTX2
 70
    0
  3
Dash dot (2x) ____  .  ____  .  ____  .  ___
 72
   65
 73
    4
 40
50.8
 49
25.4
 74
    0
 49
-12.7
 74
    0
 49
0
 74
    0
 49
-12.7
 74
    0
  0
LTYPE
  5
3E
330
5
100
AcDbSymbolTableRecord
100
AcDbLinetypeTableRecord
  2
DIVIDE
 70
    0
  3
Divide ____ . . ____ . . ____ . . ____ . . ____
 72
   65
 73
    6
 40
31.75
 49
12.7
 74
    0
 49
-6.35
 74
    0
 49
0
 74
    0
 49
-6.35
 74
    0
 49
0
 74
    0
 49
-6.35
 74
    0
  0
LTYPE
  5
3F
330
5
100
AcDbSymbolTableRecord
100
AcDbLinetypeTableRecord
  2
DIVIDETINY
 70
    0
  3
Divide (.15x) __..__..__..__..__..__..__..__.._
 72
   65
 73
    6
 40
4.7625
 49
1.905
 74
    0
 49
-0.9525
 74
    0
 49
0
 74
    0
 49
-0.9525
 74
    0
 49
0
 74
    0
 49
-0.9525
 74
    0
  0
LTYPE
  5
40
330
5
100
AcDbSymbolTableRecord
100
AcDbLinetypeTableRecord
  2
DIVIDE2
 70
    0
  3
Divide (.5x) __..__..__..__..__..__..__..__.._
 72
   65
 73
    6
 40
15.875
 49
6.35
 74
    0
 49
-3.175
 74
    0
 49
0
 74
    0
 49
-3.175
 74
    0
 49
0
 74
    0
 49
-3.175
 74
    0
  0
LTYPE
  5
41
330
5
100
AcDbSymbolTableRecord
100
AcDbLinetypeTableRecord
  2
DIVIDEX2
 70
    0
  3
Divide (2x) ________  .  .  ________  .  .  _
 72
   65
 73
    6
 40
63.5
 49
25.4
 74
    0
 49
-12.7
 74
    0
 49
0
 74
    0
 49
-12.7
 74
    0
 49
0
 74
    0
 49
-12.7
 74
    0
  0
LTYPE
  5
42
330
5
100
AcDbSymbolTableRecord
100
AcDbLinetypeTableRecord
  2
BORDER
 70
    0
  3
Border __ __ . __ __ . __ __ . __ __ . __ __ .
 72
   65
 73
    6
 40
44.45
 49
12.7
 74
    0
 49
-6.35
 74
    0
 49
12.7
 74
    0
 49
-6.35
 74
    0
 49
0
 74
    0
 49
-6.35
 74
    0
  0
LTYPE
  5
43
330
5
100
AcDbSymbolTableRecord
100
AcDbLinetypeTableRecord
  2
BORDERTINY
 70
    0
  3
Border (.15x) __.__.__.__.__.__.__.__.__.__.__.
 72
   65
 73
    6
 40
6.6675
 49
1.905
 74
    0
 49
-0.9525
 74
    0
 49
1.905
 74
    0
 49
-0.9525
 74
    0
 49
0
 74
    0
 49
-0.9525
 74
    0
  0
LTYPE
  5
44
330
5
100
AcDbSymbolTableRecord
100
AcDbLinetypeTableRecord
  2
BORDER2
 70
    0
  3
Border (.5x) __.__.__.__.__.__.__.__.__.__.__.
 72
   65
 73
    6
 40
22.225
 49
6.35
 74
    0
 49
-3.175
 74
    0
 49
6.35
 74
    0
 49
-3.175
 74
    0
 49
0
 74
    0
 49
-3.175
 74
    0
  0
LTYPE
  5
45
330
5
100
AcDbSymbolTableRecord
100
AcDbLinetypeTableRecord
  2
BORDERX2
 70
    0
  3
Border (2x) ____  ____  .  ____  ____  .  ___
 72
   65
 73
    6
 40
88.89999999999999
 49
25.4
 74
    0
 49
-12.7
 74
    0
 49
25.4
 74
    0
 49
-12.7
 74
    0
 49
0
 74
    0
 49
-12.7
 74
    0
  0
LTYPE
  5
46
330
5
100
AcDbSymbolTableRecord
100
AcDbLinetypeTableRecord
  2
CENTER
 70
    0
  3
Center ____ _ ____ _ ____ _ ____ _ ____ _ ____
 72
   65
 73
    4
 40
50.8
 49
31.75
 74
    0
 49
-6.35
 74
    0
 49
6.35
 74
    0
 49
-6.35
 74
    0
  0
LTYPE
  5
47
330
5
100
AcDbSymbolTableRecord
100
AcDbLinetypeTableRecord
  2
CENTERTINY
 70
    0
  3
Center (.15x) ___ _ ___ _ ___ _ ___ _ ___ _ ___
 72
   65
 73
    4
 40
7.619999999999999
 49
4.7625
 74
    0
 49
-0.9525
 74
    0
 49
0.9525
 74
    0
 49
-0.9525
 74
    0
  0
LTYPE
  5
48
330
5
100
AcDbSymbolTableRecord
100
AcDbLinetypeTableRecord
  2
CENTER2
 70
    0
  3
Center (.5x) ___ _ ___ _ ___ _ ___ _ ___ _ ___
 72
   65
 73
    4
 40
28.575
 49
19.05
 74
    0
 49
-3.175
 74
    0
 49
3.175
 74
    0
 49
-3.175
 74
    0
  0
LTYPE
  5
49
330
5
100
AcDbSymbolTableRecord
100
AcDbLinetypeTableRecord
  2
CENTERX2
 70
    0
  3
Center (2x) ________  __  ________  __  _____
 72
   65
 73
    4
 40
101.6
 49
63.5
 74
    0
 49
-12.7
 74
    0
 49
12.7
 74
    0
 49
-12.7
 74
    0
  0
ENDTAB
  0
TABLE
  2
LAYER
  5
2
330
0
100
AcDbSymbolTable
 70
    1
  0
LAYER
  5
10
330
2
100
AcDbSymbolTableRecord
100
AcDbLayerTableRecord
  2
0
 70
    0
 62
    7
  6
CONTINUOUS
370
    0
390
F
  0
LAYER
  5
4A
330
2
100
AcDbSymbolTableRecord
100
AcDbLayerTableRecord
  2
Template
 70
    0
 62
    1
  6
CONTINUOUS
370
    0
390
F
  0
ENDTAB
  0
TABLE
  2
STYLE
  5
3
330
0
100
AcDbSymbolTable
 70
    3
  0
STYLE
  5
4B
330
2
100
AcDbSymbolTableRecord
100
AcDbTextStyleTableRecord
  2
STANDARD
 70
    0
 40
0
 41
1
 50
0
 71
    0
 42
1
  3
STANDARD
  4

  0
STYLE
  5
4C
330
2
100
AcDbSymbolTableRecord
100
AcDbTextStyleTableRecord
  2
standard
 70
    0
 40
0
 41
1
 50
0
 71
    0
 42
1
  3
standard
  4

  0
ENDTAB
  0
TABLE
  2
VIEW
  5
6
330
0
100
AcDbSymbolTable
 70
    0
  0
ENDTAB
  0
TABLE
  2
UCS
  5
7
330
0
100
AcDbSymbolTable
 70
    0
  0
ENDTAB
  0
TABLE
  2
APPID
  5
9
330
0
100
AcDbSymbolTable
 70
    1
  0
APPID
  5
12
330
9
100
AcDbSymbolTableRecord
100
AcDbRegAppTableRecord
  2
ACAD
 70
    0
  0
APPID
  5
4D
330
9
100
AcDbSymbolTableRecord
100
AcDbRegAppTableRecord
  2
LibreCad
 70
    0
  0
ENDTAB
  0
TABLE
  2
DIMSTYLE
  5
A
330
0
100
AcDbSymbolTable
 70
    1
100
AcDbDimStyleTable
 71
    1
  0
DIMSTYLE
105
4E
330
A
100
AcDbSymbolTableRecord
100
AcDbDimStyleTableRecord
  2
Standard
 70
    0
 40
2.5
 41
2.5
 42
0.625
 43
0.38
 44
1.25
 45
0
 46
0
 47
0
 48
0
 49
1
140
2.5
141
0.09
142
0
143
25.4
144
1
145
0
146
1
147
0.625
148
0
 71
    0
 72
    0
 73
    0
 74
    1
 75
    0
 76
    0
 77
    0
 78
    8
 79
    0
170
    0
171
    2
172
    0
173
    0
174
    0
175
    0
176
    0
177
    0
178
    0
179
    0
271
    2
272
    4
273
    2
274
    2
275
    0
276
    0
277
    2
278
   44
279
    0
280
    0
281
    0
282
    0
283
    1
284
    0
285
    0
286
    0
288
    0
289
    3
340
STANDARD
341

371
   -2
372
   -2
  0
ENDTAB
  0
TABLE
  2
BLOCK_RECORD
  5
1
330
0
100
AcDbSymbolTable
 70
    2
  0
BLOCK_RECORD
  5
1F
330
1
100
AcDbSymbolTableRecord
100
AcDbBlockTableRecord
  2
*Model_Space
 70
    0
280
    1
281
    0
  0
BLOCK_RECORD
  5
1E
330
1
100
AcDbSymbolTableRecord
100
AcDbBlockTableRecord
  2
*Paper_Space
 70
    0
280
    1
281
    0
  0
ENDTAB
  0
ENDSEC
  0
SECTION
  2
BLOCKS
  0
BLOCK
  5
20
330
1F
100
AcDbEntity
  8
0
100
AcDbBlockBegin
  2
*Model_Space
 70
    0
 10
0
 20
0
 30
0
  3
*Model_Space
  1

  0
ENDBLK
  5
21
330
1F
100
AcDbEntity
  8
0
100
AcDbBlockEnd
  0
BLOCK
  5
1C
330
1B
100
AcDbEntity
  8
0
100
AcDbBlockBegin
  2
*Paper_Space
 70
    0
 10
0
 20
0
 30
0
  3
*Paper_Space
  1

  0
ENDBLK
  5
1D
330
1F
100
AcDbEntity
  8
0
100
AcDbBlockEnd
  0
ENDSEC
  0
SECTION
  2
ENTITIES
  0
HATCH
  5
4F
100
AcDbEntity
  8
0
  6
ByLayer
 62
  256
370
   80
100
AcDbHatch
 10
0
 20
0
 30
0
210
0
220
0
230
1
  2
SOLID
 70
    1
 71
    0
 91
    1
 92
    0
 93
    1
 72
    2
 10
289.1635479295917
 20
-1000.641539012653
 40
10.17551358577776
 50
0
 51
360
 73
    1
 97
    0
 75
    0
 76
    1
 98
    0
  0
MTEXT
  5
50
100
AcDbEntity
  8
0
  6
ByLayer
 62
  256
370
   -1
100
AcDbMText
 10
-269.0053513960309
 20
21.66486051511658
 30
0
 40
20
 41
235.0000000000041
 71
    1
 72
    1
  1
Corriente Alterna
  7
standard
210
0
220
0
230
1
 50
0
 73
    2
 44
1
  0
MTEXT
  5
51
100
AcDbEntity
  8
0
  6
ByLayer
 62
  256
370
   80
100
AcDbMText
 10
-268.1723674895586
 20
-44.78988801622649
 30
0
 40
20
 41
246.1111111111161
 71
    1
 72
    1
  1
Corriente Continua
  7
standard
210
0
220
0
230
1
 50
0
 73
    2
 44
1
  0
LINE
  5
52
100
AcDbEntity
  8
0
  6
ByLayer
 62
  256
370
   80
100
AcDbLine
 10
150.2846944927561
 20
-110.5932514777393
 11
150.2846944927561
 21
-180.5932514777392
  0
LINE
  5
53
100
AcDbEntity
  8
0
  6
ByLayer
 62
  256
370
   80
100
AcDbLine
 10
119.7625899810459
 20
-180.4558347341523
 11
179.7625899810459
 21
-180.4558347341523
  0
LINE
  5
54
100
AcDbEntity
  8
0
  6
ByLayer
 62
  256
370
   80
100
AcDbLine
 10
129.7089745726921
 20
-190.4022193257985
 11
169.7089745726921
 21
-190.4022193257985
  0
LINE
  5
55
100
AcDbEntity
  8
0
  6
ByLayer
 62
  256
370
   80
100
AcDbLine
 10
139.8583466049841
 20
-200.5515913580905
 11
159.8583466049841
 21
-200.5515913580905
  0
LINE
  5
56
100
AcDbEntity
  8
0
  6
ByLayer
 62
  256
370
   80
100
AcDbLine
 10
143.9794064305893
 20
-210.461538475532
 11
153.9794064305893
 21
-210.461538475532
  0
CIRCLE
  5
57
100
AcDbEntity
  8
0
  6
ByLayer
 62
  256
370
   80
100
AcDbCircle
 10
148.5767930333486
 20
-189.4642586138362
 40
42.19954493376907
  0
LINE
  5
58
100
AcDbEntity
  8
0
  6
ByLayer
 62
  256
370
   80
100
AcDbLine
 10
151.3620405057358
 20
-305.5928798270604
 11
151.3620405057358
 21
-375.5928798270603
  0
LINE
  5
59
100
AcDbEntity
  8
0
  6
ByLayer
 62
  256
370
   80
100
AcDbLine
 10
120.8399359940256
 20
-375.4554630834733
 11
180.8399359940256
 21
-375.4554630834733
  0
LINE
  5
5A
100
AcDbEntity
  8
0
  6
ByLayer
 62
  256
370
   80
100
AcDbLine
 10
130.7863205856718
 20
-385.4018476751195
 11
170.7863205856718
 21
-385.4018476751195
  0
LINE
  5
5B
100
AcDbEntity
  8
0
  6
ByLayer
 62
  256
370
   80
100
AcDbLine
 10
140.9356926179638
 20
-395.5512197074115
 11
160.9356926179638
 21
-395.5512197074115
  0
LINE
  5
5C
100
AcDbEntity
  8
0
  6
ByLayer
 62
  256
370
   80
100
AcDbLine
 10
145.056752443569
 20
-405.4611668248531
 11
155.056752443569
 21
-405.4611668248531
  0
MTEXT
  5
5D
100
AcDbEntity
  8
0
  6
ByLayer
 62
  256
370
   80
100
AcDbMText
 10
-275.5710381114177
 20
-172.2008148438135
 30
0
 40
20
 41
356.6666666666703
 71
    1
 72
    1
  1
Toma Corriente Protección
  7
standard
210
0
220
0
230
1
 50
0
 73
    2
 44
1
  0
MTEXT
  5
5E
100
AcDbEntity
  8
0
  6
ByLayer
 62
  256
370
   80
100
AcDbMText
 10
-266.0170698200608
 20
-328.6912485734782
 30
0
 40
20
 41
324.9999957599599
 71
    1
 72
    1
  1
Toma Tierra de Servicio
  7
standard
210
0
220
0
230
1
 50
0
 73
    2
 44
1
  0
MTEXT
  5
5F
100
AcDbEntity
  8
0
  6
ByLayer
 62
  256
370
   80
100
AcDbMText
 10
-248.303397041008
 20
-480.1376912170512
 30
0
 40
20
 41
438.3333539048259
 71
    1
 72
    1
  1
Alimentación desde Piso Inferior
  7
standard
210
0
220
0
230
1
 50
0
 73
    2
 44
1
  0
LINE
  5
60
100
AcDbEntity
  8
0
  6
ByLayer
 62
  256
370
   80
100
AcDbLine
 10
278.2500357650466
 20
-486.47196154973
 11
338.2500357650466
 21
-486.47196154973
  0
LINE
  5
61
100
AcDbEntity
  8
0
  6
ByLayer
 62
  256
370
   80
100
AcDbLine
 10
239.1229343879464
 20
-523.1324903600782
 11
276.9108197624512
 21
-489.0184271747613
  0
LINE
  5
62
100
AcDbEntity
  8
0
  6
ByLayer
 62
  256
370
   80
100
AcDbLine
 10
269.1467850597625
 20
-488.7435621869592
 11
277.1701126321435
 21
-488.6854221320869
  0
LINE
  5
63
100
AcDbEntity
  8
0
  6
ByLayer
 62
  256
370
   80
100
AcDbLine
 10
277.1701126321435
 20
-488.6854221320869
 11
277.1701126321435
 21
-497.0575900337017
  0
LINE
  5
64
100
AcDbEntity
  8
0
  6
ByLayer
 62
  256
370
   80
100
AcDbLine
 10
238.9361442454836
 20
-591.1847232318778
 11
298.9361442454836
 21
-591.1847232318778
  0
LINE
  5
65
100
AcDbEntity
  8
0
  6
ByLayer
 62
  256
370
   80
100
AcDbLine
 10
301.687218148646
 20
-589.4989388323327
 11
339.4751035231508
 21
-555.3848756470157
  0
LINE
  5
66
100
AcDbEntity
  8
0
  6
ByLayer
 62
  256
370
   80
100
AcDbLine
 10
300.5150862197382
 20
-590.2889660217734
 11
300.5150862197382
 21
-580.2889660217734
  0
LINE
  5
67
100
AcDbEntity
  8
0
  6
ByLayer
 62
  256
370
   80
100
AcDbLine
 10
300.7537796956872
 20
-590.2889660217734
 11
310.7537796956872
 21
-590.2889660217734
  0
MTEXT
  5
68
100
AcDbEntity
  8
0
  6
ByLayer
 62
  256
370
   80
100
AcDbMText
 10
-261.1738560584506
 20
-572.0097732706278
 30
0
 40
20
 41
451.6666829981153
 71
    1
 72
    1
  1
Alimentación desde Piso Superior\P
  7
standard
210
0
220
0
230
1
 50
0
 73
    2
 44
1
  0
LINE
  5
69
100
AcDbEntity
  8
0
  6
ByLayer
 62
  256
370
   80
100
AcDbLine
 10
266.8483491662247
 20
-746.1770451895625
 11
326.8483491662247
 21
-746.1770451895625
  0
LINE
  5
6A
100
AcDbEntity
  8
0
  6
ByLayer
 62
  256
370
   80
100
AcDbLine
 10
227.7212477891245
 20
-782.8375739999108
 11
265.5091331636293
 21
-748.7235108145937
  0
LINE
  5
6B
100
AcDbEntity
  8
0
  6
ByLayer
 62
  256
370
   80
100
AcDbLine
 10
227.5074000146852
 20
-783.3759959268541
 11
227.5074000146852
 21
-773.3759959268541
  0
LINE
  5
6C
100
AcDbEntity
  8
0
  6
ByLayer
 62
  256
370
   80
100
AcDbLine
 10
227.5074000146852
 20
-784.5487144836309
 11
237.5074000146852
 21
-784.5487144836309
  0
LINE
  5
6D
100
AcDbEntity
  8
0
  6
ByLayer
 62
  256
370
   80
100
AcDbLine
 10
231.7340788772278
 20
-910.9564255824376
 11
291.7340788772278
 21
-910.9564255824376
  0
LINE
  5
6E
100
AcDbEntity
  8
0
  6
ByLayer
 62
  256
370
   80
100
AcDbLine
 10
294.4851527803902
 20
-909.2706411828925
 11
332.273038154895
 21
-875.1565779975756
  0
LINE
  5
6F
100
AcDbEntity
  8
0
  6
ByLayer
 62
  256
370
   80
100
AcDbLine
 10
293.3130208514824
 20
-910.0606683723332
 11
293.3130208514824
 21
-900.0606683723332
  0
LINE
  5
70
100
AcDbEntity
  8
0
  6
ByLayer
 62
  256
370
   80
100
AcDbLine
 10
293.5517143274313
 20
-910.0606683723332
 11
303.5517143274313
 21
-910.0606683723332
  0
MTEXT
  5
71
100
AcDbEntity
  8
0
  6
ByLayer
 62
  256
370
   80
100
AcDbMText
 10
-263.5955924781642
 20
-893.0561056637256
 30
0
 40
20
 41
440.5555616012631
 71
    1
 72
    1
  1
Alimentación hacia Piso Superior
  7
standard
210
0
220
0
230
1
 50
0
 73
    2
 44
1
  0
MTEXT
  5
72
100
AcDbEntity
  8
0
  6
ByLayer
 62
  256
370
   80
100
AcDbMText
 10
-253.2611128347039
 20
-756.5046107941664
 30
0
 40
20
 41
427.2222325079737
 71
    1
 72
    1
  1
Alimentación hacia Piso Inferior
  7
standard
210
0
220
0
230
1
 50
0
 73
    2
 44
1
  0
LINE
  5
73
100
AcDbEntity
  8
0
  6
ByLayer
 62
  256
370
   80
100
AcDbLine
 10
227.3493125502696
 20
-1000.532966007867
 11
347.3493125502696
 21
-1000.532966007867
  0
LINE
  5
74
100
AcDbEntity
  8
0
  6
ByLayer
 62
  256
370
   80
100
AcDbLine
 10
289.2872558114935
 20
-1000.329298941776
 11
289.2872558114935
 21
-1060.329298941776
  0
CIRCLE
  5
75
100
AcDbEntity
  8
0
  6
ByLayer
 62
  256
370
   80
100
AcDbCircle
 10
289.1635479295917
 20
-1000.641539012653
 40
10.17551358577776
  0
MTEXT
  5
76
100
AcDbEntity
  8
0
  6
ByLayer
 62
  256
370
   80
100
AcDbMText
 10
-260.7245836142271
 20
-997.2158219433046
 30
0
 40
20
 41
298.8888888888938
 71
    1
 72
    1
  1
Arranque o Derivación
  7
standard
210
0
220
0
230
1
 50
0
 73
    2
 44
1
  0
MTEXT
  5
77
100
AcDbEntity
  8
0
  6
DASHEDTINY
 62
  256
370
  140
100
AcDbMText
 10
-267.2094985618531
 20
-1095.318214825614
 30
0
 40
20
 41
442.7777880635302
 71
    1
 72
    1
  1
Bandeja o Escalerilla Portacable
  7
standard
210
0
220
0
230
1
 50
0
 73
    2
 44
1
  0
LINE
  5
78
100
AcDbEntity
  8
0
  6
CONTINUOUS
 62
  256
370
   50
100
AcDbLine
 10
230.4391964066416
 20
-1159.232293373869
 11
350.4391964066416
 21
-1159.232293373869
  0
LINE
  5
79
100
AcDbEntity
  8
0
  6
DASHED2
 62
  256
370
   80
100
AcDbLine
 10
229.8651740774997
 20
-1180.240185859967
 11
349.8651740774997
 21
-1180.240185859967
  0
LINE
  5
7A
100
AcDbEntity
  8
0
  6
DASHED2
 62
  256
370
   80
100
AcDbLine
 10
229.2664778498551
 20
-1100.010006256594
 11
349.2664778498552
 21
-1100.010006256594
  0
LINE
  5
7B
100
AcDbEntity
  8
0
  6
DASHED2
 62
  256
370
  140
100
AcDbLine
 10
229.2664778498551
 20
-1119.758839933974
 11
349.2664778498552
 21
-1119.758839933974
  0
ELLIPSE
  5
7C
100
AcDbEntity
  8
0
  6
DASHEDTINY
 62
  256
370
  140
100
AcDbEllipse
 10
289.4438435841187
 20
-1158.392525388893
 30
0
 11
0
 21
-21.60028683463565
 31
0
 40
0.525667699799267
 41
0
 42
6.283185307179586
  0
MTEXT
  5
7D
100
AcDbEntity
  8
0
  6
DASHEDTINY
 62
  256
370
  140
100
AcDbMText
 10
-262.1551794045312
 20
-1178.257894246739
 30
0
 40
20
 41
232.7777777777828
 71
    1
 72
    1
  1
Cable Concéntrico
  7
standard
210
0
220
0
230
1
 50
0
 73
    2
 44
1
  0
LINE
  5
7E
100
AcDbEntity
  8
0
  6
DASHEDTINY
 62
  256
370
  140
100
AcDbLine
 10
-243.791366575662
 20
-2173.979136344926
 11
-243.791366575662
 21
-2223.979136344926
  0
ARC
  5
7F
100
AcDbEntity
  8
0
  6
DASHEDTINY
 62
  256
370
  140
100
AcDbCircle
 10
-213.791366575662
 20
-2211.479136344926
 40
32.5
100
AcDbArc
 50
202.6198649480404
 51
337.3801350519595
  0
ARC
  5
80
100
AcDbEntity
  8
0
  6
DASHEDTINY
 62
  256
370
  140
100
AcDbCircle
 10
-153.791366575662
 20
-2186.479136344926
 40
32.5
100
AcDbArc
 50
22.61986494804042
 51
157.3801350519596
  0
LINE
  5
81
100
AcDbEntity
  8
0
  6
DASHEDTINY
 62
  256
370
  140
100
AcDbLine
 10
-183.791366575662
 20
-2223.979136344926
 11
-183.791366575662
 21
-2173.979136344926
  0
LINE
  5
82
100
AcDbEntity
  8
0
  6
DASHEDTINY
 62
  256
370
  140
100
AcDbLine
 10
229.1632251688453
 20
-1236.740233652124
 11
229.1632251688453
 21
-1261.740233652124
  0
ARC
  5
83
100
AcDbEntity
  8
0
  6
DASHEDTINY
 62
  256
370
  140
100
AcDbCircle
 10
244.1632251688453
 20
-1255.490233652124
 40
16.25
100
AcDbArc
 50
202.6198649480404
 51
337.3801350519595
  0
ARC
  5
84
100
AcDbEntity
  8
0
  6
DASHEDTINY
 62
  256
370
  140
100
AcDbCircle
 10
274.1632251688453
 20
-1242.990233652124
 40
16.25
100
AcDbArc
 50
22.61986494804042
 51
157.3801350519596
  0
LINE
  5
85
100
AcDbEntity
  8
0
  6
DASHEDTINY
 62
  256
370
  140
100
AcDbLine
 10
259.1632251688453
 20
-1261.740233652124
 11
259.1632251688453
 21
-1236.740233652124
  0
LINE
  5
86
100
AcDbEntity
  8
0
  6
DASHEDTINY
 62
  256
370
  140
100
AcDbLine
 10
289.2647702345373
 20
-1238.279432810694
 11
289.2647702345373
 21
-1263.279432810694
  0
ARC
  5
87
100
AcDbEntity
  8
0
  6
DASHEDTINY
 62
  256
370
  140
100
AcDbCircle
 10
304.2647702345373
 20
-1257.029432810694
 40
16.25
100
AcDbArc
 50
202.6198649480404
 51
337.3801350519595
  0
ARC
  5
88
100
AcDbEntity
  8
0
  6
DASHEDTINY
 62
  256
370
  140
100
AcDbCircle
 10
334.2647702345373
 20
-1244.529432810694
 40
16.25
100
AcDbArc
 50
22.61986494804042
 51
157.3801350519596
  0
LINE
  5
89
100
AcDbEntity
  8
0
  6
DASHEDTINY
 62
  256
370
  140
100
AcDbLine
 10
319.2647702345373
 20
-1263.279432810694
 11
319.2647702345373
 21
-1238.279432810694
  0
LINE
  5
8A
100
AcDbEntity
  8
0
  6
DASHEDTINY
 62
  256
370
  140
100
AcDbLine
 10
349.2421722282835
 20
-1239.641725759118
 11
349.2421722282835
 21
-1264.641725759118
  0
ARC
  5
8B
100
AcDbEntity
  8
0
  6
DASHEDTINY
 62
  256
370
  140
100
AcDbCircle
 10
364.2421722282835
 20
-1258.391725759118
 40
16.25
100
AcDbArc
 50
202.6198649480404
 51
337.3801350519595
  0
ARC
  5
8C
100
AcDbEntity
  8
0
  6
DASHEDTINY
 62
  256
370
  140
100
AcDbCircle
 10
394.2421722282835
 20
-1245.891725759118
 40
16.25
100
AcDbArc
 50
22.61986494804042
 51
157.3801350519596
  0
LINE
  5
8D
100
AcDbEntity
  8
0
  6
DASHEDTINY
 62
  256
370
  140
100
AcDbLine
 10
379.2421722282835
 20
-1264.641725759118
 11
379.2421722282835
 21
-1239.641725759118
  0
LINE
  5
8E
100
AcDbEntity
  8
0
  6
DASHEDTINY
 62
  256
370
  140
100
AcDbLine
 10
409.4110533063154
 20
-1265.415286812401
 11
409.4110533063154
 21
-1240.415286812401
  0
MTEXT
  5
8F
100
AcDbEntity
  8
0
  6
DASHEDTINY
 62
  256
370
  140
100
AcDbMText
 10
-260.667746286107
 20
-1250.421219026588
 30
0
 40
20
 41
181.6666666666707
 71
    1
 72
    1
  1
Cable Flexible
  7
standard
210
0
220
0
230
1
 50
0
 73
    2
 44
1
  0
MTEXT
  5
90
100
AcDbEntity
  8
0
  6
ByLayer
 62
  256
370
  120
100
AcDbMText
 10
1025.946705709724
 20
-846.5504792326785
 30
0
 40
20
 41
0
 71
    1
 72
    1
  1

  7
standard
210
0
220
0
230
1
 50
0
 73
    2
 44
1
  0
LWPOLYLINE
  5
91
100
AcDbEntity
  8
0
  6
ByLayer
 62
  256
370
   -1
100
AcDbPolyline
 90
    4
 70
    1
 43
0
 10
995.4443827364989
 20
-851.4021161082691
 10
2184.444382736499
 20
-851.4021161082691
 10
2184.444382736499
 20
-10.40211610826907
 10
995.4443827364989
 20
-10.40211610826907
  0
LWPOLYLINE
  5
92
100
AcDbEntity
  8
0
  6
ByLayer
 62
  256
370
   -1
100
AcDbPolyline
 90
    4
 70
    1
 43
0
 10
1030.444382736499
 20
-841.4021161082691
 10
2174.444382736499
 20
-841.4021161082691
 10
2174.444382736499
 20
-20.40211610826907
 10
1030.444382736499
 20
-20.40211610826907
  0
MTEXT
  5
93
100
AcDbEntity
  8
0
  6
ByLayer
 62
  256
370
   -1
100
AcDbMText
 10
1906.646701352103
 20
-802.1479367236418
 30
0
 40
6
 41
34.00000000000083
 71
    1
 72
    1
  1
Ubicación
  7
STANDARD
210
0
220
0
230
1
 50
0
 73
    2
 44
1
  0
MTEXT
  5
94
100
AcDbEntity
  8
0
  6
ByLayer
 62
  256
370
   -1
100
AcDbMText
 10
1996.94603022392
 20
-803.9070145588071
 30
0
 40
6
 41
39.33333641905708
 71
    1
 72
    1
  1
Inscripción
  7
STANDARD
210
0
220
0
230
1
 50
0
 73
    2
 44
1
  0
LWPOLYLINE
  5
95
100
AcDbEntity
  8
0
  6
ByLayer
 62
  256
370
   -1
100
AcDbPolyline
 90
    4
 70
    1
 43
0
 10
1874.444382736499
 20
-841.4021161082691
 10
1954.444382736499
 20
-841.4021161082691
 10
1954.444382736499
 20
-761.4021161082691
 10
1874.444382736499
 20
-761.4021161082691
  0
LWPOLYLINE
  5
96
100
AcDbEntity
  8
0
  6
ByLayer
 62
  256
370
   -1
100
AcDbPolyline
 90
    4
 70
    1
 43
0
 10
1954.444382736499
 20
-841.4021161082691
 10
2064.444382736499
 20
-841.4021161082691
 10
2064.444382736499
 20
-761.4021161082691
 10
1954.444382736499
 20
-761.4021161082691
  0
LWPOLYLINE
  5
97
100
AcDbEntity
  8
0
  6
ByLayer
 62
  256
370
   -1
100
AcDbPolyline
 90
    4
 70
    1
 43
0
 10
2064.444382736499
 20
-841.4021161082691
 10
2174.444382736499
 20
-841.4021161082691
 10
2174.444382736499
 20
-761.4021161082691
 10
2064.444382736499
 20
-761.4021161082691
  0
LINE
  5
98
100
AcDbEntity
  8
0
  6
ByLayer
 62
  256
370
   -1
100
AcDbLine
 10
2064.444382736499
 20
-806.4021161082691
 11
2174.444382736499
 21
-806.4021161082691
  0
LINE
  5
99
100
AcDbEntity
  8
0
  6
ByLayer
 62
  256
370
   -1
100
AcDbLine
 10
2064.444382736499
 20
-786.4021161082691
 11
2174.444382736499
 21
-786.4021161082691
  0
LINE
  5
9A
100
AcDbEntity
  8
0
  6
ByLayer
 62
  256
370
   -1
100
AcDbLine
 10
2119.444382736499
 20
-799.702116108269
 11
2174.444382736499
 21
-799.702116108269
  0
LINE
  5
9B
100
AcDbEntity
  8
0
  6
ByLayer
 62
  256
370
   -1
100
AcDbLine
 10
2119.444382736499
 20
-793.0021161082691
 11
2174.444382736499
 21
-793.0021161082691
  0
LINE
  5
9C
100
AcDbEntity
  8
0
  6
ByLayer
 62
  256
370
   -1
100
AcDbLine
 10
2146.944382736499
 20
-799.702116108269
 11
2146.944382736499
 21
-793.0021161082691
  0
LINE
  5
9D
100
AcDbEntity
  8
0
  6
ByLayer
 62
  256
370
   -1
100
AcDbLine
 10
2119.444382736499
 20
-841.4021161082691
 11
2119.349783473575
 21
-786.4015347610003
  0
MTEXT
  5
9E
100
AcDbEntity
  8
0
  6
ByLayer
 62
  256
370
   -1
100
AcDbMText
 10
2067.562417402948
 20
-787.8805572604041
 30
0
 40
6
 41
29.33333333333453
 71
    1
 72
    1
  1
Comuna:\PCalle: 
  7
STANDARD
210
0
220
0
230
1
 50
0
 73
    2
 44
1
  0
MTEXT
  5
9F
100
AcDbEntity
  8
0
  6
ByLayer
 62
  256
370
   -1
100
AcDbMText
 10
2105.781446936532
 20
-770.2462107522995
 30
0
 40
6
 41
21.33333333333333
 71
    1
 72
    1
  1
Titulo
  7
STANDARD
210
0
220
0
230
1
 50
0
 73
    2
 44
1
  0
MTEXT
  5
A0
100
AcDbEntity
  8
0
  6
ByLayer
 62
  256
370
   -1
100
AcDbMText
 10
2066.638403798331
 20
-811.5071272316313
 30
0
 40
3
 41
45.25000000000042
 71
    1
 72
    1
  1
Aceptación Propietario
  7
STANDARD
210
0
220
0
230
1
 50
0
 73
    2
 44
1
  0
MTEXT
  5
A1
100
AcDbEntity
  8
0
  6
ByLayer
 62
  256
370
   -1
100
AcDbMText
 10
2126.345189872211
 20
-810.9643382673232
 30
0
 40
3
 41
19.33333487619534
 71
    1
 72
    1
  1
Instalador
  7
STANDARD
210
0
220
0
230
1
 50
0
 73
    2
 44
1
  0
MTEXT
  5
A2
100
AcDbEntity
  8
0
  6
ByLayer
 62
  256
370
   -1
100
AcDbMText
 10
2125.259611943595
 20
-787.3530183199255
 30
0
 40
3
 41
42.41666666666722
 71
    1
 72
    1
  1
Lámina __ de __
  7
STANDARD
210
0
220
0
230
1
 50
0
 73
    2
 44
1
  0
MTEXT
  5
A3
100
AcDbEntity
  8
0
  6
ByLayer
 62
  256
370
   -1
100
AcDbMText
 10
2121.551711703115
 20
-794.9476036877902
 30
0
 40
3
 41
11.66666820952854
 71
    1
 72
    1
  1
Escala
  7
STANDARD
210
0
220
0
230
1
 50
0
 73
    2
 44
1
  0
MTEXT
  5
A4
100
AcDbEntity
  8
0
  6
ByLayer
 62
  256
370
   -1
100
AcDbMText
 10
2149.060857677086
 20
-794.7266466920154
 30
0
 40
3
 41
10.33333333333361
 71
    1
 72
    1
  1
Fecha
  7
STANDARD
210
0
220
0
230
1
 50
0
 73
    2
 44
1
  0
LINE
  5
A5
100
AcDbEntity
  8
0
  6
ByLayer
 62
  256
370
   -1
100
AcDbLine
 10
2126.603946441195
 20
-829.1217004595402
 11
2166.603946441195
 21
-829.1217004595402
  0
MTEXT
  5
A6
100
AcDbEntity
  8
0
  6
ByLayer
 62
  256
370
   -1
100
AcDbMText
 10
2137.150502255347
 20
-831.806323980979
 30
0
 40
2
 41
18.83333333333352
 71
    1
 72
    1
  1
Licencia Titulo\PDomicilio\PTelefono
  7
STANDARD
210
0
220
0
230
1
 50
0
 73
    2
 44
1
  0
MTEXT
  5
A7
100
AcDbEntity
  8
0
  6
ByLayer
 62
  256
370
   -1
100
AcDbMText
 10
2141.223485579012
 20
-823.1536916365683
 30
0
 40
3
 41
9.666666666666945
 71
    1
 72
    1
  1
Firma
  7
STANDARD
210
0
220
0
230
1
 50
0
 73
    2
 44
1
  0
ARC
  5
A8
100
AcDbEntity
  8
0
  6
CONTINUOUS
 62
  256
370
  100
100
AcDbCircle
 10
120.4598048671725
 20
-14.38471736075451
 40
32.5
100
AcDbArc
 50
22.61986494804044
 51
157.3801350519596
  0
ARC
  5
A9
100
AcDbEntity
  8
0
  6
CONTINUOUS
 62
  256
370
  100
100
AcDbCircle
 10
180.4598048671725
 20
10.61528263924549
 40
32.5
100
AcDbArc
 50
202.6198649480404
 51
337.3801350519596
  0
LINE
  5
AA
100
AcDbEntity
  8
0
  6
ByLayer
 62
  256
370
   80
100
AcDbLine
 10
90.45980486717224
 20
-51.88471736075451
 11
210.4598048671725
 21
-51.88471736075451
  0
LINE
  5
AB
100
AcDbEntity
  8
0
  6
ByLayer
 62
  256
370
   80
100
AcDbLine
 10
90.45980486717224
 20
-71.88471736075451
 11
140.4598048671725
 21
-71.88471736075451
  0
LINE
  5
AC
100
AcDbEntity
  8
0
  6
ByLayer
 62
  256
370
   80
100
AcDbLine
 10
160.4598048671725
 20
-71.88471736075451
 11
210.4598048671725
 21
-71.88471736075451
  0
ENDSEC
  0
SECTION
  2
OBJECTS
  0
DICTIONARY
  5
C
330
0
100
AcDbDictionary
281
    1
  3
ACAD_GROUP
350
D
  0
DICTIONARY
  5
D
330
C
100
AcDbDictionary
281
    1
  0
ENDSEC
  0
EOF
